[_id]
FID=555
ProductCode=1
CodePage=1252
[end]

[_line]
Type=0x0A
String1=0x00,Unsurfaced
UseOrientation=N
Xpm="32 4 4 1"
"0 c #804000"
"1 c none"
"2 c #FFFFFF"
"3 c none"
"00000111000001110000011100000111"
"00000111000001110000011100000111"
"00000111000001110000011100000111"
"00000111000001110000011100000111"
[end]

[_line]
Type=0x0B
String1=0x00,Nordic Ski
UseOrientation=N
Xpm="32 2 4 1"
"0 c #874283"
"1 c none"
"2 c #FFFFFF"
"3 c #C0C0C0"
"00000000000000000000000000000000"
"00000000000000000000000000000000"
[end]

[_line]
Type=0x0F
String1=0x00,HikingTrail
UseOrientation=N
Xpm="32 4 4 1"
"0 c #FF0000"
"1 c none"
"2 c #FFFFFF"
"3 c none"
"00000000011111110000000011111111"
"00000000011111110000000011111111"
"11111111111111111111111111111111"
"11111111111111111111111111111111"
[end]

[_line]
Type=0x10
String1=0x00,Bike
UseOrientation=N
Xpm="32 4 4 1"
"0 c #FF8C00"
"1 c none"
"2 c #FFFFFF"
"3 c none"
"10011111100111111001111110011111"
"00001111000011110000111100001111"
"00001111000011110000111100001111"
"10011111100111111001111110011111"
[end]

[_line]
Type=0x12
String1=0x00,routable rest
UseOrientation=N
Xpm="32 1 4 1"
"0 c #C0C0C0"
"1 c none"
"2 c #FFFFFF"
"3 c #C0C0C0"
"11111111111111111111111111111111"
[end]
