﻿<?xml version="1.0" encoding="utf-8"?><gpx creator="Garmin Desktop App" version="1.1" xsi:schemaLocation="http://www.topografix.com/GPX/1/1 http://www.topografix.com/GPX/1/1/gpx.xsd http://www.garmin.com/xmlschemas/WaypointExtension/v1 http://www8.garmin.com/xmlschemas/WaypointExtensionv1.xsd http://www.garmin.com/xmlschemas/TrackPointExtension/v1 http://www.garmin.com/xmlschemas/TrackPointExtensionv1.xsd http://www.garmin.com/xmlschemas/GpxExtensions/v3 http://www8.garmin.com/xmlschemas/GpxExtensionsv3.xsd http://www.garmin.com/xmlschemas/ActivityExtension/v1 http://www8.garmin.com/xmlschemas/ActivityExtensionv1.xsd http://www.garmin.com/xmlschemas/AdventuresExtensions/v1 http://www8.garmin.com/xmlschemas/AdventuresExtensionv1.xsd http://www.garmin.com/xmlschemas/PressureExtension/v1 http://www.garmin.com/xmlschemas/PressureExtensionv1.xsd http://www.garmin.com/xmlschemas/TripExtensions/v1 http://www.garmin.com/xmlschemas/TripExtensionsv1.xsd http://www.garmin.com/xmlschemas/TripMetaDataExtensions/v1 http://www.garmin.com/xmlschemas/TripMetaDataExtensionsv1.xsd http://www.garmin.com/xmlschemas/ViaPointTransportationModeExtensions/v1 http://www.garmin.com/xmlschemas/ViaPointTransportationModeExtensionsv1.xsd http://www.garmin.com/xmlschemas/CreationTimeExtension/v1 http://www.garmin.com/xmlschemas/CreationTimeExtensionsv1.xsd http://www.garmin.com/xmlschemas/AccelerationExtension/v1 http://www.garmin.com/xmlschemas/AccelerationExtensionv1.xsd http://www.garmin.com/xmlschemas/PowerExtension/v1 http://www.garmin.com/xmlschemas/PowerExtensionv1.xsd http://www.garmin.com/xmlschemas/VideoExtension/v1 http://www.garmin.com/xmlschemas/VideoExtensionv1.xsd" xmlns="http://www.topografix.com/GPX/1/1" xmlns:xsi="http://www.w3.org/2001/XMLSchema-instance" xmlns:wptx1="http://www.garmin.com/xmlschemas/WaypointExtension/v1" xmlns:gpxtrx="http://www.garmin.com/xmlschemas/GpxExtensions/v3" xmlns:gpxtpx="http://www.garmin.com/xmlschemas/TrackPointExtension/v1" xmlns:gpxx="http://www.garmin.com/xmlschemas/GpxExtensions/v3" xmlns:trp="http://www.garmin.com/xmlschemas/TripExtensions/v1" xmlns:adv="http://www.garmin.com/xmlschemas/AdventuresExtensions/v1" xmlns:prs="http://www.garmin.com/xmlschemas/PressureExtension/v1" xmlns:tmd="http://www.garmin.com/xmlschemas/TripMetaDataExtensions/v1" xmlns:vptm="http://www.garmin.com/xmlschemas/ViaPointTransportationModeExtensions/v1" xmlns:ctx="http://www.garmin.com/xmlschemas/CreationTimeExtension/v1" xmlns:gpxacc="http://www.garmin.com/xmlschemas/AccelerationExtension/v1" xmlns:gpxpx="http://www.garmin.com/xmlschemas/PowerExtension/v1" xmlns:vidx1="http://www.garmin.com/xmlschemas/VideoExtension/v1">

  <metadata>
    <link href="http://www.garmin.com">
      <text>Garmin International</text>
    </link>
    <time>2021-06-10T01:31:41Z</time>
    <bounds maxlat="46.568242684006691" maxlon="-83.891705498099327" minlat="46.453688973560929" minlon="-83.935785004869103" />
  </metadata>

  <trk>
    <name>638 Trail Near Diamond</name>
    <extensions>
      <gpxx:TrackExtension>
        <gpxx:DisplayColor>DarkGray</gpxx:DisplayColor>
      </gpxx:TrackExtension>
    </extensions>
    <trkseg>
      <trkpt lat="46.458144960924983" lon="-83.891705498099327">
        <ele>234.80000305175781</ele>
        <time>2021-06-06T16:58:25Z</time>
        <extensions>
          <gpxtpx:TrackPointExtension>
            <gpxtpx:atemp>31</gpxtpx:atemp>
            <gpxtpx:cad>7</gpxtpx:cad>
          </gpxtpx:TrackPointExtension>
          <gpxx:TrackPointExtension>
            <gpxx:Temperature>31</gpxx:Temperature>
          </gpxx:TrackPointExtension>
        </extensions>
      </trkpt>
      <trkpt lat="46.45811889320612" lon="-83.891832148656249">
        <ele>234.39999389648437</ele>
        <time>2021-06-06T16:58:43Z</time>
        <extensions>
          <gpxtpx:TrackPointExtension>
            <gpxtpx:atemp>31</gpxtpx:atemp>
          </gpxtpx:TrackPointExtension>
          <gpxx:TrackPointExtension>
            <gpxx:Temperature>31</gpxx:Temperature>
          </gpxx:TrackPointExtension>
        </extensions>
      </trkpt>
      <trkpt lat="46.458112774416804" lon="-83.891852181404829">
        <ele>234.39999389648437</ele>
        <time>2021-06-06T16:58:44Z</time>
        <extensions>
          <gpxtpx:TrackPointExtension>
            <gpxtpx:atemp>31</gpxtpx:atemp>
          </gpxtpx:TrackPointExtension>
          <gpxx:TrackPointExtension>
            <gpxx:Temperature>31</gpxx:Temperature>
          </gpxx:TrackPointExtension>
        </extensions>
      </trkpt>
      <trkpt lat="46.458105482161045" lon="-83.891873471438885">
        <ele>234.19999694824219</ele>
        <time>2021-06-06T16:58:45Z</time>
        <extensions>
          <gpxtpx:TrackPointExtension>
            <gpxtpx:atemp>31</gpxtpx:atemp>
          </gpxtpx:TrackPointExtension>
          <gpxx:TrackPointExtension>
            <gpxx:Temperature>31</gpxx:Temperature>
          </gpxx:TrackPointExtension>
        </extensions>
      </trkpt>
      <trkpt lat="46.458094334229827" lon="-83.891892498359084">
        <ele>234.19999694824219</ele>
        <time>2021-06-06T16:58:46Z</time>
        <extensions>
          <gpxtpx:TrackPointExtension>
            <gpxtpx:atemp>31</gpxtpx:atemp>
            <gpxtpx:cad>29</gpxtpx:cad>
          </gpxtpx:TrackPointExtension>
          <gpxx:TrackPointExtension>
            <gpxx:Temperature>31</gpxx:Temperature>
          </gpxx:TrackPointExtension>
        </extensions>
      </trkpt>
      <trkpt lat="46.458081845194101" lon="-83.891913956031203">
        <ele>234</ele>
        <time>2021-06-06T16:58:47Z</time>
        <extensions>
          <gpxtpx:TrackPointExtension>
            <gpxtpx:atemp>31</gpxtpx:atemp>
            <gpxtpx:cad>29</gpxtpx:cad>
          </gpxtpx:TrackPointExtension>
          <gpxx:TrackPointExtension>
            <gpxx:Temperature>31</gpxx:Temperature>
          </gpxx:TrackPointExtension>
        </extensions>
      </trkpt>
      <trkpt lat="46.458070613443851" lon="-83.891932480037212">
        <ele>234.39999389648437</ele>
        <time>2021-06-06T16:58:48Z</time>
        <extensions>
          <gpxtpx:TrackPointExtension>
            <gpxtpx:atemp>31</gpxtpx:atemp>
            <gpxtpx:cad>34</gpxtpx:cad>
          </gpxtpx:TrackPointExtension>
          <gpxx:TrackPointExtension>
            <gpxx:Temperature>31</gpxx:Temperature>
          </gpxx:TrackPointExtension>
        </extensions>
      </trkpt>
      <trkpt lat="46.458056699484587" lon="-83.891949662938714">
        <ele>234.39999389648437</ele>
        <time>2021-06-06T16:58:49Z</time>
        <extensions>
          <gpxtpx:TrackPointExtension>
            <gpxtpx:atemp>31</gpxtpx:atemp>
            <gpxtpx:cad>36</gpxtpx:cad>
          </gpxtpx:TrackPointExtension>
          <gpxx:TrackPointExtension>
            <gpxx:Temperature>31</gpxx:Temperature>
          </gpxx:TrackPointExtension>
        </extensions>
      </trkpt>
      <trkpt lat="46.458044797182083" lon="-83.891961062327027">
        <ele>234.39999389648437</ele>
        <time>2021-06-06T16:58:50Z</time>
        <extensions>
          <gpxtpx:TrackPointExtension>
            <gpxtpx:atemp>31</gpxtpx:atemp>
            <gpxtpx:cad>36</gpxtpx:cad>
          </gpxtpx:TrackPointExtension>
          <gpxx:TrackPointExtension>
            <gpxx:Temperature>31</gpxx:Temperature>
          </gpxx:TrackPointExtension>
        </extensions>
      </trkpt>
      <trkpt lat="46.458037421107292" lon="-83.891975060105324">
        <ele>234.39999389648437</ele>
        <time>2021-06-06T16:58:51Z</time>
        <extensions>
          <gpxtpx:TrackPointExtension>
            <gpxtpx:atemp>31</gpxtpx:atemp>
            <gpxtpx:cad>35</gpxtpx:cad>
          </gpxtpx:TrackPointExtension>
          <gpxx:TrackPointExtension>
            <gpxx:Temperature>31</gpxx:Temperature>
          </gpxx:TrackPointExtension>
        </extensions>
      </trkpt>
      <trkpt lat="46.458031386137009" lon="-83.891986375674605">
        <ele>234.39999389648437</ele>
        <time>2021-06-06T16:58:52Z</time>
        <extensions>
          <gpxtpx:TrackPointExtension>
            <gpxtpx:atemp>31</gpxtpx:atemp>
            <gpxtpx:cad>35</gpxtpx:cad>
          </gpxtpx:TrackPointExtension>
          <gpxx:TrackPointExtension>
            <gpxx:Temperature>31</gpxx:Temperature>
          </gpxx:TrackPointExtension>
        </extensions>
      </trkpt>
      <trkpt lat="46.458027027547359" lon="-83.891995176672935">
        <ele>234.39999389648437</ele>
        <time>2021-06-06T16:58:53Z</time>
        <extensions>
          <gpxtpx:TrackPointExtension>
            <gpxtpx:atemp>31</gpxtpx:atemp>
            <gpxtpx:cad>34</gpxtpx:cad>
          </gpxtpx:TrackPointExtension>
          <gpxx:TrackPointExtension>
            <gpxx:Temperature>31</gpxx:Temperature>
          </gpxx:TrackPointExtension>
        </extensions>
      </trkpt>
      <trkpt lat="46.457934156060219" lon="-83.892226433381438">
        <ele>235.39999389648437</ele>
        <time>2021-06-06T16:59:06Z</time>
        <extensions>
          <gpxtpx:TrackPointExtension>
            <gpxtpx:atemp>31</gpxtpx:atemp>
            <gpxtpx:cad>33</gpxtpx:cad>
          </gpxtpx:TrackPointExtension>
          <gpxx:TrackPointExtension>
            <gpxx:Temperature>31</gpxx:Temperature>
          </gpxx:TrackPointExtension>
        </extensions>
      </trkpt>
      <trkpt lat="46.457930048927665" lon="-83.892252836376429">
        <ele>235.39999389648437</ele>
        <time>2021-06-06T16:59:07Z</time>
        <extensions>
          <gpxtpx:TrackPointExtension>
            <gpxtpx:atemp>31</gpxtpx:atemp>
            <gpxtpx:cad>33</gpxtpx:cad>
          </gpxtpx:TrackPointExtension>
          <gpxx:TrackPointExtension>
            <gpxx:Temperature>31</gpxx:Temperature>
          </gpxx:TrackPointExtension>
        </extensions>
      </trkpt>
      <trkpt lat="46.457925941795111" lon="-83.89227488078177">
        <ele>235.60000610351562</ele>
        <time>2021-06-06T16:59:08Z</time>
        <extensions>
          <gpxtpx:TrackPointExtension>
            <gpxtpx:atemp>31</gpxtpx:atemp>
            <gpxtpx:cad>33</gpxtpx:cad>
          </gpxtpx:TrackPointExtension>
          <gpxx:TrackPointExtension>
            <gpxx:Temperature>31</gpxx:Temperature>
          </gpxx:TrackPointExtension>
        </extensions>
      </trkpt>
      <trkpt lat="46.457916386425495" lon="-83.892298014834523">
        <ele>235.80000305175781</ele>
        <time>2021-06-06T16:59:09Z</time>
        <extensions>
          <gpxtpx:TrackPointExtension>
            <gpxtpx:atemp>31</gpxtpx:atemp>
            <gpxtpx:cad>18</gpxtpx:cad>
          </gpxtpx:TrackPointExtension>
          <gpxx:TrackPointExtension>
            <gpxx:Temperature>31</gpxx:Temperature>
          </gpxx:TrackPointExtension>
        </extensions>
      </trkpt>
      <trkpt lat="46.457914793863893" lon="-83.892322070896626">
        <ele>235.80000305175781</ele>
        <time>2021-06-06T16:59:10Z</time>
        <extensions>
          <gpxtpx:TrackPointExtension>
            <gpxtpx:atemp>31</gpxtpx:atemp>
            <gpxtpx:cad>41</gpxtpx:cad>
          </gpxtpx:TrackPointExtension>
          <gpxx:TrackPointExtension>
            <gpxx:Temperature>31</gpxx:Temperature>
          </gpxx:TrackPointExtension>
        </extensions>
      </trkpt>
      <trkpt lat="46.457914290949702" lon="-83.892348641529679">
        <ele>235.80000305175781</ele>
        <time>2021-06-06T16:59:11Z</time>
        <extensions>
          <gpxtpx:TrackPointExtension>
            <gpxtpx:atemp>31</gpxtpx:atemp>
            <gpxtpx:cad>41</gpxtpx:cad>
          </gpxtpx:TrackPointExtension>
          <gpxx:TrackPointExtension>
            <gpxx:Temperature>31</gpxx:Temperature>
          </gpxx:TrackPointExtension>
        </extensions>
      </trkpt>
      <trkpt lat="46.4579126983881" lon="-83.89237605035305">
        <ele>236</ele>
        <time>2021-06-06T16:59:12Z</time>
        <extensions>
          <gpxtpx:TrackPointExtension>
            <gpxtpx:atemp>31</gpxtpx:atemp>
            <gpxtpx:cad>38</gpxtpx:cad>
          </gpxtpx:TrackPointExtension>
          <gpxx:TrackPointExtension>
            <gpxx:Temperature>31</gpxx:Temperature>
          </gpxx:TrackPointExtension>
        </extensions>
      </trkpt>
      <trkpt lat="46.45790146663785" lon="-83.892407063394785">
        <ele>236</ele>
        <time>2021-06-06T16:59:13Z</time>
        <extensions>
          <gpxtpx:TrackPointExtension>
            <gpxtpx:atemp>31</gpxtpx:atemp>
            <gpxtpx:cad>38</gpxtpx:cad>
          </gpxtpx:TrackPointExtension>
          <gpxx:TrackPointExtension>
            <gpxx:Temperature>31</gpxx:Temperature>
          </gpxx:TrackPointExtension>
        </extensions>
      </trkpt>
      <trkpt lat="46.457886211574078" lon="-83.892441093921661">
        <ele>235.80000305175781</ele>
        <time>2021-06-06T16:59:14Z</time>
        <extensions>
          <gpxtpx:TrackPointExtension>
            <gpxtpx:atemp>31</gpxtpx:atemp>
            <gpxtpx:cad>38</gpxtpx:cad>
          </gpxtpx:TrackPointExtension>
          <gpxx:TrackPointExtension>
            <gpxx:Temperature>31</gpxx:Temperature>
          </gpxx:TrackPointExtension>
        </extensions>
      </trkpt>
      <trkpt lat="46.457876404747367" lon="-83.892478309571743">
        <ele>235.80000305175781</ele>
        <time>2021-06-06T16:59:15Z</time>
        <extensions>
          <gpxtpx:TrackPointExtension>
            <gpxtpx:atemp>31</gpxtpx:atemp>
            <gpxtpx:cad>0</gpxtpx:cad>
          </gpxtpx:TrackPointExtension>
          <gpxx:TrackPointExtension>
            <gpxx:Temperature>31</gpxx:Temperature>
          </gpxx:TrackPointExtension>
        </extensions>
      </trkpt>
      <trkpt lat="46.457870621234179" lon="-83.8925167825073">
        <ele>236</ele>
        <time>2021-06-06T16:59:16Z</time>
        <extensions>
          <gpxtpx:TrackPointExtension>
            <gpxtpx:atemp>31</gpxtpx:atemp>
            <gpxtpx:cad>16</gpxtpx:cad>
          </gpxtpx:TrackPointExtension>
          <gpxx:TrackPointExtension>
            <gpxx:Temperature>31</gpxx:Temperature>
          </gpxx:TrackPointExtension>
        </extensions>
      </trkpt>
      <trkpt lat="46.457868106663227" lon="-83.892555758357048">
        <ele>236</ele>
        <time>2021-06-06T16:59:17Z</time>
        <extensions>
          <gpxtpx:TrackPointExtension>
            <gpxtpx:atemp>31</gpxtpx:atemp>
            <gpxtpx:cad>46</gpxtpx:cad>
          </gpxtpx:TrackPointExtension>
          <gpxx:TrackPointExtension>
            <gpxx:Temperature>31</gpxx:Temperature>
          </gpxx:TrackPointExtension>
        </extensions>
      </trkpt>
      <trkpt lat="46.457865172997117" lon="-83.892590627074242">
        <ele>236</ele>
        <time>2021-06-06T16:59:18Z</time>
        <extensions>
          <gpxtpx:TrackPointExtension>
            <gpxtpx:atemp>31</gpxtpx:atemp>
            <gpxtpx:cad>66</gpxtpx:cad>
          </gpxtpx:TrackPointExtension>
          <gpxx:TrackPointExtension>
            <gpxx:Temperature>31</gpxx:Temperature>
          </gpxx:TrackPointExtension>
        </extensions>
      </trkpt>
      <trkpt lat="46.457857629284263" lon="-83.892629351466894">
        <ele>235.80000305175781</ele>
        <time>2021-06-06T16:59:19Z</time>
        <extensions>
          <gpxtpx:TrackPointExtension>
            <gpxtpx:atemp>31</gpxtpx:atemp>
            <gpxtpx:cad>66</gpxtpx:cad>
          </gpxtpx:TrackPointExtension>
          <gpxx:TrackPointExtension>
            <gpxx:Temperature>31</gpxx:Temperature>
          </gpxx:TrackPointExtension>
        </extensions>
      </trkpt>
      <trkpt lat="46.457848493009806" lon="-83.892667321488261">
        <ele>236</ele>
        <time>2021-06-06T16:59:20Z</time>
        <extensions>
          <gpxtpx:TrackPointExtension>
            <gpxtpx:atemp>31</gpxtpx:atemp>
            <gpxtpx:cad>66</gpxtpx:cad>
          </gpxtpx:TrackPointExtension>
          <gpxx:TrackPointExtension>
            <gpxx:Temperature>31</gpxx:Temperature>
          </gpxx:TrackPointExtension>
        </extensions>
      </trkpt>
      <trkpt lat="46.457837680354714" lon="-83.892713421955705">
        <ele>235.80000305175781</ele>
        <time>2021-06-06T16:59:21Z</time>
        <extensions>
          <gpxtpx:TrackPointExtension>
            <gpxtpx:atemp>31</gpxtpx:atemp>
            <gpxtpx:cad>0</gpxtpx:cad>
          </gpxtpx:TrackPointExtension>
          <gpxx:TrackPointExtension>
            <gpxx:Temperature>31</gpxx:Temperature>
          </gpxx:TrackPointExtension>
        </extensions>
      </trkpt>
      <trkpt lat="46.457827789708972" lon="-83.892769580706954">
        <ele>235.80000305175781</ele>
        <time>2021-06-06T16:59:22Z</time>
        <extensions>
          <gpxtpx:TrackPointExtension>
            <gpxtpx:atemp>31</gpxtpx:atemp>
            <gpxtpx:cad>0</gpxtpx:cad>
          </gpxtpx:TrackPointExtension>
          <gpxx:TrackPointExtension>
            <gpxx:Temperature>31</gpxx:Temperature>
          </gpxx:TrackPointExtension>
        </extensions>
      </trkpt>
      <trkpt lat="46.457820245996118" lon="-83.892821799963713">
        <ele>235.80000305175781</ele>
        <time>2021-06-06T16:59:23Z</time>
        <extensions>
          <gpxtpx:TrackPointExtension>
            <gpxtpx:atemp>31</gpxtpx:atemp>
            <gpxtpx:cad>0</gpxtpx:cad>
          </gpxtpx:TrackPointExtension>
          <gpxx:TrackPointExtension>
            <gpxx:Temperature>31</gpxx:Temperature>
          </gpxx:TrackPointExtension>
        </extensions>
      </trkpt>
      <trkpt lat="46.45780373364687" lon="-83.892881730571389">
        <ele>235.39999389648437</ele>
        <time>2021-06-06T16:59:24Z</time>
        <extensions>
          <gpxtpx:TrackPointExtension>
            <gpxtpx:atemp>31</gpxtpx:atemp>
            <gpxtpx:cad>20</gpxtpx:cad>
          </gpxtpx:TrackPointExtension>
          <gpxx:TrackPointExtension>
            <gpxx:Temperature>31</gpxx:Temperature>
          </gpxx:TrackPointExtension>
        </extensions>
      </trkpt>
      <trkpt lat="46.457786383107305" lon="-83.892943421378732">
        <ele>235.39999389648437</ele>
        <time>2021-06-06T16:59:25Z</time>
        <extensions>
          <gpxtpx:TrackPointExtension>
            <gpxtpx:atemp>31</gpxtpx:atemp>
            <gpxtpx:cad>82</gpxtpx:cad>
          </gpxtpx:TrackPointExtension>
          <gpxx:TrackPointExtension>
            <gpxx:Temperature>31</gpxx:Temperature>
          </gpxx:TrackPointExtension>
        </extensions>
      </trkpt>
      <trkpt lat="46.457768362015486" lon="-83.892999580129981">
        <ele>235.39999389648437</ele>
        <time>2021-06-06T16:59:26Z</time>
        <extensions>
          <gpxtpx:TrackPointExtension>
            <gpxtpx:atemp>31</gpxtpx:atemp>
            <gpxtpx:cad>81</gpxtpx:cad>
          </gpxtpx:TrackPointExtension>
          <gpxx:TrackPointExtension>
            <gpxx:Temperature>31</gpxx:Temperature>
          </gpxx:TrackPointExtension>
        </extensions>
      </trkpt>
      <trkpt lat="46.45774707198143" lon="-83.893063869327307">
        <ele>235.19999694824219</ele>
        <time>2021-06-06T16:59:27Z</time>
        <extensions>
          <gpxtpx:TrackPointExtension>
            <gpxtpx:atemp>31</gpxtpx:atemp>
            <gpxtpx:cad>81</gpxtpx:cad>
          </gpxtpx:TrackPointExtension>
          <gpxx:TrackPointExtension>
            <gpxx:Temperature>31</gpxx:Temperature>
          </gpxx:TrackPointExtension>
        </extensions>
      </trkpt>
      <trkpt lat="46.457729721441865" lon="-83.893127236515284">
        <ele>234.80000305175781</ele>
        <time>2021-06-06T16:59:28Z</time>
        <extensions>
          <gpxtpx:TrackPointExtension>
            <gpxtpx:atemp>31</gpxtpx:atemp>
            <gpxtpx:cad>78</gpxtpx:cad>
          </gpxtpx:TrackPointExtension>
          <gpxx:TrackPointExtension>
            <gpxx:Temperature>31</gpxx:Temperature>
          </gpxx:TrackPointExtension>
        </extensions>
      </trkpt>
      <trkpt lat="46.457709353417158" lon="-83.893190436065197">
        <ele>234.60000610351562</ele>
        <time>2021-06-06T16:59:29Z</time>
        <extensions>
          <gpxtpx:TrackPointExtension>
            <gpxtpx:atemp>31</gpxtpx:atemp>
            <gpxtpx:cad>76</gpxtpx:cad>
          </gpxtpx:TrackPointExtension>
          <gpxx:TrackPointExtension>
            <gpxx:Temperature>31</gpxx:Temperature>
          </gpxx:TrackPointExtension>
        </extensions>
      </trkpt>
      <trkpt lat="46.457693008705974" lon="-83.893247852101922">
        <ele>234.60000610351562</ele>
        <time>2021-06-06T16:59:30Z</time>
        <extensions>
          <gpxtpx:TrackPointExtension>
            <gpxtpx:atemp>31</gpxtpx:atemp>
            <gpxtpx:cad>73</gpxtpx:cad>
          </gpxtpx:TrackPointExtension>
          <gpxx:TrackPointExtension>
            <gpxx:Temperature>31</gpxx:Temperature>
          </gpxx:TrackPointExtension>
        </extensions>
      </trkpt>
      <trkpt lat="46.457678424194455" lon="-83.893299987539649">
        <ele>234.39999389648437</ele>
        <time>2021-06-06T16:59:31Z</time>
        <extensions>
          <gpxtpx:TrackPointExtension>
            <gpxtpx:atemp>31</gpxtpx:atemp>
            <gpxtpx:cad>72</gpxtpx:cad>
          </gpxtpx:TrackPointExtension>
          <gpxx:TrackPointExtension>
            <gpxx:Temperature>31</gpxx:Temperature>
          </gpxx:TrackPointExtension>
        </extensions>
      </trkpt>
      <trkpt lat="46.457660989835858" lon="-83.893356565386057">
        <ele>234</ele>
        <time>2021-06-06T16:59:32Z</time>
        <extensions>
          <gpxtpx:TrackPointExtension>
            <gpxtpx:atemp>31</gpxtpx:atemp>
            <gpxtpx:cad>70</gpxtpx:cad>
          </gpxtpx:TrackPointExtension>
          <gpxx:TrackPointExtension>
            <gpxx:Temperature>31</gpxx:Temperature>
          </gpxx:TrackPointExtension>
        </extensions>
      </trkpt>
      <trkpt lat="46.457643639296293" lon="-83.893419597297907">
        <ele>234</ele>
        <time>2021-06-06T16:59:33Z</time>
        <extensions>
          <gpxtpx:TrackPointExtension>
            <gpxtpx:atemp>31</gpxtpx:atemp>
            <gpxtpx:cad>70</gpxtpx:cad>
          </gpxtpx:TrackPointExtension>
          <gpxx:TrackPointExtension>
            <gpxx:Temperature>31</gpxx:Temperature>
          </gpxx:TrackPointExtension>
        </extensions>
      </trkpt>
      <trkpt lat="46.457625702023506" lon="-83.893484557047486">
        <ele>234</ele>
        <time>2021-06-06T16:59:34Z</time>
        <extensions>
          <gpxtpx:TrackPointExtension>
            <gpxtpx:atemp>31</gpxtpx:atemp>
            <gpxtpx:cad>70</gpxtpx:cad>
          </gpxtpx:TrackPointExtension>
          <gpxx:TrackPointExtension>
            <gpxx:Temperature>31</gpxx:Temperature>
          </gpxx:TrackPointExtension>
        </extensions>
      </trkpt>
      <trkpt lat="46.45760583691299" lon="-83.893545996397734">
        <ele>234</ele>
        <time>2021-06-06T16:59:35Z</time>
        <extensions>
          <gpxtpx:TrackPointExtension>
            <gpxtpx:atemp>31</gpxtpx:atemp>
            <gpxtpx:cad>70</gpxtpx:cad>
          </gpxtpx:TrackPointExtension>
          <gpxx:TrackPointExtension>
            <gpxx:Temperature>31</gpxx:Temperature>
          </gpxx:TrackPointExtension>
        </extensions>
      </trkpt>
      <trkpt lat="46.4575828704983" lon="-83.893620511516929">
        <ele>234</ele>
        <time>2021-06-06T16:59:36Z</time>
        <extensions>
          <gpxtpx:TrackPointExtension>
            <gpxtpx:atemp>31</gpxtpx:atemp>
            <gpxtpx:cad>72</gpxtpx:cad>
          </gpxtpx:TrackPointExtension>
          <gpxx:TrackPointExtension>
            <gpxx:Temperature>31</gpxx:Temperature>
          </gpxx:TrackPointExtension>
        </extensions>
      </trkpt>
      <trkpt lat="46.457562753930688" lon="-83.893681531772017">
        <ele>234</ele>
        <time>2021-06-06T16:59:37Z</time>
        <extensions>
          <gpxtpx:TrackPointExtension>
            <gpxtpx:atemp>31</gpxtpx:atemp>
            <gpxtpx:cad>73</gpxtpx:cad>
          </gpxtpx:TrackPointExtension>
          <gpxx:TrackPointExtension>
            <gpxx:Temperature>31</gpxx:Temperature>
          </gpxx:TrackPointExtension>
        </extensions>
      </trkpt>
      <trkpt lat="46.457542888820171" lon="-83.893745150417089">
        <ele>234</ele>
        <time>2021-06-06T16:59:38Z</time>
        <extensions>
          <gpxtpx:TrackPointExtension>
            <gpxtpx:atemp>31</gpxtpx:atemp>
            <gpxtpx:cad>74</gpxtpx:cad>
          </gpxtpx:TrackPointExtension>
          <gpxx:TrackPointExtension>
            <gpxx:Temperature>31</gpxx:Temperature>
          </gpxx:TrackPointExtension>
        </extensions>
      </trkpt>
      <trkpt lat="46.457521179690957" lon="-83.893823521211743">
        <ele>234</ele>
        <time>2021-06-06T16:59:39Z</time>
        <extensions>
          <gpxtpx:TrackPointExtension>
            <gpxtpx:atemp>31</gpxtpx:atemp>
            <gpxtpx:cad>74</gpxtpx:cad>
          </gpxtpx:TrackPointExtension>
          <gpxx:TrackPointExtension>
            <gpxx:Temperature>31</gpxx:Temperature>
          </gpxx:TrackPointExtension>
        </extensions>
      </trkpt>
      <trkpt lat="46.457494106143713" lon="-83.893893258646131">
        <ele>234</ele>
        <time>2021-06-06T16:59:40Z</time>
        <extensions>
          <gpxtpx:TrackPointExtension>
            <gpxtpx:atemp>31</gpxtpx:atemp>
            <gpxtpx:cad>75</gpxtpx:cad>
          </gpxtpx:TrackPointExtension>
          <gpxx:TrackPointExtension>
            <gpxx:Temperature>31</gpxx:Temperature>
          </gpxx:TrackPointExtension>
        </extensions>
      </trkpt>
      <trkpt lat="46.457474073395133" lon="-83.893964840099216">
        <ele>234</ele>
        <time>2021-06-06T16:59:41Z</time>
        <extensions>
          <gpxtpx:TrackPointExtension>
            <gpxtpx:atemp>31</gpxtpx:atemp>
            <gpxtpx:cad>75</gpxtpx:cad>
          </gpxtpx:TrackPointExtension>
          <gpxx:TrackPointExtension>
            <gpxx:Temperature>31</gpxx:Temperature>
          </gpxx:TrackPointExtension>
        </extensions>
      </trkpt>
      <trkpt lat="46.457457477226853" lon="-83.894027452915907">
        <ele>234.19999694824219</ele>
        <time>2021-06-06T16:59:42Z</time>
        <extensions>
          <gpxtpx:TrackPointExtension>
            <gpxtpx:atemp>31</gpxtpx:atemp>
            <gpxtpx:cad>74</gpxtpx:cad>
          </gpxtpx:TrackPointExtension>
          <gpxx:TrackPointExtension>
            <gpxx:Temperature>31</gpxx:Temperature>
          </gpxx:TrackPointExtension>
        </extensions>
      </trkpt>
      <trkpt lat="46.457435600459576" lon="-83.894100710749626">
        <ele>234.19999694824219</ele>
        <time>2021-06-06T16:59:43Z</time>
        <extensions>
          <gpxtpx:TrackPointExtension>
            <gpxtpx:atemp>31</gpxtpx:atemp>
            <gpxtpx:cad>73</gpxtpx:cad>
          </gpxtpx:TrackPointExtension>
          <gpxx:TrackPointExtension>
            <gpxx:Temperature>31</gpxx:Temperature>
          </gpxx:TrackPointExtension>
        </extensions>
      </trkpt>
      <trkpt lat="46.457410035654902" lon="-83.894163323566318">
        <ele>234</ele>
        <time>2021-06-06T16:59:44Z</time>
        <extensions>
          <gpxtpx:TrackPointExtension>
            <gpxtpx:atemp>31</gpxtpx:atemp>
            <gpxtpx:cad>74</gpxtpx:cad>
          </gpxtpx:TrackPointExtension>
          <gpxx:TrackPointExtension>
            <gpxx:Temperature>31</gpxx:Temperature>
          </gpxx:TrackPointExtension>
        </extensions>
      </trkpt>
      <trkpt lat="46.4573825430125" lon="-83.8942367490381">
        <ele>234.19999694824219</ele>
        <time>2021-06-06T16:59:45Z</time>
        <extensions>
          <gpxtpx:TrackPointExtension>
            <gpxtpx:atemp>31</gpxtpx:atemp>
            <gpxtpx:cad>74</gpxtpx:cad>
          </gpxtpx:TrackPointExtension>
          <gpxx:TrackPointExtension>
            <gpxx:Temperature>31</gpxx:Temperature>
          </gpxx:TrackPointExtension>
        </extensions>
      </trkpt>
      <trkpt lat="46.457350524142385" lon="-83.894313275814056">
        <ele>234.19999694824219</ele>
        <time>2021-06-06T16:59:46Z</time>
        <extensions>
          <gpxtpx:TrackPointExtension>
            <gpxtpx:atemp>31</gpxtpx:atemp>
            <gpxtpx:cad>74</gpxtpx:cad>
          </gpxtpx:TrackPointExtension>
          <gpxx:TrackPointExtension>
            <gpxx:Temperature>31</gpxx:Temperature>
          </gpxx:TrackPointExtension>
        </extensions>
      </trkpt>
      <trkpt lat="46.457319930195808" lon="-83.894363064318895">
        <ele>234.19999694824219</ele>
        <time>2021-06-06T16:59:47Z</time>
        <extensions>
          <gpxtpx:TrackPointExtension>
            <gpxtpx:atemp>31</gpxtpx:atemp>
            <gpxtpx:cad>73</gpxtpx:cad>
          </gpxtpx:TrackPointExtension>
          <gpxx:TrackPointExtension>
            <gpxx:Temperature>31</gpxx:Temperature>
          </gpxx:TrackPointExtension>
        </extensions>
      </trkpt>
      <trkpt lat="46.457288330420852" lon="-83.894423162564635">
        <ele>234.19999694824219</ele>
        <time>2021-06-06T16:59:48Z</time>
        <extensions>
          <gpxtpx:TrackPointExtension>
            <gpxtpx:atemp>31</gpxtpx:atemp>
            <gpxtpx:cad>72</gpxtpx:cad>
          </gpxtpx:TrackPointExtension>
          <gpxx:TrackPointExtension>
            <gpxx:Temperature>31</gpxx:Temperature>
          </gpxx:TrackPointExtension>
        </extensions>
      </trkpt>
      <trkpt lat="46.457256395369768" lon="-83.894473453983665">
        <ele>234.19999694824219</ele>
        <time>2021-06-06T16:59:49Z</time>
        <extensions>
          <gpxtpx:TrackPointExtension>
            <gpxtpx:atemp>31</gpxtpx:atemp>
            <gpxtpx:cad>72</gpxtpx:cad>
          </gpxtpx:TrackPointExtension>
          <gpxx:TrackPointExtension>
            <gpxx:Temperature>31</gpxx:Temperature>
          </gpxx:TrackPointExtension>
        </extensions>
      </trkpt>
      <trkpt lat="46.457217754796147" lon="-83.894524332135916">
        <ele>234.19999694824219</ele>
        <time>2021-06-06T16:59:50Z</time>
        <extensions>
          <gpxtpx:TrackPointExtension>
            <gpxtpx:atemp>31</gpxtpx:atemp>
            <gpxtpx:cad>79</gpxtpx:cad>
          </gpxtpx:TrackPointExtension>
          <gpxx:TrackPointExtension>
            <gpxx:Temperature>31</gpxx:Temperature>
          </gpxx:TrackPointExtension>
        </extensions>
      </trkpt>
      <trkpt lat="46.457182383164763" lon="-83.894574288278818">
        <ele>234.19999694824219</ele>
        <time>2021-06-06T16:59:51Z</time>
        <extensions>
          <gpxtpx:TrackPointExtension>
            <gpxtpx:atemp>31</gpxtpx:atemp>
            <gpxtpx:cad>71</gpxtpx:cad>
          </gpxtpx:TrackPointExtension>
          <gpxx:TrackPointExtension>
            <gpxx:Temperature>31</gpxx:Temperature>
          </gpxx:TrackPointExtension>
        </extensions>
      </trkpt>
      <trkpt lat="46.457136031240225" lon="-83.894627094268799">
        <ele>234.19999694824219</ele>
        <time>2021-06-06T16:59:52Z</time>
        <extensions>
          <gpxtpx:TrackPointExtension>
            <gpxtpx:atemp>31</gpxtpx:atemp>
            <gpxtpx:cad>71</gpxtpx:cad>
          </gpxtpx:TrackPointExtension>
          <gpxx:TrackPointExtension>
            <gpxx:Temperature>31</gpxx:Temperature>
          </gpxx:TrackPointExtension>
        </extensions>
      </trkpt>
      <trkpt lat="46.457093032076955" lon="-83.894669422879815">
        <ele>234.39999389648437</ele>
        <time>2021-06-06T16:59:53Z</time>
        <extensions>
          <gpxtpx:TrackPointExtension>
            <gpxtpx:atemp>31</gpxtpx:atemp>
            <gpxtpx:cad>72</gpxtpx:cad>
          </gpxtpx:TrackPointExtension>
          <gpxx:TrackPointExtension>
            <gpxx:Temperature>31</gpxx:Temperature>
          </gpxx:TrackPointExtension>
        </extensions>
      </trkpt>
      <trkpt lat="46.457046344876289" lon="-83.894717786461115">
        <ele>234.19999694824219</ele>
        <time>2021-06-06T16:59:54Z</time>
        <extensions>
          <gpxtpx:TrackPointExtension>
            <gpxtpx:atemp>31</gpxtpx:atemp>
            <gpxtpx:cad>72</gpxtpx:cad>
          </gpxtpx:TrackPointExtension>
          <gpxx:TrackPointExtension>
            <gpxx:Temperature>31</gpxx:Temperature>
          </gpxx:TrackPointExtension>
        </extensions>
      </trkpt>
      <trkpt lat="46.456999992951751" lon="-83.894759695976973">
        <ele>234.19999694824219</ele>
        <time>2021-06-06T16:59:55Z</time>
        <extensions>
          <gpxtpx:TrackPointExtension>
            <gpxtpx:atemp>31</gpxtpx:atemp>
            <gpxtpx:cad>72</gpxtpx:cad>
          </gpxtpx:TrackPointExtension>
          <gpxx:TrackPointExtension>
            <gpxx:Temperature>31</gpxx:Temperature>
          </gpxx:TrackPointExtension>
        </extensions>
      </trkpt>
      <trkpt lat="46.456964034587145" lon="-83.894802024587989">
        <ele>234.39999389648437</ele>
        <time>2021-06-06T16:59:56Z</time>
        <extensions>
          <gpxtpx:TrackPointExtension>
            <gpxtpx:atemp>31</gpxtpx:atemp>
            <gpxtpx:cad>0</gpxtpx:cad>
          </gpxtpx:TrackPointExtension>
          <gpxx:TrackPointExtension>
            <gpxx:Temperature>31</gpxx:Temperature>
          </gpxx:TrackPointExtension>
        </extensions>
      </trkpt>
      <trkpt lat="46.456934195011854" lon="-83.894838150590658">
        <ele>234.39999389648437</ele>
        <time>2021-06-06T16:59:57Z</time>
        <extensions>
          <gpxtpx:TrackPointExtension>
            <gpxtpx:atemp>31</gpxtpx:atemp>
            <gpxtpx:cad>0</gpxtpx:cad>
          </gpxtpx:TrackPointExtension>
          <gpxx:TrackPointExtension>
            <gpxx:Temperature>31</gpxx:Temperature>
          </gpxx:TrackPointExtension>
        </extensions>
      </trkpt>
      <trkpt lat="46.456912821158767" lon="-83.894882323220372">
        <ele>234.39999389648437</ele>
        <time>2021-06-06T16:59:58Z</time>
        <extensions>
          <gpxtpx:TrackPointExtension>
            <gpxtpx:atemp>31</gpxtpx:atemp>
            <gpxtpx:cad>0</gpxtpx:cad>
          </gpxtpx:TrackPointExtension>
          <gpxx:TrackPointExtension>
            <gpxx:Temperature>31</gpxx:Temperature>
          </gpxx:TrackPointExtension>
        </extensions>
      </trkpt>
      <trkpt lat="46.456890609115362" lon="-83.89493890106678">
        <ele>234.39999389648437</ele>
        <time>2021-06-06T16:59:59Z</time>
        <extensions>
          <gpxtpx:TrackPointExtension>
            <gpxtpx:atemp>31</gpxtpx:atemp>
            <gpxtpx:cad>0</gpxtpx:cad>
          </gpxtpx:TrackPointExtension>
          <gpxx:TrackPointExtension>
            <gpxx:Temperature>31</gpxx:Temperature>
          </gpxx:TrackPointExtension>
        </extensions>
      </trkpt>
      <trkpt lat="46.456881891936064" lon="-83.895001178607345">
        <ele>234.39999389648437</ele>
        <time>2021-06-06T17:00:00Z</time>
        <extensions>
          <gpxtpx:TrackPointExtension>
            <gpxtpx:atemp>31</gpxtpx:atemp>
            <gpxtpx:cad>0</gpxtpx:cad>
          </gpxtpx:TrackPointExtension>
          <gpxx:TrackPointExtension>
            <gpxx:Temperature>31</gpxx:Temperature>
          </gpxx:TrackPointExtension>
        </extensions>
      </trkpt>
      <trkpt lat="46.456873761489987" lon="-83.895066305994987">
        <ele>234.39999389648437</ele>
        <time>2021-06-06T17:00:01Z</time>
        <extensions>
          <gpxtpx:TrackPointExtension>
            <gpxtpx:atemp>31</gpxtpx:atemp>
            <gpxtpx:cad>0</gpxtpx:cad>
          </gpxtpx:TrackPointExtension>
          <gpxx:TrackPointExtension>
            <gpxx:Temperature>31</gpxx:Temperature>
          </gpxx:TrackPointExtension>
        </extensions>
      </trkpt>
      <trkpt lat="46.456859176978469" lon="-83.895140737295151">
        <ele>234.19999694824219</ele>
        <time>2021-06-06T17:00:02Z</time>
        <extensions>
          <gpxtpx:TrackPointExtension>
            <gpxtpx:atemp>31</gpxtpx:atemp>
            <gpxtpx:cad>0</gpxtpx:cad>
          </gpxtpx:TrackPointExtension>
          <gpxx:TrackPointExtension>
            <gpxx:Temperature>31</gpxx:Temperature>
          </gpxx:TrackPointExtension>
        </extensions>
      </trkpt>
      <trkpt lat="46.456846185028553" lon="-83.895239308476448">
        <ele>234.19999694824219</ele>
        <time>2021-06-06T17:00:03Z</time>
        <extensions>
          <gpxtpx:TrackPointExtension>
            <gpxtpx:atemp>31</gpxtpx:atemp>
            <gpxtpx:cad>0</gpxtpx:cad>
          </gpxtpx:TrackPointExtension>
          <gpxx:TrackPointExtension>
            <gpxx:Temperature>31</gpxx:Temperature>
          </gpxx:TrackPointExtension>
        </extensions>
      </trkpt>
      <trkpt lat="46.456845933571458" lon="-83.895334275439382">
        <ele>234.19999694824219</ele>
        <time>2021-06-06T17:00:04Z</time>
        <extensions>
          <gpxtpx:TrackPointExtension>
            <gpxtpx:atemp>31</gpxtpx:atemp>
            <gpxtpx:cad>0</gpxtpx:cad>
          </gpxtpx:TrackPointExtension>
          <gpxx:TrackPointExtension>
            <gpxx:Temperature>31</gpxx:Temperature>
          </gpxx:TrackPointExtension>
        </extensions>
      </trkpt>
      <trkpt lat="46.456854986026883" lon="-83.895427985116839">
        <ele>234.19999694824219</ele>
        <time>2021-06-06T17:00:05Z</time>
        <extensions>
          <gpxtpx:TrackPointExtension>
            <gpxtpx:atemp>31</gpxtpx:atemp>
            <gpxtpx:cad>0</gpxtpx:cad>
          </gpxtpx:TrackPointExtension>
          <gpxx:TrackPointExtension>
            <gpxx:Temperature>31</gpxx:Temperature>
          </gpxx:TrackPointExtension>
        </extensions>
      </trkpt>
      <trkpt lat="46.456862026825547" lon="-83.895534267649055">
        <ele>234.19999694824219</ele>
        <time>2021-06-06T17:00:06Z</time>
        <extensions>
          <gpxtpx:TrackPointExtension>
            <gpxtpx:atemp>31</gpxtpx:atemp>
            <gpxtpx:cad>0</gpxtpx:cad>
          </gpxtpx:TrackPointExtension>
          <gpxx:TrackPointExtension>
            <gpxx:Temperature>31</gpxx:Temperature>
          </gpxx:TrackPointExtension>
        </extensions>
      </trkpt>
      <trkpt lat="46.456870073452592" lon="-83.895639209076762">
        <ele>234</ele>
        <time>2021-06-06T17:00:07Z</time>
        <extensions>
          <gpxtpx:TrackPointExtension>
            <gpxtpx:atemp>31</gpxtpx:atemp>
            <gpxtpx:cad>0</gpxtpx:cad>
          </gpxtpx:TrackPointExtension>
          <gpxx:TrackPointExtension>
            <gpxx:Temperature>31</gpxx:Temperature>
          </gpxx:TrackPointExtension>
        </extensions>
      </trkpt>
      <trkpt lat="46.456876276060939" lon="-83.89575345441699">
        <ele>234</ele>
        <time>2021-06-06T17:00:08Z</time>
        <extensions>
          <gpxtpx:TrackPointExtension>
            <gpxtpx:atemp>31</gpxtpx:atemp>
            <gpxtpx:cad>0</gpxtpx:cad>
          </gpxtpx:TrackPointExtension>
          <gpxx:TrackPointExtension>
            <gpxx:Temperature>31</gpxx:Temperature>
          </gpxx:TrackPointExtension>
        </extensions>
      </trkpt>
      <trkpt lat="46.456867977976799" lon="-83.895864682272077">
        <ele>233.39999389648437</ele>
        <time>2021-06-06T17:00:09Z</time>
        <extensions>
          <gpxtpx:TrackPointExtension>
            <gpxtpx:atemp>31</gpxtpx:atemp>
            <gpxtpx:cad>0</gpxtpx:cad>
          </gpxtpx:TrackPointExtension>
          <gpxx:TrackPointExtension>
            <gpxx:Temperature>31</gpxx:Temperature>
          </gpxx:TrackPointExtension>
        </extensions>
      </trkpt>
      <trkpt lat="46.456857835873961" lon="-83.89597431756556">
        <ele>232.80000305175781</ele>
        <time>2021-06-06T17:00:10Z</time>
        <extensions>
          <gpxtpx:TrackPointExtension>
            <gpxtpx:atemp>31</gpxtpx:atemp>
            <gpxtpx:cad>0</gpxtpx:cad>
          </gpxtpx:TrackPointExtension>
          <gpxx:TrackPointExtension>
            <gpxx:Temperature>31</gpxx:Temperature>
          </gpxx:TrackPointExtension>
        </extensions>
      </trkpt>
      <trkpt lat="46.456837384030223" lon="-83.896070877090096">
        <ele>232.60000610351562</ele>
        <time>2021-06-06T17:00:11Z</time>
        <extensions>
          <gpxtpx:TrackPointExtension>
            <gpxtpx:atemp>31</gpxtpx:atemp>
            <gpxtpx:cad>0</gpxtpx:cad>
          </gpxtpx:TrackPointExtension>
          <gpxx:TrackPointExtension>
            <gpxx:Temperature>31</gpxx:Temperature>
          </gpxx:TrackPointExtension>
        </extensions>
      </trkpt>
      <trkpt lat="46.456804275512695" lon="-83.896157713606954">
        <ele>232.19999694824219</ele>
        <time>2021-06-06T17:00:12Z</time>
        <extensions>
          <gpxtpx:TrackPointExtension>
            <gpxtpx:atemp>31</gpxtpx:atemp>
            <gpxtpx:cad>0</gpxtpx:cad>
          </gpxtpx:TrackPointExtension>
          <gpxx:TrackPointExtension>
            <gpxx:Temperature>31</gpxx:Temperature>
          </gpxx:TrackPointExtension>
        </extensions>
      </trkpt>
      <trkpt lat="46.45676001906395" lon="-83.896259721368551">
        <ele>231.39999389648437</ele>
        <time>2021-06-06T17:00:13Z</time>
        <extensions>
          <gpxtpx:TrackPointExtension>
            <gpxtpx:atemp>31</gpxtpx:atemp>
            <gpxtpx:cad>0</gpxtpx:cad>
          </gpxtpx:TrackPointExtension>
          <gpxx:TrackPointExtension>
            <gpxx:Temperature>31</gpxx:Temperature>
          </gpxx:TrackPointExtension>
        </extensions>
      </trkpt>
      <trkpt lat="46.456716600805521" lon="-83.896346054971218">
        <ele>230.39999389648437</ele>
        <time>2021-06-06T17:00:14Z</time>
        <extensions>
          <gpxtpx:TrackPointExtension>
            <gpxtpx:atemp>31</gpxtpx:atemp>
            <gpxtpx:cad>0</gpxtpx:cad>
          </gpxtpx:TrackPointExtension>
          <gpxx:TrackPointExtension>
            <gpxx:Temperature>31</gpxx:Temperature>
          </gpxx:TrackPointExtension>
        </extensions>
      </trkpt>
      <trkpt lat="46.456678546965122" lon="-83.896430879831314">
        <ele>229.80000305175781</ele>
        <time>2021-06-06T17:00:15Z</time>
        <extensions>
          <gpxtpx:TrackPointExtension>
            <gpxtpx:atemp>31</gpxtpx:atemp>
            <gpxtpx:cad>0</gpxtpx:cad>
          </gpxtpx:TrackPointExtension>
          <gpxx:TrackPointExtension>
            <gpxx:Temperature>31</gpxx:Temperature>
          </gpxx:TrackPointExtension>
        </extensions>
      </trkpt>
      <trkpt lat="46.456633619964123" lon="-83.896508412435651">
        <ele>229.19999694824219</ele>
        <time>2021-06-06T17:00:16Z</time>
        <extensions>
          <gpxtpx:TrackPointExtension>
            <gpxtpx:atemp>31</gpxtpx:atemp>
            <gpxtpx:cad>0</gpxtpx:cad>
          </gpxtpx:TrackPointExtension>
          <gpxx:TrackPointExtension>
            <gpxx:Temperature>31</gpxx:Temperature>
          </gpxx:TrackPointExtension>
        </extensions>
      </trkpt>
      <trkpt lat="46.456586765125394" lon="-83.896577144041657">
        <ele>228.80000305175781</ele>
        <time>2021-06-06T17:00:17Z</time>
        <extensions>
          <gpxtpx:TrackPointExtension>
            <gpxtpx:atemp>31</gpxtpx:atemp>
            <gpxtpx:cad>0</gpxtpx:cad>
          </gpxtpx:TrackPointExtension>
          <gpxx:TrackPointExtension>
            <gpxx:Temperature>31</gpxx:Temperature>
          </gpxx:TrackPointExtension>
        </extensions>
      </trkpt>
      <trkpt lat="46.456551058217883" lon="-83.896657107397914">
        <ele>228.60000610351562</ele>
        <time>2021-06-06T17:00:18Z</time>
        <extensions>
          <gpxtpx:TrackPointExtension>
            <gpxtpx:atemp>31</gpxtpx:atemp>
            <gpxtpx:cad>0</gpxtpx:cad>
          </gpxtpx:TrackPointExtension>
          <gpxx:TrackPointExtension>
            <gpxx:Temperature>31</gpxx:Temperature>
          </gpxx:TrackPointExtension>
        </extensions>
      </trkpt>
      <trkpt lat="46.456518452614546" lon="-83.896748386323452">
        <ele>228.19999694824219</ele>
        <time>2021-06-06T17:00:19Z</time>
        <extensions>
          <gpxtpx:TrackPointExtension>
            <gpxtpx:atemp>31</gpxtpx:atemp>
            <gpxtpx:cad>0</gpxtpx:cad>
          </gpxtpx:TrackPointExtension>
          <gpxx:TrackPointExtension>
            <gpxx:Temperature>31</gpxx:Temperature>
          </gpxx:TrackPointExtension>
        </extensions>
      </trkpt>
      <trkpt lat="46.456487774848938" lon="-83.896840000525117">
        <ele>227.80000305175781</ele>
        <time>2021-06-06T17:00:20Z</time>
        <extensions>
          <gpxtpx:TrackPointExtension>
            <gpxtpx:atemp>31</gpxtpx:atemp>
            <gpxtpx:cad>0</gpxtpx:cad>
          </gpxtpx:TrackPointExtension>
          <gpxx:TrackPointExtension>
            <gpxx:Temperature>31</gpxx:Temperature>
          </gpxx:TrackPointExtension>
        </extensions>
      </trkpt>
      <trkpt lat="46.456467406824231" lon="-83.896921891719103">
        <ele>227.39999389648437</ele>
        <time>2021-06-06T17:00:21Z</time>
        <extensions>
          <gpxtpx:TrackPointExtension>
            <gpxtpx:atemp>31</gpxtpx:atemp>
            <gpxtpx:cad>0</gpxtpx:cad>
          </gpxtpx:TrackPointExtension>
          <gpxx:TrackPointExtension>
            <gpxx:Temperature>31</gpxx:Temperature>
          </gpxx:TrackPointExtension>
        </extensions>
      </trkpt>
      <trkpt lat="46.456444272771478" lon="-83.897009147331119">
        <ele>227</ele>
        <time>2021-06-06T17:00:22Z</time>
        <extensions>
          <gpxtpx:TrackPointExtension>
            <gpxtpx:atemp>31</gpxtpx:atemp>
            <gpxtpx:cad>0</gpxtpx:cad>
          </gpxtpx:TrackPointExtension>
          <gpxx:TrackPointExtension>
            <gpxx:Temperature>31</gpxx:Temperature>
          </gpxx:TrackPointExtension>
        </extensions>
      </trkpt>
      <trkpt lat="46.45641116425395" lon="-83.897113250568509">
        <ele>227</ele>
        <time>2021-06-06T17:00:23Z</time>
        <extensions>
          <gpxtpx:TrackPointExtension>
            <gpxtpx:atemp>31</gpxtpx:atemp>
            <gpxtpx:cad>0</gpxtpx:cad>
          </gpxtpx:TrackPointExtension>
          <gpxx:TrackPointExtension>
            <gpxx:Temperature>31</gpxx:Temperature>
          </gpxx:TrackPointExtension>
        </extensions>
      </trkpt>
      <trkpt lat="46.456379480659962" lon="-83.897222885861993">
        <ele>227</ele>
        <time>2021-06-06T17:00:24Z</time>
        <extensions>
          <gpxtpx:TrackPointExtension>
            <gpxtpx:atemp>31</gpxtpx:atemp>
            <gpxtpx:cad>0</gpxtpx:cad>
          </gpxtpx:TrackPointExtension>
          <gpxx:TrackPointExtension>
            <gpxx:Temperature>31</gpxx:Temperature>
          </gpxx:TrackPointExtension>
        </extensions>
      </trkpt>
      <trkpt lat="46.456366321071982" lon="-83.897312739863992">
        <ele>227</ele>
        <time>2021-06-06T17:00:25Z</time>
        <extensions>
          <gpxtpx:TrackPointExtension>
            <gpxtpx:atemp>31</gpxtpx:atemp>
            <gpxtpx:cad>0</gpxtpx:cad>
          </gpxtpx:TrackPointExtension>
          <gpxx:TrackPointExtension>
            <gpxx:Temperature>31</gpxx:Temperature>
          </gpxx:TrackPointExtension>
        </extensions>
      </trkpt>
      <trkpt lat="46.456366656348109" lon="-83.897381136193871">
        <ele>227</ele>
        <time>2021-06-06T17:00:26Z</time>
        <extensions>
          <gpxtpx:TrackPointExtension>
            <gpxtpx:atemp>31</gpxtpx:atemp>
            <gpxtpx:cad>0</gpxtpx:cad>
          </gpxtpx:TrackPointExtension>
          <gpxx:TrackPointExtension>
            <gpxx:Temperature>31</gpxx:Temperature>
          </gpxx:TrackPointExtension>
        </extensions>
      </trkpt>
      <trkpt lat="46.45635936409235" lon="-83.897457411512733">
        <ele>227</ele>
        <time>2021-06-06T17:00:27Z</time>
        <extensions>
          <gpxtpx:TrackPointExtension>
            <gpxtpx:atemp>31</gpxtpx:atemp>
            <gpxtpx:cad>0</gpxtpx:cad>
          </gpxtpx:TrackPointExtension>
          <gpxx:TrackPointExtension>
            <gpxx:Temperature>31</gpxx:Temperature>
          </gpxx:TrackPointExtension>
        </extensions>
      </trkpt>
      <trkpt lat="46.456354334950447" lon="-83.897529244422913">
        <ele>226.80000305175781</ele>
        <time>2021-06-06T17:00:28Z</time>
        <extensions>
          <gpxtpx:TrackPointExtension>
            <gpxtpx:atemp>31</gpxtpx:atemp>
            <gpxtpx:cad>0</gpxtpx:cad>
          </gpxtpx:TrackPointExtension>
          <gpxx:TrackPointExtension>
            <gpxx:Temperature>31</gpxx:Temperature>
          </gpxx:TrackPointExtension>
        </extensions>
      </trkpt>
      <trkpt lat="46.456347545608878" lon="-83.897593282163143">
        <ele>226.80000305175781</ele>
        <time>2021-06-06T17:00:29Z</time>
        <extensions>
          <gpxtpx:TrackPointExtension>
            <gpxtpx:atemp>31</gpxtpx:atemp>
            <gpxtpx:cad>0</gpxtpx:cad>
          </gpxtpx:TrackPointExtension>
          <gpxx:TrackPointExtension>
            <gpxx:Temperature>31</gpxx:Temperature>
          </gpxx:TrackPointExtension>
        </extensions>
      </trkpt>
      <trkpt lat="46.456345617771149" lon="-83.897646507248282">
        <ele>227</ele>
        <time>2021-06-06T17:00:30Z</time>
        <extensions>
          <gpxtpx:TrackPointExtension>
            <gpxtpx:atemp>31</gpxtpx:atemp>
            <gpxtpx:cad>0</gpxtpx:cad>
          </gpxtpx:TrackPointExtension>
          <gpxx:TrackPointExtension>
            <gpxx:Temperature>31</gpxx:Temperature>
          </gpxx:TrackPointExtension>
        </extensions>
      </trkpt>
      <trkpt lat="46.456338576972485" lon="-83.89770844951272">
        <ele>227</ele>
        <time>2021-06-06T17:00:31Z</time>
        <extensions>
          <gpxtpx:TrackPointExtension>
            <gpxtpx:atemp>31</gpxtpx:atemp>
            <gpxtpx:cad>0</gpxtpx:cad>
          </gpxtpx:TrackPointExtension>
          <gpxx:TrackPointExtension>
            <gpxx:Temperature>31</gpxx:Temperature>
          </gpxx:TrackPointExtension>
        </extensions>
      </trkpt>
      <trkpt lat="46.456333212554455" lon="-83.897754801437259">
        <ele>226.80000305175781</ele>
        <time>2021-06-06T17:00:32Z</time>
        <extensions>
          <gpxtpx:TrackPointExtension>
            <gpxtpx:atemp>31</gpxtpx:atemp>
            <gpxtpx:cad>0</gpxtpx:cad>
          </gpxtpx:TrackPointExtension>
          <gpxx:TrackPointExtension>
            <gpxx:Temperature>31</gpxx:Temperature>
          </gpxx:TrackPointExtension>
        </extensions>
      </trkpt>
      <trkpt lat="46.456319130957127" lon="-83.897799560800195">
        <ele>226.80000305175781</ele>
        <time>2021-06-06T17:00:33Z</time>
        <extensions>
          <gpxtpx:TrackPointExtension>
            <gpxtpx:atemp>31</gpxtpx:atemp>
            <gpxtpx:cad>55</gpxtpx:cad>
          </gpxtpx:TrackPointExtension>
          <gpxx:TrackPointExtension>
            <gpxx:Temperature>31</gpxx:Temperature>
          </gpxx:TrackPointExtension>
        </extensions>
      </trkpt>
      <trkpt lat="46.456299349665642" lon="-83.897841386497021">
        <ele>226.80000305175781</ele>
        <time>2021-06-06T17:00:34Z</time>
        <extensions>
          <gpxtpx:TrackPointExtension>
            <gpxtpx:atemp>31</gpxtpx:atemp>
            <gpxtpx:cad>58</gpxtpx:cad>
          </gpxtpx:TrackPointExtension>
          <gpxx:TrackPointExtension>
            <gpxx:Temperature>31</gpxx:Temperature>
          </gpxx:TrackPointExtension>
        </extensions>
      </trkpt>
      <trkpt lat="46.456271270290017" lon="-83.897876087576151">
        <ele>227</ele>
        <time>2021-06-06T17:00:35Z</time>
        <extensions>
          <gpxtpx:TrackPointExtension>
            <gpxtpx:atemp>31</gpxtpx:atemp>
            <gpxtpx:cad>62</gpxtpx:cad>
          </gpxtpx:TrackPointExtension>
          <gpxx:TrackPointExtension>
            <gpxx:Temperature>31</gpxx:Temperature>
          </gpxx:TrackPointExtension>
        </extensions>
      </trkpt>
      <trkpt lat="46.456240760162473" lon="-83.897902239114046">
        <ele>226.80000305175781</ele>
        <time>2021-06-06T17:00:36Z</time>
        <extensions>
          <gpxtpx:TrackPointExtension>
            <gpxtpx:atemp>31</gpxtpx:atemp>
            <gpxtpx:cad>64</gpxtpx:cad>
          </gpxtpx:TrackPointExtension>
          <gpxx:TrackPointExtension>
            <gpxx:Temperature>31</gpxx:Temperature>
          </gpxx:TrackPointExtension>
        </extensions>
      </trkpt>
      <trkpt lat="46.456207316368818" lon="-83.897925959900022">
        <ele>226.80000305175781</ele>
        <time>2021-06-06T17:00:37Z</time>
        <extensions>
          <gpxtpx:TrackPointExtension>
            <gpxtpx:atemp>31</gpxtpx:atemp>
            <gpxtpx:cad>67</gpxtpx:cad>
          </gpxtpx:TrackPointExtension>
          <gpxx:TrackPointExtension>
            <gpxx:Temperature>31</gpxx:Temperature>
          </gpxx:TrackPointExtension>
        </extensions>
      </trkpt>
      <trkpt lat="46.456172950565815" lon="-83.897948591038585">
        <ele>227</ele>
        <time>2021-06-06T17:00:38Z</time>
        <extensions>
          <gpxtpx:TrackPointExtension>
            <gpxtpx:atemp>31</gpxtpx:atemp>
            <gpxtpx:cad>69</gpxtpx:cad>
          </gpxtpx:TrackPointExtension>
          <gpxx:TrackPointExtension>
            <gpxx:Temperature>31</gpxx:Temperature>
          </gpxx:TrackPointExtension>
        </extensions>
      </trkpt>
      <trkpt lat="46.456130370497704" lon="-83.897968791425228">
        <ele>227</ele>
        <time>2021-06-06T17:00:39Z</time>
        <extensions>
          <gpxtpx:TrackPointExtension>
            <gpxtpx:atemp>31</gpxtpx:atemp>
            <gpxtpx:cad>71</gpxtpx:cad>
          </gpxtpx:TrackPointExtension>
          <gpxx:TrackPointExtension>
            <gpxx:Temperature>31</gpxx:Temperature>
          </gpxx:TrackPointExtension>
        </extensions>
      </trkpt>
      <trkpt lat="46.45608770661056" lon="-83.897982621565461">
        <ele>227</ele>
        <time>2021-06-06T17:00:40Z</time>
        <extensions>
          <gpxtpx:TrackPointExtension>
            <gpxtpx:atemp>31</gpxtpx:atemp>
            <gpxtpx:cad>73</gpxtpx:cad>
          </gpxtpx:TrackPointExtension>
          <gpxx:TrackPointExtension>
            <gpxx:Temperature>31</gpxx:Temperature>
          </gpxx:TrackPointExtension>
        </extensions>
      </trkpt>
      <trkpt lat="46.456045377999544" lon="-83.897994523867965">
        <ele>227</ele>
        <time>2021-06-06T17:00:41Z</time>
        <extensions>
          <gpxtpx:TrackPointExtension>
            <gpxtpx:atemp>31</gpxtpx:atemp>
            <gpxtpx:cad>74</gpxtpx:cad>
          </gpxtpx:TrackPointExtension>
          <gpxx:TrackPointExtension>
            <gpxx:Temperature>31</gpxx:Temperature>
          </gpxx:TrackPointExtension>
        </extensions>
      </trkpt>
      <trkpt lat="46.456003468483686" lon="-83.898006174713373">
        <ele>227</ele>
        <time>2021-06-06T17:00:42Z</time>
        <extensions>
          <gpxtpx:TrackPointExtension>
            <gpxtpx:atemp>31</gpxtpx:atemp>
            <gpxtpx:cad>73</gpxtpx:cad>
          </gpxtpx:TrackPointExtension>
          <gpxx:TrackPointExtension>
            <gpxx:Temperature>31</gpxx:Temperature>
          </gpxx:TrackPointExtension>
        </extensions>
      </trkpt>
      <trkpt lat="46.455963486805558" lon="-83.898026794195175">
        <ele>227</ele>
        <time>2021-06-06T17:00:43Z</time>
        <extensions>
          <gpxtpx:TrackPointExtension>
            <gpxtpx:atemp>31</gpxtpx:atemp>
            <gpxtpx:cad>73</gpxtpx:cad>
          </gpxtpx:TrackPointExtension>
          <gpxx:TrackPointExtension>
            <gpxx:Temperature>31</gpxx:Temperature>
          </gpxx:TrackPointExtension>
        </extensions>
      </trkpt>
      <trkpt lat="46.455916464328766" lon="-83.898048670962453">
        <ele>227</ele>
        <time>2021-06-06T17:00:44Z</time>
        <extensions>
          <gpxtpx:TrackPointExtension>
            <gpxtpx:atemp>31</gpxtpx:atemp>
            <gpxtpx:cad>73</gpxtpx:cad>
          </gpxtpx:TrackPointExtension>
          <gpxx:TrackPointExtension>
            <gpxx:Temperature>31</gpxx:Temperature>
          </gpxx:TrackPointExtension>
        </extensions>
      </trkpt>
      <trkpt lat="46.455867597833276" lon="-83.898063087835908">
        <ele>227</ele>
        <time>2021-06-06T17:00:45Z</time>
        <extensions>
          <gpxtpx:TrackPointExtension>
            <gpxtpx:atemp>31</gpxtpx:atemp>
            <gpxtpx:cad>72</gpxtpx:cad>
          </gpxtpx:TrackPointExtension>
          <gpxx:TrackPointExtension>
            <gpxx:Temperature>31</gpxx:Temperature>
          </gpxx:TrackPointExtension>
        </extensions>
      </trkpt>
      <trkpt lat="46.455818815156817" lon="-83.898072391748428">
        <ele>226.80000305175781</ele>
        <time>2021-06-06T17:00:46Z</time>
        <extensions>
          <gpxtpx:TrackPointExtension>
            <gpxtpx:atemp>31</gpxtpx:atemp>
            <gpxtpx:cad>73</gpxtpx:cad>
          </gpxtpx:TrackPointExtension>
          <gpxx:TrackPointExtension>
            <gpxx:Temperature>31</gpxx:Temperature>
          </gpxx:TrackPointExtension>
        </extensions>
      </trkpt>
      <trkpt lat="46.455766931176186" lon="-83.898085467517376">
        <ele>226.80000305175781</ele>
        <time>2021-06-06T17:00:47Z</time>
        <extensions>
          <gpxtpx:TrackPointExtension>
            <gpxtpx:atemp>31</gpxtpx:atemp>
            <gpxtpx:cad>72</gpxtpx:cad>
          </gpxtpx:TrackPointExtension>
          <gpxx:TrackPointExtension>
            <gpxx:Temperature>31</gpxx:Temperature>
          </gpxx:TrackPointExtension>
        </extensions>
      </trkpt>
      <trkpt lat="46.455718567594886" lon="-83.898088233545423">
        <ele>226.60000610351562</ele>
        <time>2021-06-06T17:00:48Z</time>
        <extensions>
          <gpxtpx:TrackPointExtension>
            <gpxtpx:atemp>31</gpxtpx:atemp>
            <gpxtpx:cad>74</gpxtpx:cad>
          </gpxtpx:TrackPointExtension>
          <gpxx:TrackPointExtension>
            <gpxx:Temperature>31</gpxx:Temperature>
          </gpxx:TrackPointExtension>
        </extensions>
      </trkpt>
      <trkpt lat="46.45567188039422" lon="-83.898089239373803">
        <ele>226.60000610351562</ele>
        <time>2021-06-06T17:00:49Z</time>
        <extensions>
          <gpxtpx:TrackPointExtension>
            <gpxtpx:atemp>31</gpxtpx:atemp>
            <gpxtpx:cad>74</gpxtpx:cad>
          </gpxtpx:TrackPointExtension>
          <gpxx:TrackPointExtension>
            <gpxx:Temperature>31</gpxx:Temperature>
          </gpxx:TrackPointExtension>
        </extensions>
      </trkpt>
      <trkpt lat="46.45562251098454" lon="-83.898093849420547">
        <ele>226.39999389648437</ele>
        <time>2021-06-06T17:00:50Z</time>
        <extensions>
          <gpxtpx:TrackPointExtension>
            <gpxtpx:atemp>31</gpxtpx:atemp>
            <gpxtpx:cad>74</gpxtpx:cad>
          </gpxtpx:TrackPointExtension>
          <gpxx:TrackPointExtension>
            <gpxx:Temperature>31</gpxx:Temperature>
          </gpxx:TrackPointExtension>
        </extensions>
      </trkpt>
      <trkpt lat="46.455573728308082" lon="-83.898095525801182">
        <ele>226.39999389648437</ele>
        <time>2021-06-06T17:00:51Z</time>
        <extensions>
          <gpxtpx:TrackPointExtension>
            <gpxtpx:atemp>31</gpxtpx:atemp>
            <gpxtpx:cad>74</gpxtpx:cad>
          </gpxtpx:TrackPointExtension>
          <gpxx:TrackPointExtension>
            <gpxx:Temperature>31</gpxx:Temperature>
          </gpxx:TrackPointExtension>
        </extensions>
      </trkpt>
      <trkpt lat="46.455529555678368" lon="-83.898096196353436">
        <ele>226.19999694824219</ele>
        <time>2021-06-06T17:00:52Z</time>
        <extensions>
          <gpxtpx:TrackPointExtension>
            <gpxtpx:atemp>31</gpxtpx:atemp>
            <gpxtpx:cad>0</gpxtpx:cad>
          </gpxtpx:TrackPointExtension>
          <gpxx:TrackPointExtension>
            <gpxx:Temperature>31</gpxx:Temperature>
          </gpxx:TrackPointExtension>
        </extensions>
      </trkpt>
      <trkpt lat="46.455485047772527" lon="-83.8981066737324">
        <ele>226.19999694824219</ele>
        <time>2021-06-06T17:00:53Z</time>
        <extensions>
          <gpxtpx:TrackPointExtension>
            <gpxtpx:atemp>31</gpxtpx:atemp>
            <gpxtpx:cad>0</gpxtpx:cad>
          </gpxtpx:TrackPointExtension>
          <gpxx:TrackPointExtension>
            <gpxx:Temperature>31</gpxx:Temperature>
          </gpxx:TrackPointExtension>
        </extensions>
      </trkpt>
      <trkpt lat="46.455437187105417" lon="-83.898123856633902">
        <ele>226.19999694824219</ele>
        <time>2021-06-06T17:00:54Z</time>
        <extensions>
          <gpxtpx:TrackPointExtension>
            <gpxtpx:atemp>31</gpxtpx:atemp>
            <gpxtpx:cad>0</gpxtpx:cad>
          </gpxtpx:TrackPointExtension>
          <gpxx:TrackPointExtension>
            <gpxx:Temperature>31</gpxx:Temperature>
          </gpxx:TrackPointExtension>
        </extensions>
      </trkpt>
      <trkpt lat="46.455384129658341" lon="-83.898133663460612">
        <ele>226</ele>
        <time>2021-06-06T17:00:55Z</time>
        <extensions>
          <gpxtpx:TrackPointExtension>
            <gpxtpx:atemp>31</gpxtpx:atemp>
            <gpxtpx:cad>0</gpxtpx:cad>
          </gpxtpx:TrackPointExtension>
          <gpxx:TrackPointExtension>
            <gpxx:Temperature>31</gpxx:Temperature>
          </gpxx:TrackPointExtension>
        </extensions>
      </trkpt>
      <trkpt lat="46.455321349203587" lon="-83.898136848583817">
        <ele>226</ele>
        <time>2021-06-06T17:00:56Z</time>
        <extensions>
          <gpxtpx:TrackPointExtension>
            <gpxtpx:atemp>31</gpxtpx:atemp>
            <gpxtpx:cad>0</gpxtpx:cad>
          </gpxtpx:TrackPointExtension>
          <gpxx:TrackPointExtension>
            <gpxx:Temperature>31</gpxx:Temperature>
          </gpxx:TrackPointExtension>
        </extensions>
      </trkpt>
      <trkpt lat="46.455249851569533" lon="-83.898153696209192">
        <ele>226.19999694824219</ele>
        <time>2021-06-06T17:00:57Z</time>
        <extensions>
          <gpxtpx:TrackPointExtension>
            <gpxtpx:atemp>31</gpxtpx:atemp>
            <gpxtpx:cad>0</gpxtpx:cad>
          </gpxtpx:TrackPointExtension>
          <gpxx:TrackPointExtension>
            <gpxx:Temperature>31</gpxx:Temperature>
          </gpxx:TrackPointExtension>
        </extensions>
      </trkpt>
      <trkpt lat="46.455182963982224" lon="-83.898167191073298">
        <ele>226</ele>
        <time>2021-06-06T17:00:58Z</time>
        <extensions>
          <gpxtpx:TrackPointExtension>
            <gpxtpx:atemp>31</gpxtpx:atemp>
            <gpxtpx:cad>0</gpxtpx:cad>
          </gpxtpx:TrackPointExtension>
          <gpxx:TrackPointExtension>
            <gpxx:Temperature>31</gpxx:Temperature>
          </gpxx:TrackPointExtension>
        </extensions>
      </trkpt>
      <trkpt lat="46.45510409027338" lon="-83.898196024820209">
        <ele>225.80000305175781</ele>
        <time>2021-06-06T17:00:59Z</time>
        <extensions>
          <gpxtpx:TrackPointExtension>
            <gpxtpx:atemp>31</gpxtpx:atemp>
            <gpxtpx:cad>0</gpxtpx:cad>
          </gpxtpx:TrackPointExtension>
          <gpxx:TrackPointExtension>
            <gpxx:Temperature>31</gpxx:Temperature>
          </gpxx:TrackPointExtension>
        </extensions>
      </trkpt>
      <trkpt lat="46.455019516870379" lon="-83.89821614138782">
        <ele>225.39999389648437</ele>
        <time>2021-06-06T17:01:00Z</time>
        <extensions>
          <gpxtpx:TrackPointExtension>
            <gpxtpx:atemp>31</gpxtpx:atemp>
            <gpxtpx:cad>0</gpxtpx:cad>
          </gpxtpx:TrackPointExtension>
          <gpxx:TrackPointExtension>
            <gpxx:Temperature>31</gpxx:Temperature>
          </gpxx:TrackPointExtension>
        </extensions>
      </trkpt>
      <trkpt lat="46.454936536028981" lon="-83.898240448907018">
        <ele>225.19999694824219</ele>
        <time>2021-06-06T17:01:01Z</time>
        <extensions>
          <gpxtpx:TrackPointExtension>
            <gpxtpx:atemp>31</gpxtpx:atemp>
            <gpxtpx:cad>0</gpxtpx:cad>
          </gpxtpx:TrackPointExtension>
          <gpxx:TrackPointExtension>
            <gpxx:Temperature>31</gpxx:Temperature>
          </gpxx:TrackPointExtension>
        </extensions>
      </trkpt>
      <trkpt lat="46.454855483025312" lon="-83.898273054510355">
        <ele>225.19999694824219</ele>
        <time>2021-06-06T17:01:02Z</time>
        <extensions>
          <gpxtpx:TrackPointExtension>
            <gpxtpx:atemp>31</gpxtpx:atemp>
            <gpxtpx:cad>0</gpxtpx:cad>
          </gpxtpx:TrackPointExtension>
          <gpxx:TrackPointExtension>
            <gpxx:Temperature>31</gpxx:Temperature>
          </gpxx:TrackPointExtension>
        </extensions>
      </trkpt>
      <trkpt lat="46.454777028411627" lon="-83.898295098915696">
        <ele>224.60000610351562</ele>
        <time>2021-06-06T17:01:03Z</time>
        <extensions>
          <gpxtpx:TrackPointExtension>
            <gpxtpx:atemp>31</gpxtpx:atemp>
            <gpxtpx:cad>0</gpxtpx:cad>
          </gpxtpx:TrackPointExtension>
          <gpxx:TrackPointExtension>
            <gpxx:Temperature>31</gpxx:Temperature>
          </gpxx:TrackPointExtension>
        </extensions>
      </trkpt>
      <trkpt lat="46.454697316512465" lon="-83.898321837186813">
        <ele>224</ele>
        <time>2021-06-06T17:01:04Z</time>
        <extensions>
          <gpxtpx:TrackPointExtension>
            <gpxtpx:atemp>31</gpxtpx:atemp>
            <gpxtpx:cad>0</gpxtpx:cad>
          </gpxtpx:TrackPointExtension>
          <gpxx:TrackPointExtension>
            <gpxx:Temperature>31</gpxx:Temperature>
          </gpxx:TrackPointExtension>
        </extensions>
      </trkpt>
      <trkpt lat="46.454618610441685" lon="-83.89834413304925">
        <ele>223.19999694824219</ele>
        <time>2021-06-06T17:01:05Z</time>
        <extensions>
          <gpxtpx:TrackPointExtension>
            <gpxtpx:atemp>31</gpxtpx:atemp>
            <gpxtpx:cad>0</gpxtpx:cad>
          </gpxtpx:TrackPointExtension>
          <gpxx:TrackPointExtension>
            <gpxx:Temperature>31</gpxx:Temperature>
          </gpxx:TrackPointExtension>
        </extensions>
      </trkpt>
      <trkpt lat="46.454545604065061" lon="-83.898363411426544">
        <ele>222.39999389648437</ele>
        <time>2021-06-06T17:01:06Z</time>
        <extensions>
          <gpxtpx:TrackPointExtension>
            <gpxtpx:atemp>31</gpxtpx:atemp>
            <gpxtpx:cad>0</gpxtpx:cad>
          </gpxtpx:TrackPointExtension>
          <gpxx:TrackPointExtension>
            <gpxx:Temperature>31</gpxx:Temperature>
          </gpxx:TrackPointExtension>
        </extensions>
      </trkpt>
      <trkpt lat="46.454473519697785" lon="-83.89838713221252">
        <ele>221.39999389648437</ele>
        <time>2021-06-06T17:01:07Z</time>
        <extensions>
          <gpxtpx:TrackPointExtension>
            <gpxtpx:atemp>31</gpxtpx:atemp>
            <gpxtpx:cad>0</gpxtpx:cad>
          </gpxtpx:TrackPointExtension>
          <gpxx:TrackPointExtension>
            <gpxx:Temperature>31</gpxx:Temperature>
          </gpxx:TrackPointExtension>
        </extensions>
      </trkpt>
      <trkpt lat="46.454402692615986" lon="-83.898397609591484">
        <ele>221</ele>
        <time>2021-06-06T17:01:08Z</time>
        <extensions>
          <gpxtpx:TrackPointExtension>
            <gpxtpx:atemp>31</gpxtpx:atemp>
            <gpxtpx:cad>0</gpxtpx:cad>
          </gpxtpx:TrackPointExtension>
          <gpxx:TrackPointExtension>
            <gpxx:Temperature>31</gpxx:Temperature>
          </gpxx:TrackPointExtension>
        </extensions>
      </trkpt>
      <trkpt lat="46.45433203317225" lon="-83.898406997323036">
        <ele>220.19999694824219</ele>
        <time>2021-06-06T17:01:09Z</time>
        <extensions>
          <gpxtpx:TrackPointExtension>
            <gpxtpx:atemp>31</gpxtpx:atemp>
            <gpxtpx:cad>0</gpxtpx:cad>
          </gpxtpx:TrackPointExtension>
          <gpxx:TrackPointExtension>
            <gpxx:Temperature>31</gpxx:Temperature>
          </gpxx:TrackPointExtension>
        </extensions>
      </trkpt>
      <trkpt lat="46.454259613528848" lon="-83.898418983444571">
        <ele>219.60000610351562</ele>
        <time>2021-06-06T17:01:10Z</time>
        <extensions>
          <gpxtpx:TrackPointExtension>
            <gpxtpx:atemp>31</gpxtpx:atemp>
            <gpxtpx:cad>0</gpxtpx:cad>
          </gpxtpx:TrackPointExtension>
          <gpxx:TrackPointExtension>
            <gpxx:Temperature>31</gpxx:Temperature>
          </gpxx:TrackPointExtension>
        </extensions>
      </trkpt>
      <trkpt lat="46.454188786447048" lon="-83.898444129154086">
        <ele>219</ele>
        <time>2021-06-06T17:01:11Z</time>
        <extensions>
          <gpxtpx:TrackPointExtension>
            <gpxtpx:atemp>30</gpxtpx:atemp>
            <gpxtpx:cad>0</gpxtpx:cad>
          </gpxtpx:TrackPointExtension>
          <gpxx:TrackPointExtension>
            <gpxx:Temperature>30</gpxx:Temperature>
          </gpxx:TrackPointExtension>
        </extensions>
      </trkpt>
      <trkpt lat="46.454121144488454" lon="-83.89847363345325">
        <ele>218.19999694824219</ele>
        <time>2021-06-06T17:01:12Z</time>
        <extensions>
          <gpxtpx:TrackPointExtension>
            <gpxtpx:atemp>30</gpxtpx:atemp>
            <gpxtpx:cad>0</gpxtpx:cad>
          </gpxtpx:TrackPointExtension>
          <gpxx:TrackPointExtension>
            <gpxx:Temperature>30</gpxx:Temperature>
          </gpxx:TrackPointExtension>
        </extensions>
      </trkpt>
      <trkpt lat="46.454056100919843" lon="-83.898489726707339">
        <ele>217.80000305175781</ele>
        <time>2021-06-06T17:01:13Z</time>
        <extensions>
          <gpxtpx:TrackPointExtension>
            <gpxtpx:atemp>30</gpxtpx:atemp>
            <gpxtpx:cad>0</gpxtpx:cad>
          </gpxtpx:TrackPointExtension>
          <gpxx:TrackPointExtension>
            <gpxx:Temperature>30</gpxx:Temperature>
          </gpxx:TrackPointExtension>
        </extensions>
      </trkpt>
      <trkpt lat="46.454000361263752" lon="-83.898492911830544">
        <ele>217.39999389648437</ele>
        <time>2021-06-06T17:01:14Z</time>
        <extensions>
          <gpxtpx:TrackPointExtension>
            <gpxtpx:atemp>30</gpxtpx:atemp>
            <gpxtpx:cad>0</gpxtpx:cad>
          </gpxtpx:TrackPointExtension>
          <gpxx:TrackPointExtension>
            <gpxx:Temperature>30</gpxx:Temperature>
          </gpxx:TrackPointExtension>
        </extensions>
      </trkpt>
      <trkpt lat="46.453954679891467" lon="-83.898498527705669">
        <ele>216.80000305175781</ele>
        <time>2021-06-06T17:01:15Z</time>
        <extensions>
          <gpxtpx:TrackPointExtension>
            <gpxtpx:atemp>31</gpxtpx:atemp>
            <gpxtpx:cad>0</gpxtpx:cad>
          </gpxtpx:TrackPointExtension>
          <gpxx:TrackPointExtension>
            <gpxx:Temperature>31</gpxx:Temperature>
          </gpxx:TrackPointExtension>
        </extensions>
      </trkpt>
      <trkpt lat="46.453921152278781" lon="-83.898506239056587">
        <ele>216.19999694824219</ele>
        <time>2021-06-06T17:01:16Z</time>
        <extensions>
          <gpxtpx:TrackPointExtension>
            <gpxtpx:atemp>31</gpxtpx:atemp>
            <gpxtpx:cad>0</gpxtpx:cad>
          </gpxtpx:TrackPointExtension>
          <gpxx:TrackPointExtension>
            <gpxx:Temperature>31</gpxx:Temperature>
          </gpxx:TrackPointExtension>
        </extensions>
      </trkpt>
      <trkpt lat="46.453890055418015" lon="-83.898514956235886">
        <ele>215.80000305175781</ele>
        <time>2021-06-06T17:01:17Z</time>
        <extensions>
          <gpxtpx:TrackPointExtension>
            <gpxtpx:atemp>30</gpxtpx:atemp>
            <gpxtpx:cad>0</gpxtpx:cad>
          </gpxtpx:TrackPointExtension>
          <gpxx:TrackPointExtension>
            <gpxx:Temperature>30</gpxx:Temperature>
          </gpxx:TrackPointExtension>
        </extensions>
      </trkpt>
      <trkpt lat="46.453858036547899" lon="-83.898525265976787">
        <ele>215.39999389648437</ele>
        <time>2021-06-06T17:01:18Z</time>
        <extensions>
          <gpxtpx:TrackPointExtension>
            <gpxtpx:atemp>30</gpxtpx:atemp>
            <gpxtpx:cad>0</gpxtpx:cad>
          </gpxtpx:TrackPointExtension>
          <gpxx:TrackPointExtension>
            <gpxx:Temperature>30</gpxx:Temperature>
          </gpxx:TrackPointExtension>
        </extensions>
      </trkpt>
      <trkpt lat="46.453688973560929" lon="-83.898589219897985">
        <ele>214.80000305175781</ele>
        <time>2021-06-06T17:01:21Z</time>
        <extensions>
          <gpxtpx:TrackPointExtension>
            <gpxtpx:atemp>30</gpxtpx:atemp>
            <gpxtpx:cad>0</gpxtpx:cad>
          </gpxtpx:TrackPointExtension>
          <gpxx:TrackPointExtension>
            <gpxx:Temperature>30</gpxx:Temperature>
          </gpxx:TrackPointExtension>
        </extensions>
      </trkpt>
    </trkseg>
  </trk>

  <trk>
    <name>Echo Lake Connector Logging Road</name>
    <extensions>
      <gpxx:TrackExtension>
        <gpxx:DisplayColor>DarkGray</gpxx:DisplayColor>
      </gpxx:TrackExtension>
    </extensions>
    <trkseg>
      <trkpt lat="46.568242684006691" lon="-83.933418793603778" />
      <trkpt lat="46.567190000787377" lon="-83.933860016986728" />
      <trkpt lat="46.566611984744668" lon="-83.934656968340278" />
      <trkpt lat="46.565779997035861" lon="-83.935181004926562" />
      <trkpt lat="46.565079018473625" lon="-83.935785004869103" />
      <trkpt lat="46.56440201215446" lon="-83.935236996039748" />
      <trkpt lat="46.563131986185908" lon="-83.933595987036824" />
      <trkpt lat="46.563025033101439" lon="-83.933448968455195" />
      <trkpt lat="46.561203980818391" lon="-83.932401984930038" />
      <trkpt lat="46.560611966997385" lon="-83.932351022958755" />
      <trkpt lat="46.560521023347974" lon="-83.932364014908671" />
      <trkpt lat="46.560374004766345" lon="-83.932354040443897" />
      <trkpt lat="46.560274008661509" lon="-83.932334007695317" />
      <trkpt lat="46.559360967949033" lon="-83.932202998548746" />
      <trkpt lat="46.558951009064913" lon="-83.932196041569114" />
      <trkpt lat="46.558462008833885" lon="-83.932097973302007" />
      <trkpt lat="46.558355977758765" lon="-83.932074001058936" />
      <trkpt lat="46.558246007189155" lon="-83.932042988017201" />
      <trkpt lat="46.55784803442657" lon="-83.931898986920714" />
      <trkpt lat="46.557576963678002" lon="-83.93176001496613" />
      <trkpt lat="46.557543016970158" lon="-83.931749034672976" />
      <trkpt lat="46.556655960157514" lon="-83.931543007493019" />
      <trkpt lat="46.556358989328146" lon="-83.931473018601537" />
      <trkpt lat="46.555756079033017" lon="-83.930979827418923" />
    </trkseg>
  </trk>

</gpx>