﻿<?xml version="1.0" encoding="utf-8"?><gpx creator="Garmin Desktop App" version="1.1" xsi:schemaLocation="http://www.topografix.com/GPX/1/1 http://www.topografix.com/GPX/1/1/gpx.xsd http://www.garmin.com/xmlschemas/WaypointExtension/v1 http://www8.garmin.com/xmlschemas/WaypointExtensionv1.xsd http://www.garmin.com/xmlschemas/TrackPointExtension/v1 http://www.garmin.com/xmlschemas/TrackPointExtensionv1.xsd http://www.garmin.com/xmlschemas/GpxExtensions/v3 http://www8.garmin.com/xmlschemas/GpxExtensionsv3.xsd http://www.garmin.com/xmlschemas/ActivityExtension/v1 http://www8.garmin.com/xmlschemas/ActivityExtensionv1.xsd http://www.garmin.com/xmlschemas/AdventuresExtensions/v1 http://www8.garmin.com/xmlschemas/AdventuresExtensionv1.xsd http://www.garmin.com/xmlschemas/PressureExtension/v1 http://www.garmin.com/xmlschemas/PressureExtensionv1.xsd http://www.garmin.com/xmlschemas/TripExtensions/v1 http://www.garmin.com/xmlschemas/TripExtensionsv1.xsd http://www.garmin.com/xmlschemas/TripMetaDataExtensions/v1 http://www.garmin.com/xmlschemas/TripMetaDataExtensionsv1.xsd http://www.garmin.com/xmlschemas/ViaPointTransportationModeExtensions/v1 http://www.garmin.com/xmlschemas/ViaPointTransportationModeExtensionsv1.xsd http://www.garmin.com/xmlschemas/CreationTimeExtension/v1 http://www.garmin.com/xmlschemas/CreationTimeExtensionsv1.xsd http://www.garmin.com/xmlschemas/AccelerationExtension/v1 http://www.garmin.com/xmlschemas/AccelerationExtensionv1.xsd http://www.garmin.com/xmlschemas/PowerExtension/v1 http://www.garmin.com/xmlschemas/PowerExtensionv1.xsd http://www.garmin.com/xmlschemas/VideoExtension/v1 http://www.garmin.com/xmlschemas/VideoExtensionv1.xsd" xmlns="http://www.topografix.com/GPX/1/1" xmlns:xsi="http://www.w3.org/2001/XMLSchema-instance" xmlns:wptx1="http://www.garmin.com/xmlschemas/WaypointExtension/v1" xmlns:gpxtrx="http://www.garmin.com/xmlschemas/GpxExtensions/v3" xmlns:gpxtpx="http://www.garmin.com/xmlschemas/TrackPointExtension/v1" xmlns:gpxx="http://www.garmin.com/xmlschemas/GpxExtensions/v3" xmlns:trp="http://www.garmin.com/xmlschemas/TripExtensions/v1" xmlns:adv="http://www.garmin.com/xmlschemas/AdventuresExtensions/v1" xmlns:prs="http://www.garmin.com/xmlschemas/PressureExtension/v1" xmlns:tmd="http://www.garmin.com/xmlschemas/TripMetaDataExtensions/v1" xmlns:vptm="http://www.garmin.com/xmlschemas/ViaPointTransportationModeExtensions/v1" xmlns:ctx="http://www.garmin.com/xmlschemas/CreationTimeExtension/v1" xmlns:gpxacc="http://www.garmin.com/xmlschemas/AccelerationExtension/v1" xmlns:gpxpx="http://www.garmin.com/xmlschemas/PowerExtension/v1" xmlns:vidx1="http://www.garmin.com/xmlschemas/VideoExtension/v1">

  <metadata>
    <link href="http://www.garmin.com">
      <text>Garmin International</text>
    </link>
    <time>2020-05-03T20:26:18Z</time>
    <bounds maxlat="46.608043983578682" maxlon="-84.240264007821679" minlat="46.604079008102417" minlon="-84.244002001360059" />
  </metadata>

  <trk>
    <name>Creekside</name>
    <extensions>
      <gpxx:TrackExtension>
        <gpxx:DisplayColor>Green</gpxx:DisplayColor>
      </gpxx:TrackExtension>
    </extensions>
    <trkseg>
      <trkpt lat="46.604948965832591" lon="-84.244002001360059" />
      <trkpt lat="46.604871014133096" lon="-84.243463966995478" />
      <trkpt lat="46.604599021375179" lon="-84.242901038378477" />
      <trkpt lat="46.604331973940134" lon="-84.24262803979218" />
      <trkpt lat="46.604079008102417" lon="-84.241265980526805" />
      <trkpt lat="46.604322167113423" lon="-84.240698022767901" />
      <trkpt lat="46.604330968111753" lon="-84.240264007821679" />
      <trkpt lat="46.604417972266674" lon="-84.240512028336525" />
      <trkpt lat="46.604578988626599" lon="-84.24048101529479" />
      <trkpt lat="46.604870008304715" lon="-84.241043021902442" />
      <trkpt lat="46.605379963293672" lon="-84.24097596667707" />
      <trkpt lat="46.605896037071943" lon="-84.240894997492433" />
      <trkpt lat="46.606150008738041" lon="-84.240602971985936" />
      <trkpt lat="46.606264002621174" lon="-84.240651000291109" />
      <trkpt lat="46.606714027002454" lon="-84.24108300358057" />
      <trkpt lat="46.606789967045188" lon="-84.24149296246469" />
      <trkpt lat="46.606991970911622" lon="-84.241709969937801" />
      <trkpt lat="46.607166398316622" lon="-84.241688596084714" />
      <trkpt lat="46.607436966150999" lon="-84.241928989067674" />
      <trkpt lat="46.607490023598075" lon="-84.242174997925758" />
      <trkpt lat="46.607359014451504" lon="-84.242375995963812" />
      <trkpt lat="46.60769403912127" lon="-84.242203999310732" />
      <trkpt lat="46.60743797197938" lon="-84.241494974121451" />
      <trkpt lat="46.607515001669526" lon="-84.241247037425637" />
      <trkpt lat="46.607979023829103" lon="-84.241973999887705" />
      <trkpt lat="46.608014479279518" lon="-84.242298630997539" />
      <trkpt lat="46.607950273901224" lon="-84.242453444749117" />
      <trkpt lat="46.608043983578682" lon="-84.242569031193852" />
    </trkseg>
  </trk>

</gpx>