﻿<?xml version="1.0" encoding="utf-8"?><gpx creator="Garmin Desktop App" version="1.1" xsi:schemaLocation="http://www.topografix.com/GPX/1/1 http://www.topografix.com/GPX/1/1/gpx.xsd http://www.garmin.com/xmlschemas/WaypointExtension/v1 http://www8.garmin.com/xmlschemas/WaypointExtensionv1.xsd http://www.garmin.com/xmlschemas/TrackPointExtension/v1 http://www.garmin.com/xmlschemas/TrackPointExtensionv1.xsd http://www.garmin.com/xmlschemas/GpxExtensions/v3 http://www8.garmin.com/xmlschemas/GpxExtensionsv3.xsd http://www.garmin.com/xmlschemas/ActivityExtension/v1 http://www8.garmin.com/xmlschemas/ActivityExtensionv1.xsd http://www.garmin.com/xmlschemas/AdventuresExtensions/v1 http://www8.garmin.com/xmlschemas/AdventuresExtensionv1.xsd http://www.garmin.com/xmlschemas/PressureExtension/v1 http://www.garmin.com/xmlschemas/PressureExtensionv1.xsd http://www.garmin.com/xmlschemas/TripExtensions/v1 http://www.garmin.com/xmlschemas/TripExtensionsv1.xsd http://www.garmin.com/xmlschemas/TripMetaDataExtensions/v1 http://www.garmin.com/xmlschemas/TripMetaDataExtensionsv1.xsd http://www.garmin.com/xmlschemas/ViaPointTransportationModeExtensions/v1 http://www.garmin.com/xmlschemas/ViaPointTransportationModeExtensionsv1.xsd http://www.garmin.com/xmlschemas/CreationTimeExtension/v1 http://www.garmin.com/xmlschemas/CreationTimeExtensionsv1.xsd http://www.garmin.com/xmlschemas/AccelerationExtension/v1 http://www.garmin.com/xmlschemas/AccelerationExtensionv1.xsd http://www.garmin.com/xmlschemas/PowerExtension/v1 http://www.garmin.com/xmlschemas/PowerExtensionv1.xsd http://www.garmin.com/xmlschemas/VideoExtension/v1 http://www.garmin.com/xmlschemas/VideoExtensionv1.xsd" xmlns="http://www.topografix.com/GPX/1/1" xmlns:xsi="http://www.w3.org/2001/XMLSchema-instance" xmlns:wptx1="http://www.garmin.com/xmlschemas/WaypointExtension/v1" xmlns:gpxtrx="http://www.garmin.com/xmlschemas/GpxExtensions/v3" xmlns:gpxtpx="http://www.garmin.com/xmlschemas/TrackPointExtension/v1" xmlns:gpxx="http://www.garmin.com/xmlschemas/GpxExtensions/v3" xmlns:trp="http://www.garmin.com/xmlschemas/TripExtensions/v1" xmlns:adv="http://www.garmin.com/xmlschemas/AdventuresExtensions/v1" xmlns:prs="http://www.garmin.com/xmlschemas/PressureExtension/v1" xmlns:tmd="http://www.garmin.com/xmlschemas/TripMetaDataExtensions/v1" xmlns:vptm="http://www.garmin.com/xmlschemas/ViaPointTransportationModeExtensions/v1" xmlns:ctx="http://www.garmin.com/xmlschemas/CreationTimeExtension/v1" xmlns:gpxacc="http://www.garmin.com/xmlschemas/AccelerationExtension/v1" xmlns:gpxpx="http://www.garmin.com/xmlschemas/PowerExtension/v1" xmlns:vidx1="http://www.garmin.com/xmlschemas/VideoExtension/v1">

  <metadata>
    <link href="http://www.garmin.com">
      <text>Garmin International</text>
    </link>
    <time>2019-02-01T02:39:40Z</time>
    <bounds maxlat="46.588859986513853" maxlon="-84.279849976301193" minlat="46.584290005266666" minlon="-84.298329977318645" />
  </metadata>

  <trk>
    <name>7 UP</name>
    <extensions>
      <gpxx:TrackExtension>
        <gpxx:DisplayColor>DarkGray</gpxx:DisplayColor>
      </gpxx:TrackExtension>
    </extensions>
    <trkseg>
      <trkpt lat="46.585440002381802" lon="-84.29251997731626">
        <ele>285.5</ele>
        <time>2019-02-01T02:33:33Z</time>
      </trkpt>
      <trkpt lat="46.58547998405993" lon="-84.29241000674665">
        <ele>285.80000000000001</ele>
        <time>2019-02-01T02:33:34Z</time>
      </trkpt>
      <trkpt lat="46.585489958524704" lon="-84.292370025068521">
        <ele>285.89999999999998</ele>
        <time>2019-02-01T02:33:35Z</time>
      </trkpt>
      <trkpt lat="46.585509991273284" lon="-84.292240021750331">
        <ele>286.80000000000001</ele>
        <time>2019-02-01T02:33:36Z</time>
      </trkpt>
      <trkpt lat="46.585509991273284" lon="-84.292200040072203">
        <ele>287</ele>
        <time>2019-02-01T02:33:37Z</time>
      </trkpt>
      <trkpt lat="46.58547998405993" lon="-84.292119992896914">
        <ele>287.30000000000001</ele>
        <time>2019-02-01T02:33:38Z</time>
      </trkpt>
      <trkpt lat="46.585460035130382" lon="-84.292099960148335">
        <ele>287.39999999999998</ele>
        <time>2019-02-01T02:33:39Z</time>
      </trkpt>
      <trkpt lat="46.585340006276965" lon="-84.291970040649176">
        <ele>287.19999999999999</ele>
        <time>2019-02-01T02:33:40Z</time>
      </trkpt>
      <trkpt lat="46.585319973528385" lon="-84.29195998236537">
        <ele>287.10000000000002</ele>
        <time>2019-02-01T02:33:41Z</time>
      </trkpt>
      <trkpt lat="46.585249984636903" lon="-84.291940033435822">
        <ele>286.80000000000001</ele>
        <time>2019-02-01T02:33:42Z</time>
      </trkpt>
      <trkpt lat="46.585240010172129" lon="-84.291940033435822">
        <ele>286.80000000000001</ele>
        <time>2019-02-01T02:33:43Z</time>
      </trkpt>
      <trkpt lat="46.585140014067292" lon="-84.292059978470206">
        <ele>286</ele>
        <time>2019-02-01T02:33:44Z</time>
      </trkpt>
      <trkpt lat="46.585119981318712" lon="-84.292080011218786">
        <ele>285.89999999999998</ele>
        <time>2019-02-01T02:33:45Z</time>
      </trkpt>
      <trkpt lat="46.584989978000522" lon="-84.292189981788397">
        <ele>285.30000000000001</ele>
        <time>2019-02-01T02:33:46Z</time>
      </trkpt>
      <trkpt lat="46.584959970787168" lon="-84.292200040072203">
        <ele>285.30000000000001</ele>
        <time>2019-02-01T02:33:47Z</time>
      </trkpt>
      <trkpt lat="46.584919989109039" lon="-84.292210014536977">
        <ele>285.19999999999999</ele>
        <time>2019-02-01T02:33:48Z</time>
      </trkpt>
      <trkpt lat="46.584900040179491" lon="-84.292200040072203">
        <ele>285.30000000000001</ele>
        <time>2019-02-01T02:33:49Z</time>
      </trkpt>
      <trkpt lat="46.584859974682331" lon="-84.292150000110269">
        <ele>285.69999999999999</ele>
        <time>2019-02-01T02:33:50Z</time>
      </trkpt>
      <trkpt lat="46.584859974682331" lon="-84.292119992896914">
        <ele>285.89999999999998</ele>
        <time>2019-02-01T02:33:51Z</time>
      </trkpt>
      <trkpt lat="46.584859974682331" lon="-84.29198001511395">
        <ele>286.5</ele>
        <time>2019-02-01T02:33:52Z</time>
      </trkpt>
      <trkpt lat="46.584870032966137" lon="-84.291950007900596">
        <ele>286.69999999999999</ele>
        <time>2019-02-01T02:33:53Z</time>
      </trkpt>
      <trkpt lat="46.584959970787168" lon="-84.291580030694604">
        <ele>288.19999999999999</ele>
        <time>2019-02-01T02:33:54Z</time>
      </trkpt>
      <trkpt lat="46.584970029070973" lon="-84.29155002348125">
        <ele>288.19999999999999</ele>
        <time>2019-02-01T02:33:55Z</time>
      </trkpt>
      <trkpt lat="46.584989978000522" lon="-84.291369980201125">
        <ele>288.60000000000002</ele>
        <time>2019-02-01T02:33:56Z</time>
      </trkpt>
      <trkpt lat="46.585000036284328" lon="-84.291329998522997">
        <ele>288.60000000000002</ele>
        <time>2019-02-01T02:33:57Z</time>
      </trkpt>
      <trkpt lat="46.585140014067292" lon="-84.291049959138036">
        <ele>289.19999999999999</ele>
        <time>2019-02-01T02:33:58Z</time>
      </trkpt>
      <trkpt lat="46.585149988532066" lon="-84.291020035743713">
        <ele>289.30000000000001</ele>
        <time>2019-02-01T02:33:59Z</time>
      </trkpt>
      <trkpt lat="46.585279991850257" lon="-84.290709989145398">
        <ele>289.89999999999998</ele>
        <time>2019-02-01T02:34:00Z</time>
      </trkpt>
      <trkpt lat="46.585279991850257" lon="-84.29067000746727">
        <ele>290</ele>
        <time>2019-02-01T02:34:01Z</time>
      </trkpt>
      <trkpt lat="46.585289966315031" lon="-84.290530029684305">
        <ele>290.10000000000002</ele>
        <time>2019-02-01T02:34:02Z</time>
      </trkpt>
      <trkpt lat="46.585279991850257" lon="-84.290500022470951">
        <ele>290.19999999999999</ele>
        <time>2019-02-01T02:34:03Z</time>
      </trkpt>
      <trkpt lat="46.585200028494" lon="-84.290259964764118">
        <ele>290.10000000000002</ele>
        <time>2019-02-01T02:34:04Z</time>
      </trkpt>
      <trkpt lat="46.585200028494" lon="-84.290230041369796">
        <ele>290.10000000000002</ele>
        <time>2019-02-01T02:34:05Z</time>
      </trkpt>
      <trkpt lat="46.585219977423549" lon="-84.289899962022901">
        <ele>290</ele>
        <time>2019-02-01T02:34:06Z</time>
      </trkpt>
      <trkpt lat="46.585210002958775" lon="-84.289880013093352">
        <ele>290</ele>
        <time>2019-02-01T02:34:07Z</time>
      </trkpt>
      <trkpt lat="46.585149988532066" lon="-84.289840031415224">
        <ele>289.89999999999998</ele>
        <time>2019-02-01T02:34:08Z</time>
      </trkpt>
      <trkpt lat="46.585119981318712" lon="-84.289840031415224">
        <ele>289.89999999999998</ele>
        <time>2019-02-01T02:34:09Z</time>
      </trkpt>
      <trkpt lat="46.585089974105358" lon="-84.289840031415224">
        <ele>290</ele>
        <time>2019-02-01T02:34:10Z</time>
      </trkpt>
      <trkpt lat="46.585059966892004" lon="-84.289850005879998">
        <ele>290</ele>
        <time>2019-02-01T02:34:11Z</time>
      </trkpt>
      <trkpt lat="46.585010010749102" lon="-84.289899962022901">
        <ele>290</ele>
        <time>2019-02-01T02:34:12Z</time>
      </trkpt>
      <trkpt lat="46.585000036284328" lon="-84.289910020306706">
        <ele>290</ele>
        <time>2019-02-01T02:34:13Z</time>
      </trkpt>
      <trkpt lat="46.584819993004203" lon="-84.290370019152761">
        <ele>289.5</ele>
        <time>2019-02-01T02:34:14Z</time>
      </trkpt>
      <trkpt lat="46.584810018539429" lon="-84.290419975295663">
        <ele>289.5</ele>
        <time>2019-02-01T02:34:15Z</time>
      </trkpt>
      <trkpt lat="46.584740029647946" lon="-84.290739996358752">
        <ele>288.5</ele>
        <time>2019-02-01T02:34:16Z</time>
      </trkpt>
      <trkpt lat="46.584740029647946" lon="-84.290760029107332">
        <ele>288.60000000000002</ele>
        <time>2019-02-01T02:34:17Z</time>
      </trkpt>
      <trkpt lat="46.584650008007884" lon="-84.290920039638877">
        <ele>288.60000000000002</ele>
        <time>2019-02-01T02:34:18Z</time>
      </trkpt>
      <trkpt lat="46.58462000079453" lon="-84.290960021317005">
        <ele>288.5</ele>
        <time>2019-02-01T02:34:19Z</time>
      </trkpt>
      <trkpt lat="46.584540037438273" lon="-84.290890032425523">
        <ele>288.69999999999999</ele>
        <time>2019-02-01T02:34:20Z</time>
      </trkpt>
      <trkpt lat="46.584480023011565" lon="-84.290830017998815">
        <ele>288.89999999999998</ele>
        <time>2019-02-01T02:34:21Z</time>
      </trkpt>
      <trkpt lat="46.584420008584857" lon="-84.290719963610172">
        <ele>289.39999999999998</ele>
        <time>2019-02-01T02:34:22Z</time>
      </trkpt>
      <trkpt lat="46.584420008584857" lon="-84.290700014680624">
        <ele>289.5</ele>
        <time>2019-02-01T02:34:23Z</time>
      </trkpt>
      <trkpt lat="46.584429983049631" lon="-84.290579985827208">
        <ele>289.80000000000001</ele>
        <time>2019-02-01T02:34:24Z</time>
      </trkpt>
      <trkpt lat="46.584440041333437" lon="-84.290549978613853">
        <ele>289.80000000000001</ele>
        <time>2019-02-01T02:34:25Z</time>
      </trkpt>
      <trkpt lat="46.584650008007884" lon="-84.289980009198189">
        <ele>289.5</ele>
        <time>2019-02-01T02:34:26Z</time>
      </trkpt>
      <trkpt lat="46.584659982472658" lon="-84.289910020306706">
        <ele>289.60000000000002</ele>
        <time>2019-02-01T02:34:27Z</time>
      </trkpt>
      <trkpt lat="46.584699964150786" lon="-84.289710028097034">
        <ele>289.89999999999998</ele>
        <time>2019-02-01T02:34:28Z</time>
      </trkpt>
      <trkpt lat="46.584699964150786" lon="-84.289680020883679">
        <ele>289.89999999999998</ele>
        <time>2019-02-01T02:34:29Z</time>
      </trkpt>
      <trkpt lat="46.584569960832596" lon="-84.289009971544147">
        <ele>290.19999999999999</ele>
        <time>2019-02-01T02:34:30Z</time>
      </trkpt>
      <trkpt lat="46.584559986367822" lon="-84.288979964330792">
        <ele>290.19999999999999</ele>
        <time>2019-02-01T02:34:31Z</time>
      </trkpt>
      <trkpt lat="46.584520004689693" lon="-84.288849961012602">
        <ele>290.30000000000001</ele>
        <time>2019-02-01T02:34:32Z</time>
      </trkpt>
      <trkpt lat="46.584510030224919" lon="-84.288820037618279">
        <ele>290.30000000000001</ele>
        <time>2019-02-01T02:34:33Z</time>
      </trkpt>
      <trkpt lat="46.584399975836277" lon="-84.288600012660027">
        <ele>290.5</ele>
        <time>2019-02-01T02:34:34Z</time>
      </trkpt>
      <trkpt lat="46.584399975836277" lon="-84.288579979911447">
        <ele>290.5</ele>
        <time>2019-02-01T02:34:35Z</time>
      </trkpt>
      <trkpt lat="46.584380026906729" lon="-84.288379987701774">
        <ele>290.60000000000002</ele>
        <time>2019-02-01T02:34:36Z</time>
      </trkpt>
      <trkpt lat="46.584380026906729" lon="-84.288340006023645">
        <ele>290.60000000000002</ele>
        <time>2019-02-01T02:34:37Z</time>
      </trkpt>
      <trkpt lat="46.584310038015246" lon="-84.288140013813972">
        <ele>290.69999999999999</ele>
        <time>2019-02-01T02:34:38Z</time>
      </trkpt>
      <trkpt lat="46.584299979731441" lon="-84.288119981065392">
        <ele>290.69999999999999</ele>
        <time>2019-02-01T02:34:39Z</time>
      </trkpt>
      <trkpt lat="46.584310038015246" lon="-84.28807002492249">
        <ele>290.80000000000001</ele>
        <time>2019-02-01T02:34:40Z</time>
      </trkpt>
      <trkpt lat="46.584320012480021" lon="-84.28802995942533">
        <ele>290.89999999999998</ele>
        <time>2019-02-01T02:34:41Z</time>
      </trkpt>
      <trkpt lat="46.584369968622923" lon="-84.287840025499463">
        <ele>291.19999999999999</ele>
        <time>2019-02-01T02:34:42Z</time>
      </trkpt>
      <trkpt lat="46.584380026906729" lon="-84.287799960002303">
        <ele>291.19999999999999</ele>
        <time>2019-02-01T02:34:43Z</time>
      </trkpt>
      <trkpt lat="46.584480023011565" lon="-84.287629975005984">
        <ele>291.5</ele>
        <time>2019-02-01T02:34:44Z</time>
      </trkpt>
      <trkpt lat="46.584499971941113" lon="-84.287610026076436">
        <ele>291.60000000000002</ele>
        <time>2019-02-01T02:34:45Z</time>
      </trkpt>
      <trkpt lat="46.584559986367822" lon="-84.28759996779263">
        <ele>291.69999999999999</ele>
        <time>2019-02-01T02:34:46Z</time>
      </trkpt>
      <trkpt lat="46.584569960832596" lon="-84.287610026076436">
        <ele>291.69999999999999</ele>
        <time>2019-02-01T02:34:47Z</time>
      </trkpt>
      <trkpt lat="46.584710022434592" lon="-84.287719996646047">
        <ele>291.80000000000001</ele>
        <time>2019-02-01T02:34:48Z</time>
      </trkpt>
      <trkpt lat="46.584729971364141" lon="-84.287740029394627">
        <ele>291.80000000000001</ele>
        <time>2019-02-01T02:34:49Z</time>
      </trkpt>
      <trkpt lat="46.584850000217557" lon="-84.287780011072755">
        <ele>292</ele>
        <time>2019-02-01T02:34:50Z</time>
      </trkpt>
      <trkpt lat="46.584870032966137" lon="-84.287780011072755">
        <ele>292</ele>
        <time>2019-02-01T02:34:51Z</time>
      </trkpt>
      <trkpt lat="46.584900040179491" lon="-84.287770036607981">
        <ele>292</ele>
        <time>2019-02-01T02:34:52Z</time>
      </trkpt>
      <trkpt lat="46.584919989109039" lon="-84.287759978324175">
        <ele>292.10000000000002</ele>
        <time>2019-02-01T02:34:53Z</time>
      </trkpt>
      <trkpt lat="46.584949996322393" lon="-84.287729971110821">
        <ele>292.19999999999999</ele>
        <time>2019-02-01T02:34:54Z</time>
      </trkpt>
      <trkpt lat="46.584959970787168" lon="-84.287710022181273">
        <ele>292.30000000000001</ele>
        <time>2019-02-01T02:34:55Z</time>
      </trkpt>
      <trkpt lat="46.585019985213876" lon="-84.287550011649728">
        <ele>292.60000000000002</ele>
        <time>2019-02-01T02:34:56Z</time>
      </trkpt>
    </trkseg>
  </trk>

  <trk>
    <name>Bunny Hop</name>
    <extensions>
      <gpxx:TrackExtension>
        <gpxx:DisplayColor>DarkGray</gpxx:DisplayColor>
      </gpxx:TrackExtension>
    </extensions>
    <trkseg>
      <trkpt lat="46.587790036574006" lon="-84.290230041369796">
        <ele>298.10000000000002</ele>
        <time>2019-02-01T02:32:31Z</time>
      </trkpt>
      <trkpt lat="46.587479989975691" lon="-84.29077997803688">
        <ele>295.10000000000002</ele>
        <time>2019-02-01T02:32:32Z</time>
      </trkpt>
      <trkpt lat="46.587470015510917" lon="-84.29080001078546">
        <ele>295.39999999999998</ele>
        <time>2019-02-01T02:32:33Z</time>
      </trkpt>
      <trkpt lat="46.587449982762337" lon="-84.290849966928363">
        <ele>295.60000000000002</ele>
        <time>2019-02-01T02:32:34Z</time>
      </trkpt>
      <trkpt lat="46.587449982762337" lon="-84.290879974141717">
        <ele>295.60000000000002</ele>
        <time>2019-02-01T02:32:35Z</time>
      </trkpt>
      <trkpt lat="46.587430033832788" lon="-84.291020035743713">
        <ele>294.80000000000001</ele>
        <time>2019-02-01T02:32:36Z</time>
      </trkpt>
      <trkpt lat="46.587419975548983" lon="-84.291169987991452">
        <ele>296</ele>
        <time>2019-02-01T02:32:37Z</time>
      </trkpt>
      <trkpt lat="46.587500022724271" lon="-84.29123000241816">
        <ele>296.10000000000002</ele>
        <time>2019-02-01T02:32:38Z</time>
      </trkpt>
      <trkpt lat="46.587549978867173" lon="-84.291269984096289">
        <ele>296.39999999999998</ele>
        <time>2019-02-01T02:32:39Z</time>
      </trkpt>
      <trkpt lat="46.58764997497201" lon="-84.291360005736351">
        <ele>296.89999999999998</ele>
        <time>2019-02-01T02:32:40Z</time>
      </trkpt>
      <trkpt lat="46.587660033255816" lon="-84.291380038484931">
        <ele>297</ele>
        <time>2019-02-01T02:32:41Z</time>
      </trkpt>
      <trkpt lat="46.587679982185364" lon="-84.291429994627833">
        <ele>297.10000000000002</ele>
        <time>2019-02-01T02:32:42Z</time>
      </trkpt>
      <trkpt lat="46.58769004046917" lon="-84.291460001841187">
        <ele>297.19999999999999</ele>
        <time>2019-02-01T02:32:43Z</time>
      </trkpt>
      <trkpt lat="46.587709989398718" lon="-84.29168002679944">
        <ele>297.60000000000002</ele>
        <time>2019-02-01T02:32:44Z</time>
      </trkpt>
      <trkpt lat="46.587719963863492" lon="-84.291710034012794">
        <ele>297.69999999999999</ele>
        <time>2019-02-01T02:32:45Z</time>
      </trkpt>
      <trkpt lat="46.587890032678843" lon="-84.292240021750331">
        <ele>299.80000000000001</ele>
        <time>2019-02-01T02:32:46Z</time>
      </trkpt>
      <trkpt lat="46.587900007143617" lon="-84.292270028963685">
        <ele>299.89999999999998</ele>
        <time>2019-02-01T02:32:47Z</time>
      </trkpt>
      <trkpt lat="46.587900007143617" lon="-84.292349992319942">
        <ele>300.10000000000002</ele>
        <time>2019-02-01T02:32:48Z</time>
      </trkpt>
      <trkpt lat="46.587909981608391" lon="-84.292379999533296">
        <ele>300.19999999999999</ele>
        <time>2019-02-01T02:32:49Z</time>
      </trkpt>
      <trkpt lat="46.587890032678843" lon="-84.292500028386712">
        <ele>300.39999999999998</ele>
        <time>2019-02-01T02:32:50Z</time>
      </trkpt>
      <trkpt lat="46.587890032678843" lon="-84.292510002851486">
        <ele>300.39999999999998</ele>
        <time>2019-02-01T02:32:51Z</time>
      </trkpt>
      <trkpt lat="46.58807996660471" lon="-84.292689962312579">
        <ele>301.30000000000001</ele>
        <time>2019-02-01T02:32:52Z</time>
      </trkpt>
      <trkpt lat="46.58809999935329" lon="-84.292719969525933">
        <ele>301.39999999999998</ele>
        <time>2019-02-01T02:32:53Z</time>
      </trkpt>
      <trkpt lat="46.588190020993352" lon="-84.292890038341284">
        <ele>301.80000000000001</ele>
        <time>2019-02-01T02:32:54Z</time>
      </trkpt>
      <trkpt lat="46.5882099699229" lon="-84.292919961735606">
        <ele>301.89999999999998</ele>
        <time>2019-02-01T02:32:55Z</time>
      </trkpt>
      <trkpt lat="46.588269984349608" lon="-84.293090030550957">
        <ele>302.19999999999999</ele>
        <time>2019-02-01T02:32:56Z</time>
      </trkpt>
      <trkpt lat="46.588279958814383" lon="-84.293120037764311">
        <ele>302.19999999999999</ele>
        <time>2019-02-01T02:32:57Z</time>
      </trkpt>
      <trkpt lat="46.588339973241091" lon="-84.293509963899851">
        <ele>303</ele>
        <time>2019-02-01T02:32:58Z</time>
      </trkpt>
      <trkpt lat="46.588350031524897" lon="-84.293529996648431">
        <ele>303</ele>
        <time>2019-02-01T02:32:59Z</time>
      </trkpt>
      <trkpt lat="46.588429994881153" lon="-84.293820010498166">
        <ele>303.39999999999998</ele>
        <time>2019-02-01T02:33:00Z</time>
      </trkpt>
      <trkpt lat="46.588439969345927" lon="-84.29385001771152">
        <ele>303.5</ele>
        <time>2019-02-01T02:33:01Z</time>
      </trkpt>
      <trkpt lat="46.588480034843087" lon="-84.294099966064095">
        <ele>303.60000000000002</ele>
        <time>2019-02-01T02:33:02Z</time>
      </trkpt>
      <trkpt lat="46.588480034843087" lon="-84.29412997327745">
        <ele>303.5</ele>
        <time>2019-02-01T02:33:03Z</time>
      </trkpt>
      <trkpt lat="46.58850995823741" lon="-84.294860037043691">
        <ele>305.30000000000001</ele>
        <time>2019-02-01T02:33:04Z</time>
      </trkpt>
      <trkpt lat="46.58850995823741" lon="-84.294900018721819">
        <ele>305.5</ele>
        <time>2019-02-01T02:33:05Z</time>
      </trkpt>
      <trkpt lat="46.588490009307861" lon="-84.2951600253582">
        <ele>306.89999999999998</ele>
        <time>2019-02-01T02:33:06Z</time>
      </trkpt>
      <trkpt lat="46.588490009307861" lon="-84.295190032571554">
        <ele>307.10000000000002</ele>
        <time>2019-02-01T02:33:07Z</time>
      </trkpt>
      <trkpt lat="46.588460002094507" lon="-84.295360017567873">
        <ele>308.10000000000002</ele>
        <time>2019-02-01T02:33:08Z</time>
      </trkpt>
    </trkseg>
  </trk>

  <trk>
    <name>Cheerio</name>
    <extensions>
      <gpxx:TrackExtension>
        <gpxx:DisplayColor>DarkGray</gpxx:DisplayColor>
      </gpxx:TrackExtension>
    </extensions>
    <trkseg>
      <trkpt lat="46.586699970066547" lon="-84.29829997010529">
        <ele>298.30000000000001</ele>
        <time>2019-02-01T02:33:06Z</time>
      </trkpt>
      <trkpt lat="46.586589999496937" lon="-84.29818999953568">
        <ele>296.30000000000001</ele>
        <time>2019-02-01T02:33:07Z</time>
      </trkpt>
      <trkpt lat="46.586580025032163" lon="-84.298159992322326">
        <ele>296.19999999999999</ele>
        <time>2019-02-01T02:33:08Z</time>
      </trkpt>
      <trkpt lat="46.58646997064352" lon="-84.29786997847259">
        <ele>295.10000000000002</ele>
        <time>2019-02-01T02:33:09Z</time>
      </trkpt>
      <trkpt lat="46.586459996178746" lon="-84.297839971259236">
        <ele>294.89999999999998</ele>
        <time>2019-02-01T02:33:10Z</time>
      </trkpt>
      <trkpt lat="46.586350025609136" lon="-84.297690019011497">
        <ele>294.30000000000001</ele>
        <time>2019-02-01T02:33:11Z</time>
      </trkpt>
      <trkpt lat="46.586320018395782" lon="-84.297639979049563">
        <ele>294.19999999999999</ele>
        <time>2019-02-01T02:33:12Z</time>
      </trkpt>
      <trkpt lat="46.586199989542365" lon="-84.297509975731373">
        <ele>294</ele>
        <time>2019-02-01T02:33:13Z</time>
      </trkpt>
      <trkpt lat="46.586160007864237" lon="-84.297479968518019">
        <ele>293.80000000000001</ele>
        <time>2019-02-01T02:33:14Z</time>
      </trkpt>
      <trkpt lat="46.585560031235218" lon="-84.297009995207191">
        <ele>289.89999999999998</ele>
        <time>2019-02-01T02:33:15Z</time>
      </trkpt>
      <trkpt lat="46.585539998486638" lon="-84.296979987993836">
        <ele>289.69999999999999</ele>
        <time>2019-02-01T02:33:16Z</time>
      </trkpt>
      <trkpt lat="46.585460035130382" lon="-84.296889966353774">
        <ele>289</ele>
        <time>2019-02-01T02:33:17Z</time>
      </trkpt>
      <trkpt lat="46.585440002381802" lon="-84.29685995914042">
        <ele>288.80000000000001</ele>
        <time>2019-02-01T02:33:18Z</time>
      </trkpt>
      <trkpt lat="46.585370013490319" lon="-84.296710006892681">
        <ele>287.89999999999998</ele>
        <time>2019-02-01T02:33:19Z</time>
      </trkpt>
    </trkseg>
  </trk>

  <trk>
    <name>Grip It N Rip It</name>
    <extensions>
      <gpxx:TrackExtension>
        <gpxx:DisplayColor>DarkGray</gpxx:DisplayColor>
      </gpxx:TrackExtension>
    </extensions>
    <trkseg>
      <trkpt lat="46.588460002094507" lon="-84.295360017567873">
        <ele>308</ele>
        <time>2019-02-01T02:32:47Z</time>
      </trkpt>
      <trkpt lat="46.588369980454445" lon="-84.295680038630962">
        <ele>307</ele>
        <time>2019-02-01T02:32:48Z</time>
      </trkpt>
      <trkpt lat="46.588360005989671" lon="-84.295709962025285">
        <ele>306.80000000000001</ele>
        <time>2019-02-01T02:32:49Z</time>
      </trkpt>
      <trkpt lat="46.588220028206706" lon="-84.295990001410246">
        <ele>305.80000000000001</ele>
        <time>2019-02-01T02:32:50Z</time>
      </trkpt>
      <trkpt lat="46.5882099699229" lon="-84.2960200086236">
        <ele>305.80000000000001</ele>
        <time>2019-02-01T02:32:51Z</time>
      </trkpt>
      <trkpt lat="46.587949963286519" lon="-84.296909999102354">
        <ele>311.5</ele>
        <time>2019-02-01T02:32:52Z</time>
      </trkpt>
      <trkpt lat="46.587939988821745" lon="-84.296940006315708">
        <ele>311.89999999999998</ele>
        <time>2019-02-01T02:32:53Z</time>
      </trkpt>
      <trkpt lat="46.587890032678843" lon="-84.297079984098673">
        <ele>312.89999999999998</ele>
        <time>2019-02-01T02:32:54Z</time>
      </trkpt>
      <trkpt lat="46.587869999930263" lon="-84.297109991312027">
        <ele>312.80000000000001</ele>
        <time>2019-02-01T02:32:55Z</time>
      </trkpt>
      <trkpt lat="46.58780001103878" lon="-84.297219961881638">
        <ele>312.10000000000002</ele>
        <time>2019-02-01T02:32:56Z</time>
      </trkpt>
      <trkpt lat="46.587790036574006" lon="-84.297239994630218">
        <ele>311.89999999999998</ele>
        <time>2019-02-01T02:32:57Z</time>
      </trkpt>
      <trkpt lat="46.587709989398718" lon="-84.297270001843572">
        <ele>310.89999999999998</ele>
        <time>2019-02-01T02:32:58Z</time>
      </trkpt>
      <trkpt lat="46.58769004046917" lon="-84.297270001843572">
        <ele>310.60000000000002</ele>
        <time>2019-02-01T02:32:59Z</time>
      </trkpt>
      <trkpt lat="46.587660033255816" lon="-84.297249969094992">
        <ele>309.80000000000001</ele>
        <time>2019-02-01T02:33:00Z</time>
      </trkpt>
      <trkpt lat="46.587640000507236" lon="-84.297230020165443">
        <ele>309.39999999999998</ele>
        <time>2019-02-01T02:33:01Z</time>
      </trkpt>
      <trkpt lat="46.587600018829107" lon="-84.297179980203509">
        <ele>308.39999999999998</ele>
        <time>2019-02-01T02:33:02Z</time>
      </trkpt>
      <trkpt lat="46.587600018829107" lon="-84.297160031273961">
        <ele>308.10000000000002</ele>
        <time>2019-02-01T02:33:03Z</time>
      </trkpt>
      <trkpt lat="46.587600018829107" lon="-84.297119965776801">
        <ele>307.89999999999998</ele>
        <time>2019-02-01T02:33:04Z</time>
      </trkpt>
      <trkpt lat="46.587609993293881" lon="-84.297100016847253">
        <ele>308</ele>
        <time>2019-02-01T02:33:05Z</time>
      </trkpt>
      <trkpt lat="46.587709989398718" lon="-84.296849984675646">
        <ele>307.80000000000001</ele>
        <time>2019-02-01T02:33:06Z</time>
      </trkpt>
      <trkpt lat="46.587719963863492" lon="-84.296819977462292">
        <ele>307.5</ele>
        <time>2019-02-01T02:33:07Z</time>
      </trkpt>
      <trkpt lat="46.587709989398718" lon="-84.296770021319389">
        <ele>307.10000000000002</ele>
        <time>2019-02-01T02:33:08Z</time>
      </trkpt>
      <trkpt lat="46.587709989398718" lon="-84.296740014106035">
        <ele>306.69999999999999</ele>
        <time>2019-02-01T02:33:09Z</time>
      </trkpt>
      <trkpt lat="46.58767000772059" lon="-84.296670025214553">
        <ele>305.60000000000002</ele>
        <time>2019-02-01T02:33:10Z</time>
      </trkpt>
      <trkpt lat="46.587660033255816" lon="-84.296640018001199">
        <ele>305.10000000000002</ele>
        <time>2019-02-01T02:33:11Z</time>
      </trkpt>
      <trkpt lat="46.587359961122274" lon="-84.296280015259981">
        <ele>298.60000000000002</ele>
        <time>2019-02-01T02:33:12Z</time>
      </trkpt>
      <trkpt lat="46.587340012192726" lon="-84.296270040795207">
        <ele>298.30000000000001</ele>
        <time>2019-02-01T02:33:13Z</time>
      </trkpt>
      <trkpt lat="46.587289972230792" lon="-84.296250008046627">
        <ele>297.30000000000001</ele>
        <time>2019-02-01T02:33:14Z</time>
      </trkpt>
      <trkpt lat="46.587279997766018" lon="-84.296259982511401">
        <ele>297.10000000000002</ele>
        <time>2019-02-01T02:33:15Z</time>
      </trkpt>
      <trkpt lat="46.587210008874536" lon="-84.296359978616238">
        <ele>297</ele>
        <time>2019-02-01T02:33:16Z</time>
      </trkpt>
    </trkseg>
  </trk>

  <trk>
    <name>Homeward</name>
    <extensions>
      <gpxx:TrackExtension>
        <gpxx:DisplayColor>DarkGray</gpxx:DisplayColor>
      </gpxx:TrackExtension>
    </extensions>
    <trkseg>
      <trkpt lat="46.585019985213876" lon="-84.287550011649728">
        <ele>292.60000000000002</ele>
        <time>2019-02-01T02:33:39Z</time>
      </trkpt>
      <trkpt lat="46.58504999242723" lon="-84.287359993904829">
        <ele>292.39999999999998</ele>
        <time>2019-02-01T02:33:40Z</time>
      </trkpt>
      <trkpt lat="46.585059966892004" lon="-84.287329986691475">
        <ele>292.39999999999998</ele>
        <time>2019-02-01T02:33:41Z</time>
      </trkpt>
      <trkpt lat="46.585100032389164" lon="-84.287259997799993">
        <ele>293.10000000000002</ele>
        <time>2019-02-01T02:33:42Z</time>
      </trkpt>
      <trkpt lat="46.585119981318712" lon="-84.287239965051413">
        <ele>293.19999999999999</ele>
        <time>2019-02-01T02:33:43Z</time>
      </trkpt>
      <trkpt lat="46.585189970210195" lon="-84.287239965051413">
        <ele>293.60000000000002</ele>
        <time>2019-02-01T02:33:44Z</time>
      </trkpt>
      <trkpt lat="46.585210002958775" lon="-84.287250023335218">
        <ele>293.80000000000001</ele>
        <time>2019-02-01T02:33:45Z</time>
      </trkpt>
      <trkpt lat="46.585370013490319" lon="-84.287329986691475">
        <ele>294.69999999999999</ele>
        <time>2019-02-01T02:33:46Z</time>
      </trkpt>
      <trkpt lat="46.585389962419868" lon="-84.287339961156249">
        <ele>294.69999999999999</ele>
        <time>2019-02-01T02:33:47Z</time>
      </trkpt>
      <trkpt lat="46.585489958524704" lon="-84.287369968369603">
        <ele>295.10000000000002</ele>
        <time>2019-02-01T02:33:48Z</time>
      </trkpt>
      <trkpt lat="46.585519965738058" lon="-84.287380026653409">
        <ele>295.19999999999999</ele>
        <time>2019-02-01T02:33:49Z</time>
      </trkpt>
      <trkpt lat="46.585570005699992" lon="-84.287369968369603">
        <ele>295.5</ele>
        <time>2019-02-01T02:33:50Z</time>
      </trkpt>
      <trkpt lat="46.585600012913346" lon="-84.287359993904829">
        <ele>295.60000000000002</ele>
        <time>2019-02-01T02:33:51Z</time>
      </trkpt>
      <trkpt lat="46.585749965161085" lon="-84.287280030548573">
        <ele>295.89999999999998</ele>
        <time>2019-02-01T02:33:52Z</time>
      </trkpt>
      <trkpt lat="46.585760023444891" lon="-84.287229990586638">
        <ele>295.89999999999998</ele>
        <time>2019-02-01T02:33:53Z</time>
      </trkpt>
      <trkpt lat="46.585739990696311" lon="-84.28706000559032">
        <ele>295.60000000000002</ele>
        <time>2019-02-01T02:33:54Z</time>
      </trkpt>
      <trkpt lat="46.585739990696311" lon="-84.287020023912191">
        <ele>295.60000000000002</ele>
        <time>2019-02-01T02:33:55Z</time>
      </trkpt>
      <trkpt lat="46.585809979587793" lon="-84.286620039492846">
        <ele>295.69999999999999</ele>
        <time>2019-02-01T02:33:56Z</time>
      </trkpt>
      <trkpt lat="46.585809979587793" lon="-84.286590032279491">
        <ele>295.69999999999999</ele>
        <time>2019-02-01T02:33:57Z</time>
      </trkpt>
      <trkpt lat="46.585800005123019" lon="-84.286319967359304">
        <ele>295.69999999999999</ele>
        <time>2019-02-01T02:33:58Z</time>
      </trkpt>
      <trkpt lat="46.585809979587793" lon="-84.286279985681176">
        <ele>295.69999999999999</ele>
        <time>2019-02-01T02:33:59Z</time>
      </trkpt>
      <trkpt lat="46.585860019549727" lon="-84.285759972408414">
        <ele>296.69999999999999</ele>
        <time>2019-02-01T02:34:00Z</time>
      </trkpt>
      <trkpt lat="46.585860019549727" lon="-84.28572996519506">
        <ele>296.80000000000001</ele>
        <time>2019-02-01T02:34:01Z</time>
      </trkpt>
      <trkpt lat="46.585839986801147" lon="-84.285510024055839">
        <ele>297.10000000000002</ele>
        <time>2019-02-01T02:34:02Z</time>
      </trkpt>
      <trkpt lat="46.585830012336373" lon="-84.285480016842484">
        <ele>297.10000000000002</ele>
        <time>2019-02-01T02:34:03Z</time>
      </trkpt>
      <trkpt lat="46.585690034553409" lon="-84.285220010206103">
        <ele>296.60000000000002</ele>
        <time>2019-02-01T02:34:04Z</time>
      </trkpt>
      <trkpt lat="46.585690034553409" lon="-84.285190002992749">
        <ele>296.39999999999998</ele>
        <time>2019-02-01T02:34:05Z</time>
      </trkpt>
      <trkpt lat="46.585690034553409" lon="-84.285110039636493">
        <ele>296</ele>
        <time>2019-02-01T02:34:06Z</time>
      </trkpt>
      <trkpt lat="46.585690034553409" lon="-84.285069974139333">
        <ele>295.80000000000001</ele>
        <time>2019-02-01T02:34:07Z</time>
      </trkpt>
      <trkpt lat="46.585720041766763" lon="-84.284899989143014">
        <ele>295.19999999999999</ele>
        <time>2019-02-01T02:34:08Z</time>
      </trkpt>
      <trkpt lat="46.585730016231537" lon="-84.284860007464886">
        <ele>295</ele>
        <time>2019-02-01T02:34:09Z</time>
      </trkpt>
      <trkpt lat="46.585730016231537" lon="-84.284699996933341">
        <ele>294.39999999999998</ele>
        <time>2019-02-01T02:34:10Z</time>
      </trkpt>
      <trkpt lat="46.585739990696311" lon="-84.284650040790439">
        <ele>294.30000000000001</ele>
        <time>2019-02-01T02:34:11Z</time>
      </trkpt>
      <trkpt lat="46.585849961265922" lon="-84.284219965338707">
        <ele>294.39999999999998</ele>
        <time>2019-02-01T02:34:12Z</time>
      </trkpt>
      <trkpt lat="46.585860019549727" lon="-84.284189958125353">
        <ele>294.39999999999998</ele>
        <time>2019-02-01T02:34:13Z</time>
      </trkpt>
      <trkpt lat="46.585869994014502" lon="-84.283849988132715">
        <ele>293.80000000000001</ele>
        <time>2019-02-01T02:34:14Z</time>
      </trkpt>
      <trkpt lat="46.585869994014502" lon="-84.283819980919361">
        <ele>293.80000000000001</ele>
        <time>2019-02-01T02:34:15Z</time>
      </trkpt>
      <trkpt lat="46.585900001227856" lon="-84.283649995923042">
        <ele>293.80000000000001</ele>
        <time>2019-02-01T02:34:16Z</time>
      </trkpt>
      <trkpt lat="46.585920033976436" lon="-84.283619988709688">
        <ele>293.89999999999998</ele>
        <time>2019-02-01T02:34:17Z</time>
      </trkpt>
      <trkpt lat="46.586079960688949" lon="-84.283240037038922">
        <ele>294.60000000000002</ele>
        <time>2019-02-01T02:34:18Z</time>
      </trkpt>
      <trkpt lat="46.586090018972754" lon="-84.283210029825568">
        <ele>294.60000000000002</ele>
        <time>2019-02-01T02:34:19Z</time>
      </trkpt>
      <trkpt lat="46.586199989542365" lon="-84.28312998265028">
        <ele>295.19999999999999</ele>
        <time>2019-02-01T02:34:20Z</time>
      </trkpt>
      <trkpt lat="46.586220022290945" lon="-84.283099975436926">
        <ele>295.19999999999999</ele>
        <time>2019-02-01T02:34:21Z</time>
      </trkpt>
      <trkpt lat="46.586260003969073" lon="-84.282880034297705">
        <ele>294.69999999999999</ele>
        <time>2019-02-01T02:34:22Z</time>
      </trkpt>
      <trkpt lat="46.586269978433847" lon="-84.282860001549125">
        <ele>294.69999999999999</ele>
        <time>2019-02-01T02:34:23Z</time>
      </trkpt>
      <trkpt lat="46.586350025609136" lon="-84.282790012657642">
        <ele>294.69999999999999</ele>
        <time>2019-02-01T02:34:24Z</time>
      </trkpt>
      <trkpt lat="46.586369974538684" lon="-84.282780038192868">
        <ele>294.69999999999999</ele>
        <time>2019-02-01T02:34:25Z</time>
      </trkpt>
      <trkpt lat="46.586399981752038" lon="-84.282709965482354">
        <ele>294.69999999999999</ele>
        <time>2019-02-01T02:34:26Z</time>
      </trkpt>
      <trkpt lat="46.586410040035844" lon="-84.282690016552806">
        <ele>294.69999999999999</ele>
        <time>2019-02-01T02:34:27Z</time>
      </trkpt>
      <trkpt lat="46.586439963430166" lon="-84.282400002703071">
        <ele>294.19999999999999</ele>
        <time>2019-02-01T02:34:28Z</time>
      </trkpt>
      <trkpt lat="46.586439963430166" lon="-84.282369995489717">
        <ele>294.10000000000002</ele>
        <time>2019-02-01T02:34:29Z</time>
      </trkpt>
      <trkpt lat="46.586450021713972" lon="-84.282160028815269">
        <ele>293.5</ele>
        <time>2019-02-01T02:34:30Z</time>
      </trkpt>
      <trkpt lat="46.586450021713972" lon="-84.282130021601915">
        <ele>293.5</ele>
        <time>2019-02-01T02:34:31Z</time>
      </trkpt>
      <trkpt lat="46.586569966748357" lon="-84.281759960576892">
        <ele>292.89999999999998</ele>
        <time>2019-02-01T02:34:32Z</time>
      </trkpt>
      <trkpt lat="46.586569966748357" lon="-84.28173003718257">
        <ele>292.80000000000001</ele>
        <time>2019-02-01T02:34:33Z</time>
      </trkpt>
      <trkpt lat="46.586580025032163" lon="-84.281630041077733">
        <ele>292.5</ele>
        <time>2019-02-01T02:34:34Z</time>
      </trkpt>
      <trkpt lat="46.586580025032163" lon="-84.281589975580573">
        <ele>292.39999999999998</ele>
        <time>2019-02-01T02:34:35Z</time>
      </trkpt>
      <trkpt lat="46.586780017241836" lon="-84.281370034441352">
        <ele>290.80000000000001</ele>
        <time>2019-02-01T02:34:36Z</time>
      </trkpt>
    </trkseg>
  </trk>

  <trk>
    <name>Pinder</name>
    <extensions>
      <gpxx:TrackExtension>
        <gpxx:DisplayColor>DarkGray</gpxx:DisplayColor>
      </gpxx:TrackExtension>
    </extensions>
    <trkseg>
      <trkpt lat="46.586840031668544" lon="-84.279849976301193">
        <ele>288.89999999999998</ele>
        <time>2019-02-01T02:32:22Z</time>
      </trkpt>
      <trkpt lat="46.586980009451509" lon="-84.280460011214018">
        <ele>289.69999999999999</ele>
        <time>2019-02-01T02:32:23Z</time>
      </trkpt>
      <trkpt lat="46.586980009451509" lon="-84.280479960143566">
        <ele>289.80000000000001</ele>
        <time>2019-02-01T02:32:24Z</time>
      </trkpt>
      <trkpt lat="46.586959976702929" lon="-84.280699985101819">
        <ele>290.60000000000002</ele>
        <time>2019-02-01T02:32:25Z</time>
      </trkpt>
      <trkpt lat="46.586959976702929" lon="-84.280729992315173">
        <ele>290.69999999999999</ele>
        <time>2019-02-01T02:32:26Z</time>
      </trkpt>
      <trkpt lat="46.586889987811446" lon="-84.280920010060072">
        <ele>291.30000000000001</ele>
        <time>2019-02-01T02:32:27Z</time>
      </trkpt>
      <trkpt lat="46.586889987811446" lon="-84.280950017273426">
        <ele>291.39999999999998</ele>
        <time>2019-02-01T02:32:28Z</time>
      </trkpt>
      <trkpt lat="46.586859980598092" lon="-84.281140035018325">
        <ele>292.19999999999999</ele>
        <time>2019-02-01T02:32:29Z</time>
      </trkpt>
      <trkpt lat="46.586859980598092" lon="-84.281169958412647">
        <ele>292.30000000000001</ele>
        <time>2019-02-01T02:32:30Z</time>
      </trkpt>
      <trkpt lat="46.586780017241836" lon="-84.281370034441352">
        <ele>293</ele>
        <time>2019-02-01T02:32:31Z</time>
      </trkpt>
      <trkpt lat="46.586729977279902" lon="-84.281510012224317">
        <ele>293.10000000000002</ele>
        <time>2019-02-01T02:32:32Z</time>
      </trkpt>
      <trkpt lat="46.586720002815127" lon="-84.281540019437671">
        <ele>294.10000000000002</ele>
        <time>2019-02-01T02:32:33Z</time>
      </trkpt>
      <trkpt lat="46.586759984493256" lon="-84.28186004050076">
        <ele>294.10000000000002</ele>
        <time>2019-02-01T02:32:34Z</time>
      </trkpt>
      <trkpt lat="46.586759984493256" lon="-84.281889963895082">
        <ele>294.69999999999999</ele>
        <time>2019-02-01T02:32:35Z</time>
      </trkpt>
      <trkpt lat="46.586740035563707" lon="-84.282139996066689">
        <ele>294.69999999999999</ele>
        <time>2019-02-01T02:32:36Z</time>
      </trkpt>
      <trkpt lat="46.586740035563707" lon="-84.282179977744818">
        <ele>295.19999999999999</ele>
        <time>2019-02-01T02:32:37Z</time>
      </trkpt>
      <trkpt lat="46.586759984493256" lon="-84.282430009916425">
        <ele>295.19999999999999</ele>
        <time>2019-02-01T02:32:38Z</time>
      </trkpt>
      <trkpt lat="46.586759984493256" lon="-84.282449958845973">
        <ele>295.39999999999998</ele>
        <time>2019-02-01T02:32:39Z</time>
      </trkpt>
      <trkpt lat="46.586729977279902" lon="-84.282539980486035">
        <ele>295.39999999999998</ele>
        <time>2019-02-01T02:32:40Z</time>
      </trkpt>
      <trkpt lat="46.586720002815127" lon="-84.282560013234615">
        <ele>295.30000000000001</ele>
        <time>2019-02-01T02:32:41Z</time>
      </trkpt>
      <trkpt lat="46.586629981175065" lon="-84.282679958269">
        <ele>295.10000000000002</ele>
        <time>2019-02-01T02:32:42Z</time>
      </trkpt>
      <trkpt lat="46.586620006710291" lon="-84.28269999101758">
        <ele>295.10000000000002</ele>
        <time>2019-02-01T02:32:43Z</time>
      </trkpt>
      <trkpt lat="46.586610032245517" lon="-84.282899983227253">
        <ele>295.10000000000002</ele>
        <time>2019-02-01T02:32:44Z</time>
      </trkpt>
      <trkpt lat="46.586599973961711" lon="-84.282929990440607">
        <ele>297</ele>
        <time>2019-02-01T02:32:45Z</time>
      </trkpt>
      <trkpt lat="46.586520010605454" lon="-84.283220004290342">
        <ele>297.10000000000002</ele>
        <time>2019-02-01T02:32:46Z</time>
      </trkpt>
      <trkpt lat="46.58651003614068" lon="-84.283250011503696">
        <ele>296.80000000000001</ele>
        <time>2019-02-01T02:32:47Z</time>
      </trkpt>
      <trkpt lat="46.58633996732533" lon="-84.283459978178144">
        <ele>296.80000000000001</ele>
        <time>2019-02-01T02:32:48Z</time>
      </trkpt>
      <trkpt lat="46.586320018395782" lon="-84.283470036461949">
        <ele>296.5</ele>
        <time>2019-02-01T02:32:49Z</time>
      </trkpt>
      <trkpt lat="46.586269978433847" lon="-84.283499959856272">
        <ele>296.39999999999998</ele>
        <time>2019-02-01T02:32:50Z</time>
      </trkpt>
      <trkpt lat="46.586250029504299" lon="-84.283510018140078">
        <ele>296</ele>
        <time>2019-02-01T02:32:51Z</time>
      </trkpt>
      <trkpt lat="46.586190015077591" lon="-84.283499959856272">
        <ele>296</ele>
        <time>2019-02-01T02:32:52Z</time>
      </trkpt>
      <trkpt lat="46.586180040612817" lon="-84.283499959856272">
        <ele>295.5</ele>
        <time>2019-02-01T02:32:53Z</time>
      </trkpt>
      <trkpt lat="46.586120026186109" lon="-84.283549999818206">
        <ele>295.19999999999999</ele>
        <time>2019-02-01T02:32:54Z</time>
      </trkpt>
      <trkpt lat="46.586079960688949" lon="-84.28360003978014">
        <ele>295</ele>
        <time>2019-02-01T02:32:55Z</time>
      </trkpt>
      <trkpt lat="46.58603997901082" lon="-84.283710010349751">
        <ele>294.89999999999998</ele>
        <time>2019-02-01T02:32:56Z</time>
      </trkpt>
      <trkpt lat="46.586020030081272" lon="-84.283770024776459">
        <ele>294.89999999999998</ele>
        <time>2019-02-01T02:32:57Z</time>
      </trkpt>
      <trkpt lat="46.585999997332692" lon="-84.283900028094649">
        <ele>295.19999999999999</ele>
        <time>2019-02-01T02:32:58Z</time>
      </trkpt>
      <trkpt lat="46.586020030081272" lon="-84.283959958702326">
        <ele>295.60000000000002</ele>
        <time>2019-02-01T02:32:59Z</time>
      </trkpt>
      <trkpt lat="46.58603997901082" lon="-84.284019973129034">
        <ele>296.19999999999999</ele>
        <time>2019-02-01T02:33:00Z</time>
      </trkpt>
      <trkpt lat="46.586090018972754" lon="-84.284130027517676">
        <ele>297.30000000000001</ele>
        <time>2019-02-01T02:33:01Z</time>
      </trkpt>
      <trkpt lat="46.586169982329011" lon="-84.284219965338707">
        <ele>297.5</ele>
        <time>2019-02-01T02:33:02Z</time>
      </trkpt>
      <trkpt lat="46.586190015077591" lon="-84.284230023622513">
        <ele>297.69999999999999</ele>
        <time>2019-02-01T02:33:03Z</time>
      </trkpt>
      <trkpt lat="46.586209964007139" lon="-84.284239998087287">
        <ele>297.89999999999998</ele>
        <time>2019-02-01T02:33:04Z</time>
      </trkpt>
      <trkpt lat="46.586229996755719" lon="-84.284249972552061">
        <ele>298.5</ele>
        <time>2019-02-01T02:33:05Z</time>
      </trkpt>
      <trkpt lat="46.586369974538684" lon="-84.284249972552061">
        <ele>298.60000000000002</ele>
        <time>2019-02-01T02:33:06Z</time>
      </trkpt>
      <trkpt lat="46.586390007287264" lon="-84.284249972552061">
        <ele>298.69999999999999</ele>
        <time>2019-02-01T02:33:07Z</time>
      </trkpt>
      <trkpt lat="46.586429988965392" lon="-84.284270005300641">
        <ele>298.80000000000001</ele>
        <time>2019-02-01T02:33:08Z</time>
      </trkpt>
      <trkpt lat="46.586450021713972" lon="-84.284279979765415">
        <ele>299</ele>
        <time>2019-02-01T02:33:09Z</time>
      </trkpt>
      <trkpt lat="46.58651003614068" lon="-84.284330019727349">
        <ele>299.10000000000002</ele>
        <time>2019-02-01T02:33:10Z</time>
      </trkpt>
      <trkpt lat="46.586520010605454" lon="-84.284349968656898">
        <ele>299.5</ele>
        <time>2019-02-01T02:33:11Z</time>
      </trkpt>
      <trkpt lat="46.586539959535003" lon="-84.28443999029696">
        <ele>299.60000000000002</ele>
        <time>2019-02-01T02:33:12Z</time>
      </trkpt>
      <trkpt lat="46.586539959535003" lon="-84.28446002304554">
        <ele>299.69999999999999</ele>
        <time>2019-02-01T02:33:13Z</time>
      </trkpt>
      <trkpt lat="46.586499977856874" lon="-84.284530011937022">
        <ele>299.80000000000001</ele>
        <time>2019-02-01T02:33:14Z</time>
      </trkpt>
      <trkpt lat="46.5864900033921" lon="-84.284560019150376">
        <ele>299.89999999999998</ele>
        <time>2019-02-01T02:33:15Z</time>
      </trkpt>
      <trkpt lat="46.586459996178746" lon="-84.284699996933341">
        <ele>299.89999999999998</ele>
        <time>2019-02-01T02:33:16Z</time>
      </trkpt>
      <trkpt lat="46.586459996178746" lon="-84.284730004146695">
        <ele>299.89999999999998</ele>
        <time>2019-02-01T02:33:17Z</time>
      </trkpt>
      <trkpt lat="46.586459996178746" lon="-84.284799993038177">
        <ele>299.89999999999998</ele>
        <time>2019-02-01T02:33:18Z</time>
      </trkpt>
      <trkpt lat="46.586459996178746" lon="-84.284830000251532">
        <ele>300</ele>
        <time>2019-02-01T02:33:19Z</time>
      </trkpt>
      <trkpt lat="46.586480028927326" lon="-84.28486998192966">
        <ele>300</ele>
        <time>2019-02-01T02:33:20Z</time>
      </trkpt>
      <trkpt lat="46.5864900033921" lon="-84.28489001467824">
        <ele>300.19999999999999</ele>
        <time>2019-02-01T02:33:21Z</time>
      </trkpt>
      <trkpt lat="46.586529985070229" lon="-84.284909963607788">
        <ele>300.30000000000001</ele>
        <time>2019-02-01T02:33:22Z</time>
      </trkpt>
      <trkpt lat="46.586550017818809" lon="-84.284909963607788">
        <ele>300.5</ele>
        <time>2019-02-01T02:33:23Z</time>
      </trkpt>
      <trkpt lat="46.586710028350353" lon="-84.284799993038177">
        <ele>300.30000000000001</ele>
        <time>2019-02-01T02:33:24Z</time>
      </trkpt>
      <trkpt lat="46.586729977279902" lon="-84.284799993038177">
        <ele>298.89999999999998</ele>
        <time>2019-02-01T02:33:25Z</time>
      </trkpt>
      <trkpt lat="46.587110012769699" lon="-84.284960003569722">
        <ele>298.89999999999998</ele>
        <time>2019-02-01T02:33:26Z</time>
      </trkpt>
      <trkpt lat="46.587119987234473" lon="-84.284969978034496">
        <ele>298.89999999999998</ele>
        <time>2019-02-01T02:33:27Z</time>
      </trkpt>
      <trkpt lat="46.587140019983053" lon="-84.285099981352687">
        <ele>298.89999999999998</ele>
        <time>2019-02-01T02:33:28Z</time>
      </trkpt>
      <trkpt lat="46.587140019983053" lon="-84.285120014101267">
        <ele>298.89999999999998</ele>
        <time>2019-02-01T02:33:29Z</time>
      </trkpt>
      <trkpt lat="46.587070031091571" lon="-84.285239959135652">
        <ele>298.80000000000001</ele>
        <time>2019-02-01T02:33:30Z</time>
      </trkpt>
      <trkpt lat="46.587070031091571" lon="-84.285259991884232">
        <ele>298.39999999999998</ele>
        <time>2019-02-01T02:33:31Z</time>
      </trkpt>
      <trkpt lat="46.587129961699247" lon="-84.285389995202422">
        <ele>298.39999999999998</ele>
        <time>2019-02-01T02:33:32Z</time>
      </trkpt>
      <trkpt lat="46.587129961699247" lon="-84.285410027951002">
        <ele>298.30000000000001</ele>
        <time>2019-02-01T02:33:33Z</time>
      </trkpt>
      <trkpt lat="46.587080005556345" lon="-84.285559980198741">
        <ele>298.30000000000001</ele>
        <time>2019-02-01T02:33:34Z</time>
      </trkpt>
      <trkpt lat="46.587070031091571" lon="-84.285580012947321">
        <ele>298.30000000000001</ele>
        <time>2019-02-01T02:33:35Z</time>
      </trkpt>
      <trkpt lat="46.587080005556345" lon="-84.285629969090223">
        <ele>298.19999999999999</ele>
        <time>2019-02-01T02:33:36Z</time>
      </trkpt>
      <trkpt lat="46.587089980021119" lon="-84.285659976303577">
        <ele>298.10000000000002</ele>
        <time>2019-02-01T02:33:37Z</time>
      </trkpt>
      <trkpt lat="46.587129961699247" lon="-84.285710016265512">
        <ele>298</ele>
        <time>2019-02-01T02:33:38Z</time>
      </trkpt>
      <trkpt lat="46.587149994447827" lon="-84.285719990730286">
        <ele>297.69999999999999</ele>
        <time>2019-02-01T02:33:39Z</time>
      </trkpt>
      <trkpt lat="46.587189976125956" lon="-84.285719990730286">
        <ele>297.5</ele>
        <time>2019-02-01T02:33:40Z</time>
      </trkpt>
      <trkpt lat="46.587210008874536" lon="-84.285700041800737">
        <ele>297.80000000000001</ele>
        <time>2019-02-01T02:33:41Z</time>
      </trkpt>
      <trkpt lat="46.587340012192726" lon="-84.285459984093904">
        <ele>297.80000000000001</ele>
        <time>2019-02-01T02:33:42Z</time>
      </trkpt>
      <trkpt lat="46.587359961122274" lon="-84.285440035164356">
        <ele>297.80000000000001</ele>
        <time>2019-02-01T02:33:43Z</time>
      </trkpt>
      <trkpt lat="46.587400026619434" lon="-84.285420002415776">
        <ele>297.80000000000001</ele>
        <time>2019-02-01T02:33:44Z</time>
      </trkpt>
      <trkpt lat="46.587430033832788" lon="-84.285410027951002">
        <ele>297.69999999999999</ele>
        <time>2019-02-01T02:33:45Z</time>
      </trkpt>
      <trkpt lat="46.587549978867173" lon="-84.285389995202422">
        <ele>297.69999999999999</ele>
        <time>2019-02-01T02:33:46Z</time>
      </trkpt>
      <trkpt lat="46.587560037150979" lon="-84.285380020737648">
        <ele>297.69999999999999</ele>
        <time>2019-02-01T02:33:47Z</time>
      </trkpt>
      <trkpt lat="46.587640000507236" lon="-84.285229984670877">
        <ele>297.69999999999999</ele>
        <time>2019-02-01T02:33:48Z</time>
      </trkpt>
      <trkpt lat="46.58764997497201" lon="-84.285210035741329">
        <ele>297.69999999999999</ele>
        <time>2019-02-01T02:33:49Z</time>
      </trkpt>
      <trkpt lat="46.587709989398718" lon="-84.285139963030815">
        <ele>297.69999999999999</ele>
        <time>2019-02-01T02:33:50Z</time>
      </trkpt>
      <trkpt lat="46.587730022147298" lon="-84.285120014101267">
        <ele>297.80000000000001</ele>
        <time>2019-02-01T02:33:51Z</time>
      </trkpt>
      <trkpt lat="46.587819959968328" lon="-84.285099981352687">
        <ele>297.89999999999998</ele>
        <time>2019-02-01T02:33:52Z</time>
      </trkpt>
      <trkpt lat="46.587839992716908" lon="-84.285099981352687">
        <ele>297.89999999999998</ele>
        <time>2019-02-01T02:33:53Z</time>
      </trkpt>
      <trkpt lat="46.587909981608391" lon="-84.285169970244169">
        <ele>297.89999999999998</ele>
        <time>2019-02-01T02:33:54Z</time>
      </trkpt>
      <trkpt lat="46.587930014356971" lon="-84.285190002992749">
        <ele>297.80000000000001</ele>
        <time>2019-02-01T02:33:55Z</time>
      </trkpt>
      <trkpt lat="46.588000003248453" lon="-84.285420002415776">
        <ele>297.80000000000001</ele>
        <time>2019-02-01T02:33:56Z</time>
      </trkpt>
      <trkpt lat="46.588009977713227" lon="-84.28545000962913">
        <ele>297.69999999999999</ele>
        <time>2019-02-01T02:33:57Z</time>
      </trkpt>
      <trkpt lat="46.58809999935329" lon="-84.285589987412095">
        <ele>297.69999999999999</ele>
        <time>2019-02-01T02:33:58Z</time>
      </trkpt>
      <trkpt lat="46.58812003210187" lon="-84.285619994625449">
        <ele>297.5</ele>
        <time>2019-02-01T02:33:59Z</time>
      </trkpt>
      <trkpt lat="46.588179962709546" lon="-84.285789979621768">
        <ele>297.60000000000002</ele>
        <time>2019-02-01T02:34:00Z</time>
      </trkpt>
      <trkpt lat="46.588190020993352" lon="-84.285819986835122">
        <ele>297.80000000000001</ele>
        <time>2019-02-01T02:34:01Z</time>
      </trkpt>
      <trkpt lat="46.58823000267148" lon="-84.28620002232492">
        <ele>297.89999999999998</ele>
        <time>2019-02-01T02:34:02Z</time>
      </trkpt>
      <trkpt lat="46.58823000267148" lon="-84.286230029538274">
        <ele>298.19999999999999</ele>
        <time>2019-02-01T02:34:03Z</time>
      </trkpt>
      <trkpt lat="46.588179962709546" lon="-84.286530017852783">
        <ele>298.19999999999999</ele>
        <time>2019-02-01T02:34:04Z</time>
      </trkpt>
      <trkpt lat="46.588190020993352" lon="-84.286560025066137">
        <ele>299.39999999999998</ele>
        <time>2019-02-01T02:34:05Z</time>
      </trkpt>
      <trkpt lat="46.588290017098188" lon="-84.287009965628386">
        <ele>299.39999999999998</ele>
        <time>2019-02-01T02:34:06Z</time>
      </trkpt>
      <trkpt lat="46.588299991562963" lon="-84.28703997284174">
        <ele>299.69999999999999</ele>
        <time>2019-02-01T02:34:07Z</time>
      </trkpt>
      <trkpt lat="46.588369980454445" lon="-84.287290005013347">
        <ele>299.69999999999999</ele>
        <time>2019-02-01T02:34:08Z</time>
      </trkpt>
      <trkpt lat="46.588380038738251" lon="-84.287310037761927">
        <ele>298.69999999999999</ele>
        <time>2019-02-01T02:34:09Z</time>
      </trkpt>
      <trkpt lat="46.588580030947924" lon="-84.287520004436374">
        <ele>298.5</ele>
        <time>2019-02-01T02:34:10Z</time>
      </trkpt>
      <trkpt lat="46.588590005412698" lon="-84.287540037184954">
        <ele>298.60000000000002</ele>
        <time>2019-02-01T02:34:11Z</time>
      </trkpt>
      <trkpt lat="46.588610038161278" lon="-84.28759996779263">
        <ele>298.89999999999998</ele>
        <time>2019-02-01T02:34:12Z</time>
      </trkpt>
      <trkpt lat="46.588610038161278" lon="-84.287629975005984">
        <ele>299.30000000000001</ele>
        <time>2019-02-01T02:34:13Z</time>
      </trkpt>
      <trkpt lat="46.588599979877472" lon="-84.287810018286109">
        <ele>299.19999999999999</ele>
        <time>2019-02-01T02:34:14Z</time>
      </trkpt>
      <trkpt lat="46.588610038161278" lon="-84.287840025499463">
        <ele>298.69999999999999</ele>
        <time>2019-02-01T02:34:15Z</time>
      </trkpt>
      <trkpt lat="46.588759990409017" lon="-84.288119981065392">
        <ele>298.69999999999999</ele>
        <time>2019-02-01T02:34:16Z</time>
      </trkpt>
      <trkpt lat="46.588769964873791" lon="-84.288149988278747">
        <ele>298.5</ele>
        <time>2019-02-01T02:34:17Z</time>
      </trkpt>
      <trkpt lat="46.588740041479468" lon="-84.288430027663708">
        <ele>298.5</ele>
        <time>2019-02-01T02:34:18Z</time>
      </trkpt>
      <trkpt lat="46.588740041479468" lon="-84.288449976593256">
        <ele>298.30000000000001</ele>
        <time>2019-02-01T02:34:19Z</time>
      </trkpt>
      <trkpt lat="46.588859986513853" lon="-84.288630019873381">
        <ele>298.30000000000001</ele>
        <time>2019-02-01T02:34:20Z</time>
      </trkpt>
      <trkpt lat="46.588859986513853" lon="-84.288660027086735">
        <ele>298.30000000000001</ele>
        <time>2019-02-01T02:34:21Z</time>
      </trkpt>
      <trkpt lat="46.588840037584305" lon="-84.288730015978217">
        <ele>298.30000000000001</ele>
        <time>2019-02-01T02:34:22Z</time>
      </trkpt>
      <trkpt lat="46.588829979300499" lon="-84.288749964907765">
        <ele>298.30000000000001</ele>
        <time>2019-02-01T02:34:23Z</time>
      </trkpt>
      <trkpt lat="46.588750015944242" lon="-84.288830012083054">
        <ele>298.30000000000001</ele>
        <time>2019-02-01T02:34:24Z</time>
      </trkpt>
      <trkpt lat="46.588740041479468" lon="-84.288849961012602">
        <ele>298.30000000000001</ele>
        <time>2019-02-01T02:34:25Z</time>
      </trkpt>
      <trkpt lat="46.588699975982308" lon="-84.288999997079372">
        <ele>298.30000000000001</ele>
        <time>2019-02-01T02:34:26Z</time>
      </trkpt>
      <trkpt lat="46.588690001517534" lon="-84.289020029827952">
        <ele>298.30000000000001</ele>
        <time>2019-02-01T02:34:27Z</time>
      </trkpt>
      <trkpt lat="46.588539965450764" lon="-84.289169982075691">
        <ele>298.30000000000001</ele>
        <time>2019-02-01T02:34:28Z</time>
      </trkpt>
      <trkpt lat="46.58852999098599" lon="-84.289190014824271">
        <ele>298.39999999999998</ele>
        <time>2019-02-01T02:34:29Z</time>
      </trkpt>
      <trkpt lat="46.588480034843087" lon="-84.289399981498718">
        <ele>298.39999999999998</ele>
        <time>2019-02-01T02:34:30Z</time>
      </trkpt>
      <trkpt lat="46.588469976559281" lon="-84.289450021460652">
        <ele>298.39999999999998</ele>
        <time>2019-02-01T02:34:31Z</time>
      </trkpt>
      <trkpt lat="46.588429994881153" lon="-84.289529984816909">
        <ele>298.39999999999998</ele>
        <time>2019-02-01T02:34:32Z</time>
      </trkpt>
      <trkpt lat="46.588429994881153" lon="-84.289550017565489">
        <ele>298.39999999999998</ele>
        <time>2019-02-01T02:34:33Z</time>
      </trkpt>
      <trkpt lat="46.588420020416379" lon="-84.289599973708391">
        <ele>298.39999999999998</ele>
        <time>2019-02-01T02:34:34Z</time>
      </trkpt>
      <trkpt lat="46.588429994881153" lon="-84.289640039205551">
        <ele>298.39999999999998</ele>
        <time>2019-02-01T02:34:35Z</time>
      </trkpt>
      <trkpt lat="46.58852999098599" lon="-84.289899962022901">
        <ele>298.39999999999998</ele>
        <time>2019-02-01T02:34:36Z</time>
      </trkpt>
      <trkpt lat="46.58825003542006" lon="-84.289970034733415">
        <ele>298.5</ele>
        <time>2019-02-01T02:34:37Z</time>
      </trkpt>
      <trkpt lat="46.588199995458126" lon="-84.289989983662963">
        <ele>298.5</ele>
        <time>2019-02-01T02:34:38Z</time>
      </trkpt>
      <trkpt lat="46.588000003248453" lon="-84.290080005303025">
        <ele>298.30000000000001</ele>
        <time>2019-02-01T02:34:39Z</time>
      </trkpt>
      <trkpt lat="46.587969996035099" lon="-84.290100038051605">
        <ele>298.30000000000001</ele>
        <time>2019-02-01T02:34:40Z</time>
      </trkpt>
      <trkpt lat="46.587790036574006" lon="-84.290230041369796">
        <ele>298</ele>
        <time>2019-02-01T02:34:41Z</time>
      </trkpt>
    </trkseg>
  </trk>

  <trk>
    <name>Special K</name>
    <extensions>
      <gpxx:TrackExtension>
        <gpxx:DisplayColor>DarkGray</gpxx:DisplayColor>
      </gpxx:TrackExtension>
    </extensions>
    <trkseg>
      <trkpt lat="46.587210008874536" lon="-84.296359978616238">
        <ele>298.10000000000002</ele>
        <time>2019-02-01T02:33:00Z</time>
      </trkpt>
      <trkpt lat="46.587019991129637" lon="-84.296629959717393">
        <ele>297.69999999999999</ele>
        <time>2019-02-01T02:33:01Z</time>
      </trkpt>
      <trkpt lat="46.587010016664863" lon="-84.296649992465973">
        <ele>297.69999999999999</ele>
        <time>2019-02-01T02:33:02Z</time>
      </trkpt>
      <trkpt lat="46.5869199950248" lon="-84.296909999102354">
        <ele>298.60000000000002</ele>
        <time>2019-02-01T02:33:03Z</time>
      </trkpt>
      <trkpt lat="46.586910020560026" lon="-84.296940006315708">
        <ele>298.80000000000001</ele>
        <time>2019-02-01T02:33:04Z</time>
      </trkpt>
      <trkpt lat="46.58689996227622" lon="-84.297230020165443">
        <ele>300.10000000000002</ele>
        <time>2019-02-01T02:33:05Z</time>
      </trkpt>
      <trkpt lat="46.586910020560026" lon="-84.297300009056926">
        <ele>300.19999999999999</ele>
        <time>2019-02-01T02:33:06Z</time>
      </trkpt>
      <trkpt lat="46.586970034986734" lon="-84.2977399751544">
        <ele>301.30000000000001</ele>
        <time>2019-02-01T02:33:07Z</time>
      </trkpt>
      <trkpt lat="46.586970034986734" lon="-84.297769982367754">
        <ele>301.39999999999998</ele>
        <time>2019-02-01T02:33:08Z</time>
      </trkpt>
      <trkpt lat="46.586950002238154" lon="-84.298020014539361">
        <ele>301.80000000000001</ele>
        <time>2019-02-01T02:33:09Z</time>
      </trkpt>
      <trkpt lat="46.58694002777338" lon="-84.298050021752715">
        <ele>301.80000000000001</ele>
        <time>2019-02-01T02:33:10Z</time>
      </trkpt>
      <trkpt lat="46.586859980598092" lon="-84.298280021175742">
        <ele>300.10000000000002</ele>
        <time>2019-02-01T02:33:11Z</time>
      </trkpt>
      <trkpt lat="46.586840031668544" lon="-84.298289995640516">
        <ele>300</ele>
        <time>2019-02-01T02:33:12Z</time>
      </trkpt>
      <trkpt lat="46.586799966171384" lon="-84.29832000285387">
        <ele>299.39999999999998</ele>
        <time>2019-02-01T02:33:13Z</time>
      </trkpt>
      <trkpt lat="46.586780017241836" lon="-84.298329977318645">
        <ele>299.19999999999999</ele>
        <time>2019-02-01T02:33:14Z</time>
      </trkpt>
      <trkpt lat="46.586699970066547" lon="-84.29829997010529">
        <ele>298.19999999999999</ele>
        <time>2019-02-01T02:33:15Z</time>
      </trkpt>
    </trkseg>
  </trk>

  <trk>
    <name>White Pine</name>
    <extensions>
      <gpxx:TrackExtension>
        <gpxx:DisplayColor>DarkGray</gpxx:DisplayColor>
      </gpxx:TrackExtension>
    </extensions>
    <trkseg>
      <trkpt lat="46.584910014644265" lon="-84.295369992032647">
        <ele>285.89999999999998</ele>
        <time>2019-02-01T02:33:20Z</time>
      </trkpt>
      <trkpt lat="46.585010010749102" lon="-84.295430006459355">
        <ele>286.10000000000002</ele>
        <time>2019-02-01T02:33:21Z</time>
      </trkpt>
      <trkpt lat="46.58502995967865" lon="-84.295450039207935">
        <ele>286.10000000000002</ele>
        <time>2019-02-01T02:33:22Z</time>
      </trkpt>
      <trkpt lat="46.585100032389164" lon="-84.295709962025285">
        <ele>285</ele>
        <time>2019-02-01T02:33:23Z</time>
      </trkpt>
      <trkpt lat="46.585110006853938" lon="-84.295739969238639">
        <ele>285.10000000000002</ele>
        <time>2019-02-01T02:33:24Z</time>
      </trkpt>
      <trkpt lat="46.58515996299684" lon="-84.295839965343475">
        <ele>284.89999999999998</ele>
        <time>2019-02-01T02:33:25Z</time>
      </trkpt>
      <trkpt lat="46.58517999574542" lon="-84.295859998092055">
        <ele>284.89999999999998</ele>
        <time>2019-02-01T02:33:26Z</time>
      </trkpt>
      <trkpt lat="46.585200028494" lon="-84.295869972556829">
        <ele>284.89999999999998</ele>
        <time>2019-02-01T02:33:27Z</time>
      </trkpt>
      <trkpt lat="46.585219977423549" lon="-84.295880030840635">
        <ele>284.89999999999998</ele>
        <time>2019-02-01T02:33:28Z</time>
      </trkpt>
      <trkpt lat="46.585340006276965" lon="-84.295910038053989">
        <ele>284.89999999999998</ele>
        <time>2019-02-01T02:33:29Z</time>
      </trkpt>
      <trkpt lat="46.585360039025545" lon="-84.295910038053989">
        <ele>284.89999999999998</ele>
        <time>2019-02-01T02:33:30Z</time>
      </trkpt>
      <trkpt lat="46.585509991273284" lon="-84.295980026945472">
        <ele>285</ele>
        <time>2019-02-01T02:33:31Z</time>
      </trkpt>
      <trkpt lat="46.585530024021864" lon="-84.295990001410246">
        <ele>285.10000000000002</ele>
        <time>2019-02-01T02:33:32Z</time>
      </trkpt>
      <trkpt lat="46.585579980164766" lon="-84.295990001410246">
        <ele>284.5</ele>
        <time>2019-02-01T02:33:33Z</time>
      </trkpt>
      <trkpt lat="46.585590038448572" lon="-84.295980026945472">
        <ele>284.5</ele>
        <time>2019-02-01T02:33:34Z</time>
      </trkpt>
      <trkpt lat="46.58560998737812" lon="-84.295920012518764">
        <ele>284.80000000000001</ele>
        <time>2019-02-01T02:33:35Z</time>
      </trkpt>
      <trkpt lat="46.58560998737812" lon="-84.295899979770184">
        <ele>285</ele>
        <time>2019-02-01T02:33:36Z</time>
      </trkpt>
      <trkpt lat="46.585560031235218" lon="-84.295790009200573">
        <ele>285.39999999999998</ele>
        <time>2019-02-01T02:33:37Z</time>
      </trkpt>
      <trkpt lat="46.585539998486638" lon="-84.295769976451993">
        <ele>285.39999999999998</ele>
        <time>2019-02-01T02:33:38Z</time>
      </trkpt>
      <trkpt lat="46.585519965738058" lon="-84.295739969238639">
        <ele>285.39999999999998</ele>
        <time>2019-02-01T02:33:39Z</time>
      </trkpt>
      <trkpt lat="46.585489958524704" lon="-84.295720020309091">
        <ele>285.39999999999998</ele>
        <time>2019-02-01T02:33:40Z</time>
      </trkpt>
      <trkpt lat="46.585349980741739" lon="-84.295650031417608">
        <ele>285.39999999999998</ele>
        <time>2019-02-01T02:33:41Z</time>
      </trkpt>
      <trkpt lat="46.585330031812191" lon="-84.295639973133802">
        <ele>285.5</ele>
        <time>2019-02-01T02:33:42Z</time>
      </trkpt>
      <trkpt lat="46.585270017385483" lon="-84.2955900169909">
        <ele>285.5</ele>
        <time>2019-02-01T02:33:43Z</time>
      </trkpt>
      <trkpt lat="46.585259959101677" lon="-84.29556998424232">
        <ele>285.60000000000002</ele>
        <time>2019-02-01T02:33:44Z</time>
      </trkpt>
      <trkpt lat="46.585140014067292" lon="-84.295179974287748">
        <ele>286</ele>
        <time>2019-02-01T02:33:45Z</time>
      </trkpt>
      <trkpt lat="46.585130039602518" lon="-84.2951600253582">
        <ele>286</ele>
        <time>2019-02-01T02:33:46Z</time>
      </trkpt>
      <trkpt lat="46.585110006853938" lon="-84.29513999260962">
        <ele>286</ele>
        <time>2019-02-01T02:33:47Z</time>
      </trkpt>
      <trkpt lat="46.585100032389164" lon="-84.29511995986104">
        <ele>286</ele>
        <time>2019-02-01T02:33:48Z</time>
      </trkpt>
      <trkpt lat="46.584940021857619" lon="-84.295030022040009">
        <ele>285.80000000000001</ele>
        <time>2019-02-01T02:33:49Z</time>
      </trkpt>
      <trkpt lat="46.584940021857619" lon="-84.295019963756204">
        <ele>285.80000000000001</ele>
        <time>2019-02-01T02:33:50Z</time>
      </trkpt>
      <trkpt lat="46.584959970787168" lon="-84.294970007613301">
        <ele>285.80000000000001</ele>
        <time>2019-02-01T02:33:51Z</time>
      </trkpt>
      <trkpt lat="46.584970029070973" lon="-84.294960033148527">
        <ele>285.80000000000001</ele>
        <time>2019-02-01T02:33:52Z</time>
      </trkpt>
      <trkpt lat="46.585059966892004" lon="-84.294909993186593">
        <ele>286</ele>
        <time>2019-02-01T02:33:53Z</time>
      </trkpt>
      <trkpt lat="46.585079999640584" lon="-84.294900018721819">
        <ele>286.10000000000002</ele>
        <time>2019-02-01T02:33:54Z</time>
      </trkpt>
      <trkpt lat="46.585149988532066" lon="-84.294830029830337">
        <ele>286.19999999999999</ele>
        <time>2019-02-01T02:33:55Z</time>
      </trkpt>
      <trkpt lat="46.585170021280646" lon="-84.294819971546531">
        <ele>286.30000000000001</ele>
        <time>2019-02-01T02:33:56Z</time>
      </trkpt>
      <trkpt lat="46.585219977423549" lon="-84.294800022616982">
        <ele>286.39999999999998</ele>
        <time>2019-02-01T02:33:57Z</time>
      </trkpt>
      <trkpt lat="46.585240010172129" lon="-84.294800022616982">
        <ele>286.39999999999998</ele>
        <time>2019-02-01T02:33:58Z</time>
      </trkpt>
      <trkpt lat="46.585300024598837" lon="-84.294849978759885">
        <ele>286.5</ele>
        <time>2019-02-01T02:33:59Z</time>
      </trkpt>
      <trkpt lat="46.585309999063611" lon="-84.294860037043691">
        <ele>286.5</ele>
        <time>2019-02-01T02:34:00Z</time>
      </trkpt>
      <trkpt lat="46.585360039025545" lon="-84.294930025935173">
        <ele>286.39999999999998</ele>
        <time>2019-02-01T02:34:01Z</time>
      </trkpt>
      <trkpt lat="46.585370013490319" lon="-84.294960033148527">
        <ele>286.39999999999998</ele>
        <time>2019-02-01T02:34:02Z</time>
      </trkpt>
      <trkpt lat="46.585419969633222" lon="-84.295220039784908">
        <ele>286.10000000000002</ele>
        <time>2019-02-01T02:34:03Z</time>
      </trkpt>
      <trkpt lat="46.585419969633222" lon="-84.295249963179231">
        <ele>286.10000000000002</ele>
        <time>2019-02-01T02:34:04Z</time>
      </trkpt>
      <trkpt lat="46.585470009595156" lon="-84.295369992032647">
        <ele>286</ele>
        <time>2019-02-01T02:34:05Z</time>
      </trkpt>
      <trkpt lat="46.58547998405993" lon="-84.295399999246001">
        <ele>285.89999999999998</ele>
        <time>2019-02-01T02:34:06Z</time>
      </trkpt>
      <trkpt lat="46.585700009018183" lon="-84.295660005882382">
        <ele>286</ele>
        <time>2019-02-01T02:34:07Z</time>
      </trkpt>
      <trkpt lat="46.585720041766763" lon="-84.295680038630962">
        <ele>286</ele>
        <time>2019-02-01T02:34:08Z</time>
      </trkpt>
      <trkpt lat="46.585760023444891" lon="-84.295709962025285">
        <ele>286.19999999999999</ele>
        <time>2019-02-01T02:34:09Z</time>
      </trkpt>
      <trkpt lat="46.585790030658245" lon="-84.295720020309091">
        <ele>286.30000000000001</ele>
        <time>2019-02-01T02:34:10Z</time>
      </trkpt>
      <trkpt lat="46.585960015654564" lon="-84.295750027522445">
        <ele>287.5</ele>
        <time>2019-02-01T02:34:11Z</time>
      </trkpt>
    </trkseg>
  </trk>

  <trk>
    <name>Whup D Do</name>
    <extensions>
      <gpxx:TrackExtension>
        <gpxx:DisplayColor>DarkGray</gpxx:DisplayColor>
      </gpxx:TrackExtension>
    </extensions>
    <trkseg>
      <trkpt lat="46.585370013490319" lon="-84.296710006892681">
        <ele>287.89999999999998</ele>
        <time>2019-02-01T02:33:13Z</time>
      </trkpt>
      <trkpt lat="46.585279991850257" lon="-84.296540021896362">
        <ele>286.89999999999998</ele>
        <time>2019-02-01T02:33:14Z</time>
      </trkpt>
      <trkpt lat="46.585270017385483" lon="-84.296519989147782">
        <ele>286.80000000000001</ele>
        <time>2019-02-01T02:33:15Z</time>
      </trkpt>
      <trkpt lat="46.585230035707355" lon="-84.296480007469654">
        <ele>286.60000000000002</ele>
        <time>2019-02-01T02:33:16Z</time>
      </trkpt>
      <trkpt lat="46.585210002958775" lon="-84.296459974721074">
        <ele>286.5</ele>
        <time>2019-02-01T02:33:17Z</time>
      </trkpt>
      <trkpt lat="46.585140014067292" lon="-84.29642996750772">
        <ele>286.39999999999998</ele>
        <time>2019-02-01T02:33:18Z</time>
      </trkpt>
      <trkpt lat="46.585119981318712" lon="-84.29642996750772">
        <ele>286.39999999999998</ele>
        <time>2019-02-01T02:33:19Z</time>
      </trkpt>
      <trkpt lat="46.585019985213876" lon="-84.2964500002563">
        <ele>286.69999999999999</ele>
        <time>2019-02-01T02:33:20Z</time>
      </trkpt>
      <trkpt lat="46.585000036284328" lon="-84.296459974721074">
        <ele>286.80000000000001</ele>
        <time>2019-02-01T02:33:21Z</time>
      </trkpt>
      <trkpt lat="46.584859974682331" lon="-84.296559970825911">
        <ele>288.10000000000002</ele>
        <time>2019-02-01T02:33:22Z</time>
      </trkpt>
      <trkpt lat="46.584840025752783" lon="-84.296580003574491">
        <ele>288.19999999999999</ele>
        <time>2019-02-01T02:33:23Z</time>
      </trkpt>
      <trkpt lat="46.584740029647946" lon="-84.296619985252619">
        <ele>288.60000000000002</ele>
        <time>2019-02-01T02:33:24Z</time>
      </trkpt>
      <trkpt lat="46.584710022434592" lon="-84.296629959717393">
        <ele>288.69999999999999</ele>
        <time>2019-02-01T02:33:25Z</time>
      </trkpt>
      <trkpt lat="46.58464003354311" lon="-84.296649992465973">
        <ele>288.89999999999998</ele>
        <time>2019-02-01T02:33:26Z</time>
      </trkpt>
      <trkpt lat="46.58462000079453" lon="-84.296649992465973">
        <ele>289</ele>
        <time>2019-02-01T02:33:27Z</time>
      </trkpt>
      <trkpt lat="46.584489997476339" lon="-84.296649992465973">
        <ele>289.69999999999999</ele>
        <time>2019-02-01T02:33:28Z</time>
      </trkpt>
      <trkpt lat="46.584459990262985" lon="-84.296649992465973">
        <ele>289.89999999999998</ele>
        <time>2019-02-01T02:33:29Z</time>
      </trkpt>
      <trkpt lat="46.584329986944795" lon="-84.296689974144101">
        <ele>289.39999999999998</ele>
        <time>2019-02-01T02:33:30Z</time>
      </trkpt>
      <trkpt lat="46.584290005266666" lon="-84.296640018001199">
        <ele>289.10000000000002</ele>
        <time>2019-02-01T02:33:31Z</time>
      </trkpt>
      <trkpt lat="46.584290005266666" lon="-84.296559970825911">
        <ele>289.30000000000001</ele>
        <time>2019-02-01T02:33:32Z</time>
      </trkpt>
      <trkpt lat="46.584299979731441" lon="-84.296529963612556">
        <ele>289.60000000000002</ele>
        <time>2019-02-01T02:33:33Z</time>
      </trkpt>
      <trkpt lat="46.584329986944795" lon="-84.296500040218234">
        <ele>290</ele>
        <time>2019-02-01T02:33:34Z</time>
      </trkpt>
      <trkpt lat="46.584380026906729" lon="-84.296480007469654">
        <ele>290.39999999999998</ele>
        <time>2019-02-01T02:33:35Z</time>
      </trkpt>
      <trkpt lat="46.584420008584857" lon="-84.296459974721074">
        <ele>290.5</ele>
        <time>2019-02-01T02:33:36Z</time>
      </trkpt>
      <trkpt lat="46.584550011903048" lon="-84.29642996750772">
        <ele>289.60000000000002</ele>
        <time>2019-02-01T02:33:37Z</time>
      </trkpt>
      <trkpt lat="46.58459996804595" lon="-84.296410018578172">
        <ele>289.10000000000002</ele>
        <time>2019-02-01T02:33:38Z</time>
      </trkpt>
      <trkpt lat="46.584699964150786" lon="-84.296359978616238">
        <ele>288.10000000000002</ele>
        <time>2019-02-01T02:33:39Z</time>
      </trkpt>
      <trkpt lat="46.584719996899366" lon="-84.296350004151464">
        <ele>287.89999999999998</ele>
        <time>2019-02-01T02:33:40Z</time>
      </trkpt>
      <trkpt lat="46.584789985790849" lon="-84.296280015259981">
        <ele>287</ele>
        <time>2019-02-01T02:33:41Z</time>
      </trkpt>
      <trkpt lat="46.584810018539429" lon="-84.296250008046627">
        <ele>286.69999999999999</ele>
        <time>2019-02-01T02:33:42Z</time>
      </trkpt>
      <trkpt lat="46.584859974682331" lon="-84.296150011941791">
        <ele>285.39999999999998</ele>
        <time>2019-02-01T02:33:43Z</time>
      </trkpt>
      <trkpt lat="46.584870032966137" lon="-84.296120004728436">
        <ele>285.19999999999999</ele>
        <time>2019-02-01T02:33:44Z</time>
      </trkpt>
      <trkpt lat="46.584870032966137" lon="-84.296069964766502">
        <ele>285.30000000000001</ele>
        <time>2019-02-01T02:33:45Z</time>
      </trkpt>
      <trkpt lat="46.584850000217557" lon="-84.29604004137218">
        <ele>285.39999999999998</ele>
        <time>2019-02-01T02:33:46Z</time>
      </trkpt>
      <trkpt lat="46.584759978577495" lon="-84.295959994196892">
        <ele>286.10000000000002</ele>
        <time>2019-02-01T02:33:47Z</time>
      </trkpt>
      <trkpt lat="46.584729971364141" lon="-84.295950019732118">
        <ele>286.19999999999999</ele>
        <time>2019-02-01T02:33:48Z</time>
      </trkpt>
      <trkpt lat="46.584670040756464" lon="-84.295980026945472">
        <ele>286.69999999999999</ele>
        <time>2019-02-01T02:33:49Z</time>
      </trkpt>
      <trkpt lat="46.584650008007884" lon="-84.29599997587502">
        <ele>286.89999999999998</ele>
        <time>2019-02-01T02:33:50Z</time>
      </trkpt>
      <trkpt lat="46.584569960832596" lon="-84.296120004728436">
        <ele>288</ele>
        <time>2019-02-01T02:33:51Z</time>
      </trkpt>
      <trkpt lat="46.584559986367822" lon="-84.296140037477016">
        <ele>288.19999999999999</ele>
        <time>2019-02-01T02:33:52Z</time>
      </trkpt>
      <trkpt lat="46.584510030224919" lon="-84.296140037477016">
        <ele>288.30000000000001</ele>
        <time>2019-02-01T02:33:53Z</time>
      </trkpt>
      <trkpt lat="46.584489997476339" lon="-84.296129979193211">
        <ele>288.19999999999999</ele>
        <time>2019-02-01T02:33:54Z</time>
      </trkpt>
      <trkpt lat="46.584459990262985" lon="-84.296050015836954">
        <ele>287.60000000000002</ele>
        <time>2019-02-01T02:33:55Z</time>
      </trkpt>
      <trkpt lat="46.584459990262985" lon="-84.2960200086236">
        <ele>287.39999999999998</ele>
        <time>2019-02-01T02:33:56Z</time>
      </trkpt>
      <trkpt lat="46.584429983049631" lon="-84.295850023627281">
        <ele>286.39999999999998</ele>
        <time>2019-02-01T02:33:57Z</time>
      </trkpt>
      <trkpt lat="46.584429983049631" lon="-84.295809958130121">
        <ele>286.19999999999999</ele>
        <time>2019-02-01T02:33:58Z</time>
      </trkpt>
      <trkpt lat="46.584429983049631" lon="-84.295699987560511">
        <ele>285.80000000000001</ele>
        <time>2019-02-01T02:33:59Z</time>
      </trkpt>
      <trkpt lat="46.584429983049631" lon="-84.295660005882382">
        <ele>285.69999999999999</ele>
        <time>2019-02-01T02:34:00Z</time>
      </trkpt>
      <trkpt lat="46.584450015798211" lon="-84.295530002564192">
        <ele>285.30000000000001</ele>
        <time>2019-02-01T02:34:01Z</time>
      </trkpt>
      <trkpt lat="46.584469964727759" lon="-84.295499995350838">
        <ele>285.30000000000001</ele>
        <time>2019-02-01T02:34:02Z</time>
      </trkpt>
      <trkpt lat="46.584489997476339" lon="-84.295450039207935">
        <ele>285.19999999999999</ele>
        <time>2019-02-01T02:34:03Z</time>
      </trkpt>
      <trkpt lat="46.584510030224919" lon="-84.295439980924129">
        <ele>285.30000000000001</ele>
        <time>2019-02-01T02:34:04Z</time>
      </trkpt>
      <trkpt lat="46.584580019116402" lon="-84.295430006459355">
        <ele>285.39999999999998</ele>
        <time>2019-02-01T02:34:05Z</time>
      </trkpt>
      <trkpt lat="46.58459996804595" lon="-84.295439980924129">
        <ele>285.39999999999998</ele>
        <time>2019-02-01T02:34:06Z</time>
      </trkpt>
      <trkpt lat="46.58462000079453" lon="-84.295469988137484">
        <ele>285.5</ele>
        <time>2019-02-01T02:34:07Z</time>
      </trkpt>
      <trkpt lat="46.584629975259304" lon="-84.295499995350838">
        <ele>285.5</ele>
        <time>2019-02-01T02:34:08Z</time>
      </trkpt>
      <trkpt lat="46.584659982472658" lon="-84.295609965920448">
        <ele>285.69999999999999</ele>
        <time>2019-02-01T02:34:09Z</time>
      </trkpt>
      <trkpt lat="46.584659982472658" lon="-84.295629998669028">
        <ele>285.69999999999999</ele>
        <time>2019-02-01T02:34:10Z</time>
      </trkpt>
      <trkpt lat="46.584699964150786" lon="-84.295680038630962">
        <ele>285.80000000000001</ele>
        <time>2019-02-01T02:34:11Z</time>
      </trkpt>
      <trkpt lat="46.584710022434592" lon="-84.295680038630962">
        <ele>285.69999999999999</ele>
        <time>2019-02-01T02:34:12Z</time>
      </trkpt>
      <trkpt lat="46.584729971364141" lon="-84.295660005882382">
        <ele>285.69999999999999</ele>
        <time>2019-02-01T02:34:13Z</time>
      </trkpt>
      <trkpt lat="46.584740029647946" lon="-84.295639973133802">
        <ele>285.69999999999999</ele>
        <time>2019-02-01T02:34:14Z</time>
      </trkpt>
      <trkpt lat="46.584799960255623" lon="-84.295420031994581">
        <ele>285.69999999999999</ele>
        <time>2019-02-01T02:34:15Z</time>
      </trkpt>
      <trkpt lat="46.584819993004203" lon="-84.295399999246001">
        <ele>285.69999999999999</ele>
        <time>2019-02-01T02:34:16Z</time>
      </trkpt>
      <trkpt lat="46.584840025752783" lon="-84.295379966497421">
        <ele>285.80000000000001</ele>
        <time>2019-02-01T02:34:17Z</time>
      </trkpt>
      <trkpt lat="46.584859974682331" lon="-84.295369992032647">
        <ele>285.80000000000001</ele>
        <time>2019-02-01T02:34:18Z</time>
      </trkpt>
      <trkpt lat="46.584910014644265" lon="-84.295369992032647">
        <ele>285.89999999999998</ele>
        <time>2019-02-01T02:34:19Z</time>
      </trkpt>
    </trkseg>
  </trk>

  <trk>
    <name>Willy</name>
    <extensions>
      <gpxx:TrackExtension>
        <gpxx:DisplayColor>DarkGray</gpxx:DisplayColor>
      </gpxx:TrackExtension>
    </extensions>
    <trkseg>
      <trkpt lat="46.585960015654564" lon="-84.295750027522445">
        <ele>287.19999999999999</ele>
        <time>2019-02-01T02:33:25Z</time>
      </trkpt>
      <trkpt lat="46.586090018972754" lon="-84.295899979770184">
        <ele>289.10000000000002</ele>
        <time>2019-02-01T02:33:26Z</time>
      </trkpt>
      <trkpt lat="46.586109967902303" lon="-84.295920012518764">
        <ele>289.5</ele>
        <time>2019-02-01T02:33:27Z</time>
      </trkpt>
      <trkpt lat="46.586209964007139" lon="-84.296240033581853">
        <ele>294.19999999999999</ele>
        <time>2019-02-01T02:33:28Z</time>
      </trkpt>
      <trkpt lat="46.586220022290945" lon="-84.296250008046627">
        <ele>294.39999999999998</ele>
        <time>2019-02-01T02:33:29Z</time>
      </trkpt>
      <trkpt lat="46.586280036717653" lon="-84.296189993619919">
        <ele>294.69999999999999</ele>
        <time>2019-02-01T02:33:30Z</time>
      </trkpt>
      <trkpt lat="46.586250029504299" lon="-84.295820016413927">
        <ele>294.69999999999999</ele>
        <time>2019-02-01T02:33:31Z</time>
      </trkpt>
      <trkpt lat="46.586239971220493" lon="-84.295790009200573">
        <ele>291.19999999999999</ele>
        <time>2019-02-01T02:33:32Z</time>
      </trkpt>
      <trkpt lat="46.586260003969073" lon="-84.295680038630962">
        <ele>291</ele>
        <time>2019-02-01T02:33:33Z</time>
      </trkpt>
      <trkpt lat="46.586260003969073" lon="-84.295660005882382">
        <ele>290.39999999999998</ele>
        <time>2019-02-01T02:33:34Z</time>
      </trkpt>
      <trkpt lat="46.586290011182427" lon="-84.295639973133802">
        <ele>290.39999999999998</ele>
        <time>2019-02-01T02:33:35Z</time>
      </trkpt>
      <trkpt lat="46.586299985647202" lon="-84.295639973133802">
        <ele>290.60000000000002</ele>
        <time>2019-02-01T02:33:36Z</time>
      </trkpt>
      <trkpt lat="46.58633996732533" lon="-84.295680038630962">
        <ele>290.80000000000001</ele>
        <time>2019-02-01T02:33:37Z</time>
      </trkpt>
      <trkpt lat="46.58633996732533" lon="-84.295690013095737">
        <ele>291.5</ele>
        <time>2019-02-01T02:33:38Z</time>
      </trkpt>
      <trkpt lat="46.586429988965392" lon="-84.296080023050308">
        <ele>291.5</ele>
        <time>2019-02-01T02:33:39Z</time>
      </trkpt>
      <trkpt lat="46.586439963430166" lon="-84.296110030263662">
        <ele>294.5</ele>
        <time>2019-02-01T02:33:40Z</time>
      </trkpt>
      <trkpt lat="46.5864900033921" lon="-84.296120004728436">
        <ele>294.69999999999999</ele>
        <time>2019-02-01T02:33:41Z</time>
      </trkpt>
      <trkpt lat="46.586499977856874" lon="-84.296110030263662">
        <ele>294.5</ele>
        <time>2019-02-01T02:33:42Z</time>
      </trkpt>
      <trkpt lat="46.586520010605454" lon="-84.29604004137218">
        <ele>294.5</ele>
        <time>2019-02-01T02:33:43Z</time>
      </trkpt>
      <trkpt lat="46.58646997064352" lon="-84.295769976451993">
        <ele>294.39999999999998</ele>
        <time>2019-02-01T02:33:44Z</time>
      </trkpt>
      <trkpt lat="46.58646997064352" lon="-84.295739969238639">
        <ele>294.19999999999999</ele>
        <time>2019-02-01T02:33:45Z</time>
      </trkpt>
      <trkpt lat="46.586480028927326" lon="-84.295660005882382">
        <ele>292.89999999999998</ele>
        <time>2019-02-01T02:33:46Z</time>
      </trkpt>
      <trkpt lat="46.586480028927326" lon="-84.295650031417608">
        <ele>292.69999999999999</ele>
        <time>2019-02-01T02:33:47Z</time>
      </trkpt>
      <trkpt lat="46.58651003614068" lon="-84.295650031417608">
        <ele>292.39999999999998</ele>
        <time>2019-02-01T02:33:48Z</time>
      </trkpt>
      <trkpt lat="46.586529985070229" lon="-84.295650031417608">
        <ele>292.39999999999998</ele>
        <time>2019-02-01T02:33:49Z</time>
      </trkpt>
      <trkpt lat="46.586580025032163" lon="-84.295699987560511">
        <ele>292.5</ele>
        <time>2019-02-01T02:33:50Z</time>
      </trkpt>
      <trkpt lat="46.586599973961711" lon="-84.295720020309091">
        <ele>292.69999999999999</ele>
        <time>2019-02-01T02:33:51Z</time>
      </trkpt>
      <trkpt lat="46.586710028350353" lon="-84.295920012518764">
        <ele>293.19999999999999</ele>
        <time>2019-02-01T02:33:52Z</time>
      </trkpt>
      <trkpt lat="46.586729977279902" lon="-84.295939961448312">
        <ele>293.39999999999998</ele>
        <time>2019-02-01T02:33:53Z</time>
      </trkpt>
      <trkpt lat="46.58676995895803" lon="-84.295980026945472">
        <ele>293.80000000000001</ele>
        <time>2019-02-01T02:33:54Z</time>
      </trkpt>
      <trkpt lat="46.586780017241836" lon="-84.295980026945472">
        <ele>293.80000000000001</ele>
        <time>2019-02-01T02:33:55Z</time>
      </trkpt>
      <trkpt lat="46.586819998919964" lon="-84.295939961448312">
        <ele>293.80000000000001</ele>
        <time>2019-02-01T02:33:56Z</time>
      </trkpt>
      <trkpt lat="46.586840031668544" lon="-84.295899979770184">
        <ele>293.80000000000001</ele>
        <time>2019-02-01T02:33:57Z</time>
      </trkpt>
      <trkpt lat="46.586799966171384" lon="-84.295550035312772">
        <ele>294</ele>
        <time>2019-02-01T02:33:58Z</time>
      </trkpt>
      <trkpt lat="46.586799966171384" lon="-84.295530002564192">
        <ele>294.10000000000002</ele>
        <time>2019-02-01T02:33:59Z</time>
      </trkpt>
      <trkpt lat="46.586750010028481" lon="-84.295450039207935">
        <ele>293.69999999999999</ele>
        <time>2019-02-01T02:34:00Z</time>
      </trkpt>
      <trkpt lat="46.586729977279902" lon="-84.295439980924129">
        <ele>293.69999999999999</ele>
        <time>2019-02-01T02:34:01Z</time>
      </trkpt>
      <trkpt lat="46.586620006710291" lon="-84.295379966497421">
        <ele>293</ele>
        <time>2019-02-01T02:34:02Z</time>
      </trkpt>
      <trkpt lat="46.586599973961711" lon="-84.295369992032647">
        <ele>292.80000000000001</ele>
        <time>2019-02-01T02:34:03Z</time>
      </trkpt>
      <trkpt lat="46.586450021713972" lon="-84.295309977605939">
        <ele>291.89999999999998</ele>
        <time>2019-02-01T02:34:04Z</time>
      </trkpt>
      <trkpt lat="46.586439963430166" lon="-84.295300003141165">
        <ele>291.80000000000001</ele>
        <time>2019-02-01T02:34:05Z</time>
      </trkpt>
      <trkpt lat="46.586369974538684" lon="-84.295239988714457">
        <ele>290.5</ele>
        <time>2019-02-01T02:34:06Z</time>
      </trkpt>
      <trkpt lat="46.586369974538684" lon="-84.295230014249682">
        <ele>290.39999999999998</ele>
        <time>2019-02-01T02:34:07Z</time>
      </trkpt>
      <trkpt lat="46.58636000007391" lon="-84.29511995986104">
        <ele>289.39999999999998</ele>
        <time>2019-02-01T02:34:08Z</time>
      </trkpt>
      <trkpt lat="46.58638003282249" lon="-84.295070003718138">
        <ele>289.39999999999998</ele>
        <time>2019-02-01T02:34:09Z</time>
      </trkpt>
      <trkpt lat="46.586520010605454" lon="-84.295000014826655">
        <ele>289.30000000000001</ele>
        <time>2019-02-01T02:34:10Z</time>
      </trkpt>
      <trkpt lat="46.586529985070229" lon="-84.294919967651367">
        <ele>289.39999999999998</ele>
        <time>2019-02-01T02:34:11Z</time>
      </trkpt>
      <trkpt lat="46.586529985070229" lon="-84.294900018721819">
        <ele>289.69999999999999</ele>
        <time>2019-02-01T02:34:12Z</time>
      </trkpt>
      <trkpt lat="46.5864900033921" lon="-84.294840004295111">
        <ele>289.69999999999999</ele>
        <time>2019-02-01T02:34:13Z</time>
      </trkpt>
      <trkpt lat="46.586480028927326" lon="-84.294819971546531">
        <ele>289.5</ele>
        <time>2019-02-01T02:34:14Z</time>
      </trkpt>
      <trkpt lat="46.586169982329011" lon="-84.294419987127185">
        <ele>289.39999999999998</ele>
        <time>2019-02-01T02:34:15Z</time>
      </trkpt>
      <trkpt lat="46.586150033399463" lon="-84.294400038197637">
        <ele>289.5</ele>
        <time>2019-02-01T02:34:16Z</time>
      </trkpt>
      <trkpt lat="46.586079960688949" lon="-84.294020002707839">
        <ele>289.60000000000002</ele>
        <time>2019-02-01T02:34:17Z</time>
      </trkpt>
      <trkpt lat="46.586069986224174" lon="-84.293980021029711">
        <ele>288.39999999999998</ele>
        <time>2019-02-01T02:34:18Z</time>
      </trkpt>
      <trkpt lat="46.585860019549727" lon="-84.293569978326559">
        <ele>288.39999999999998</ele>
        <time>2019-02-01T02:34:19Z</time>
      </trkpt>
      <trkpt lat="46.585849961265922" lon="-84.293539971113205">
        <ele>287.89999999999998</ele>
        <time>2019-02-01T02:34:20Z</time>
      </trkpt>
      <trkpt lat="46.585760023444891" lon="-84.293220033869147">
        <ele>287.89999999999998</ele>
        <time>2019-02-01T02:34:21Z</time>
      </trkpt>
      <trkpt lat="46.585760023444891" lon="-84.293200001120567">
        <ele>286.89999999999998</ele>
        <time>2019-02-01T02:34:22Z</time>
      </trkpt>
      <trkpt lat="46.585730016231537" lon="-84.293149961158633">
        <ele>286.89999999999998</ele>
        <time>2019-02-01T02:34:23Z</time>
      </trkpt>
      <trkpt lat="46.585709983482957" lon="-84.293130012229085">
        <ele>286.19999999999999</ele>
        <time>2019-02-01T02:34:24Z</time>
      </trkpt>
      <trkpt lat="46.585470009595156" lon="-84.29286003112793">
        <ele>286.19999999999999</ele>
        <time>2019-02-01T02:34:25Z</time>
      </trkpt>
      <trkpt lat="46.585460035130382" lon="-84.292830023914576">
        <ele>286.10000000000002</ele>
        <time>2019-02-01T02:34:26Z</time>
      </trkpt>
      <trkpt lat="46.585430027917027" lon="-84.292730027809739">
        <ele>286.10000000000002</ele>
        <time>2019-02-01T02:34:27Z</time>
      </trkpt>
      <trkpt lat="46.585430027917027" lon="-84.292689962312579">
        <ele>285.60000000000002</ele>
        <time>2019-02-01T02:34:28Z</time>
      </trkpt>
      <trkpt lat="46.585440002381802" lon="-84.29251997731626">
        <ele>285.39999999999998</ele>
        <time>2019-02-01T02:34:29Z</time>
      </trkpt>
    </trkseg>
  </trk>

</gpx>